<?xml version="1.0" encoding="UTF-8" standalone="no"?>
<!-- Created with Inkscape (http://www.inkscape.org/) -->

<svg
   xmlns:dc="http://purl.org/dc/elements/1.1/"
   xmlns:cc="http://creativecommons.org/ns#"
   xmlns:rdf="http://www.w3.org/1999/02/22-rdf-syntax-ns#"
   xmlns:svg="http://www.w3.org/2000/svg"
   xmlns="http://www.w3.org/2000/svg"
   xmlns:sodipodi="http://sodipodi.sourceforge.net/DTD/sodipodi-0.dtd"
   xmlns:inkscape="http://www.inkscape.org/namespaces/inkscape"
   width="1011mm"
   height="403mm"
   viewBox="0 0 1011 403"
   version="1.1"
   id="svg3679"
   sodipodi:docname="boite_ecran+cardi.svg"
   inkscape:version="0.92.2 (5c3e80d, 2017-08-06)">
  <sodipodi:namedview
     id="base"
     pagecolor="#ffffff"
     bordercolor="#666666"
     borderopacity="1.0"
     inkscape:pageopacity="0.0"
     inkscape:pageshadow="2"
     inkscape:zoom="0.7"
     inkscape:cx="1249.7245"
     inkscape:cy="800.94556"
     inkscape:document-units="mm"
     inkscape:current-layer="layer1"
     showgrid="false"
     inkscape:window-width="1920"
     inkscape:window-height="1017"
     inkscape:window-x="-8"
     inkscape:window-y="-8"
     inkscape:window-maximized="1"
     fit-margin-top="0"
     fit-margin-left="0"
     fit-margin-right="0"
     fit-margin-bottom="0"
     inkscape:measure-start="1865.71,800"
     inkscape:measure-end="1858.22,383.622" />
  <defs
     id="defs3673">
    <inkscape:path-effect
       effect="bspline"
       id="path-effect2983"
       is_visible="true"
       weight="33.333333"
       steps="2"
       helper_size="0"
       apply_no_weight="true"
       apply_with_weight="true"
       only_selected="false" />
  </defs>
  <metadata
     id="metadata3676">
    <rdf:RDF>
      <cc:Work
         rdf:about="">
        <dc:format>image/svg+xml</dc:format>
        <dc:type
           rdf:resource="http://purl.org/dc/dcmitype/StillImage" />
        <dc:title />
      </cc:Work>
    </rdf:RDF>
  </metadata>
  <g
     inkscape:label="Calque 1"
     inkscape:groupmode="layer"
     id="layer1"
     transform="translate(-1.5,-1.5)">
    <path
       id="path6298"
       inkscape:label="part"
       style="stroke:#000000;stroke-width:1;fill:none"
       d="M 100.0,311.0 L 115.67413793,311.0 L 115.67413793,308.0 L 131.498275863,308.0 L 131.498275863,311.0 L 147.122413792,311.0 L 147.122413792,308.0 L 162.946551725,308.0 L 162.946551725,311.0 L 178.570689654,311.0 L 178.570689654,308.0 L 194.394827587,308.0 L 194.394827587,311.0 L 210.018965516,311.0 L 210.018965516,308.0 L 225.843103449,308.0 L 225.843103449,311.0 L 241.467241379,311.0 L 241.467241379,308.0 L 257.291379311,308.0 L 257.291379311,311.0 L 272.915517241,311.0 L 272.915517241,308.0 L 288.739655173,308.0 L 288.739655173,311.0 L 304.363793103,311.0 L 304.363793103,308.0 L 320.187931035,308.0 L 320.187931035,311.0 L 335.812068965,311.0 L 335.812068965,308.0 L 351.636206897,308.0 L 351.636206897,311.0 L 367.260344827,311.0 L 367.260344827,308.0 L 383.084482759,308.0 L 383.084482759,311.0 L 398.708620689,311.0 L 398.708620689,308.0 L 414.532758621,308.0 L 414.532758621,311.0 L 430.156896551,311.0 L 430.156896551,308.0 L 445.981034484,308.0 L 445.981034484,311.0 L 461.605172413,311.0 L 461.605172413,308.0 L 477.429310346,308.0 L 477.429310346,311.0 L 493.053448275,311.0 L 493.053448275,308.0 L 508.877586208,308.0 L 508.877586208,311.0 L 524.501724137,311.0 L 524.501724137,308.0 L 540.32586207,308.0 L 540.32586207,311.0 L 556.0,311.0 " />
    <path
       id="path6300"
       inkscape:label="part"
       style="stroke:#000000;stroke-width:1;fill:none"
       d="M 556.0,311.0 L 556.0,327.250000001 L 553.0,327.250000001 L 553.0,346.349999999 L 556.0,346.349999999 L 556.0,365.650000001 L 553.0,365.650000001 L 553.0,384.749999999 L 556.0,384.749999999 L 556.0,401.0 " />
    <path
       id="path6302"
       inkscape:label="part"
       style="stroke:#000000;stroke-width:1;fill:none"
       d="M 556.0,401.0 L 540.32586207,401.0 L 540.32586207,404.0 L 524.501724137,404.0 L 524.501724137,401.0 L 508.877586208,401.0 L 508.877586208,404.0 L 493.053448275,404.0 L 493.053448275,401.0 L 477.429310346,401.0 L 477.429310346,404.0 L 461.605172413,404.0 L 461.605172413,401.0 L 445.981034484,401.0 L 445.981034484,404.0 L 430.156896551,404.0 L 430.156896551,401.0 L 414.532758621,401.0 L 414.532758621,404.0 L 398.708620689,404.0 L 398.708620689,401.0 L 383.084482759,401.0 L 383.084482759,404.0 L 367.260344827,404.0 L 367.260344827,401.0 L 351.636206897,401.0 L 351.636206897,404.0 L 335.812068965,404.0 L 335.812068965,401.0 L 320.187931035,401.0 L 320.187931035,404.0 L 304.363793103,404.0 L 304.363793103,401.0 L 288.739655173,401.0 L 288.739655173,404.0 L 272.915517241,404.0 L 272.915517241,401.0 L 257.291379311,401.0 L 257.291379311,404.0 L 241.467241379,404.0 L 241.467241379,401.0 L 225.843103449,401.0 L 225.843103449,404.0 L 210.018965516,404.0 L 210.018965516,401.0 L 194.394827587,401.0 L 194.394827587,404.0 L 178.570689654,404.0 L 178.570689654,401.0 L 162.946551725,401.0 L 162.946551725,404.0 L 147.122413792,404.0 L 147.122413792,401.0 L 131.498275863,401.0 L 131.498275863,404.0 L 115.67413793,404.0 L 115.67413793,401.0 L 100.0,401.0 " />
    <path
       id="path6304"
       inkscape:label="part"
       style="stroke:#000000;stroke-width:1;fill:none"
       d="M 100.0,401.0 L 100.0,384.749999999 L 103.0,384.749999999 L 103.0,365.650000001 L 100.0,365.650000001 L 100.0,346.349999999 L 103.0,346.349999999 L 103.0,327.250000001 L 100.0,327.250000001 L 100.0,311.0 " />
    <path
       id="path6306"
       inkscape:label="part"
       style="stroke:#000000;stroke-width:1;fill:none"
       d="M 5.0,103.0 L 21.1499999993,103.0 L 21.1499999993,100.0 L 40.4500000007,100.0 L 40.4500000007,103.0 L 59.5499999993,103.0 L 59.5499999993,100.0 L 78.8500000007,100.0 L 78.8500000007,103.0 L 95.0,103.0 " />
    <path
       id="path6308"
       inkscape:label="part"
       style="stroke:#000000;stroke-width:1;fill:none"
       d="M 95.0,103.0 L 95.0,115.796153845 L 98.0,115.796153845 L 98.0,131.742307693 L 95.0,131.742307693 L 95.0,147.488461538 L 98.0,147.488461538 L 98.0,163.434615385 L 95.0,163.434615385 L 95.0,179.18076923 L 98.0,179.18076923 L 98.0,195.126923078 L 95.0,195.126923078 L 95.0,210.873076922 L 98.0,210.873076922 L 98.0,226.81923077 L 95.0,226.81923077 L 95.0,242.565384615 L 98.0,242.565384615 L 98.0,258.511538462 L 95.0,258.511538462 L 95.0,274.257692307 L 98.0,274.257692307 L 98.0,290.203846155 L 95.0,290.203846155 L 95.0,303.0 " />
    <path
       id="path6310"
       inkscape:label="part"
       style="stroke:#000000;stroke-width:1;fill:none"
       d="M 95.0,303.0 L 78.8500000007,303.0 L 78.8500000007,306.0 L 59.5499999993,306.0 L 59.5499999993,303.0 L 40.4500000007,303.0 L 40.4500000007,306.0 L 21.1499999993,306.0 L 21.1499999993,303.0 L 5.0,303.0 " />
    <path
       id="path6312"
       inkscape:label="part"
       style="stroke:#000000;stroke-width:1;fill:none"
       d="M 5.0,303.0 L 5.0,290.203846155 L 2.0,290.203846155 L 2.0,274.257692307 L 5.0,274.257692307 L 5.0,258.511538462 L 2.0,258.511538462 L 2.0,242.565384615 L 5.0,242.565384615 L 5.0,226.81923077 L 2.0,226.81923077 L 2.0,210.873076922 L 5.0,210.873076922 L 5.0,195.126923078 L 2.0,195.126923078 L 2.0,179.18076923 L 5.0,179.18076923 L 5.0,163.434615385 L 2.0,163.434615385 L 2.0,147.488461538 L 5.0,147.488461538 L 5.0,131.742307693 L 2.0,131.742307693 L 2.0,115.796153845 L 5.0,115.796153845 L 5.0,103.0 " />
    <path
       id="path6322"
       inkscape:label="part"
       style="stroke:#000000;stroke-width:1;fill:none"
       d="M 561.0,103.0 L 577.149999999,103.0 L 577.149999999,100.0 L 596.450000001,100.0 L 596.450000001,103.0 L 615.549999999,103.0 L 615.549999999,100.0 L 634.850000001,100.0 L 634.850000001,103.0 L 651.0,103.0 " />
    <path
       id="path6324"
       inkscape:label="part"
       style="stroke:#000000;stroke-width:1;fill:none"
       d="M 651.0,103.0 L 651.0,115.796153845 L 654.0,115.796153845 L 654.0,131.742307693 L 651.0,131.742307693 L 651.0,147.488461538 L 654.0,147.488461538 L 654.0,163.434615385 L 651.0,163.434615385 L 651.0,179.18076923 L 654.0,179.18076923 L 654.0,195.126923078 L 651.0,195.126923078 L 651.0,210.873076922 L 654.0,210.873076922 L 654.0,226.81923077 L 651.0,226.81923077 L 651.0,242.565384615 L 654.0,242.565384615 L 654.0,258.511538462 L 651.0,258.511538462 L 651.0,274.257692307 L 654.0,274.257692307 L 654.0,290.203846155 L 651.0,290.203846155 L 651.0,303.0 " />
    <path
       id="path6326"
       inkscape:label="part"
       style="stroke:#000000;stroke-width:1;fill:none"
       d="M 651.0,303.0 L 634.850000001,303.0 L 634.850000001,306.0 L 615.549999999,306.0 L 615.549999999,303.0 L 596.450000001,303.0 L 596.450000001,306.0 L 577.149999999,306.0 L 577.149999999,303.0 L 561.0,303.0 " />
    <path
       id="path6328"
       inkscape:label="part"
       style="stroke:#000000;stroke-width:1;fill:none"
       d="M 561.0,303.0 L 561.0,290.203846155 L 558.0,290.203846155 L 558.0,274.257692307 L 561.0,274.257692307 L 561.0,258.511538462 L 558.0,258.511538462 L 558.0,242.565384615 L 561.0,242.565384615 L 561.0,226.81923077 L 558.0,226.81923077 L 558.0,210.873076922 L 561.0,210.873076922 L 561.0,195.126923078 L 558.0,195.126923078 L 558.0,179.18076923 L 561.0,179.18076923 L 561.0,163.434615385 L 558.0,163.434615385 L 558.0,147.488461538 L 561.0,147.488461538 L 561.0,131.742307693 L 558.0,131.742307693 L 558.0,115.796153845 L 561.0,115.796153845 L 561.0,103.0 " />
    <path
       id="path6330"
       inkscape:label="part"
       style="stroke:#000000;stroke-width:1;fill:none"
       d="M 656.0,100.0 L 671.774137932,100.0 L 671.774137932,103.0 L 687.398275861,103.0 L 687.398275861,100.0 L 703.222413794,100.0 L 703.222413794,103.0 L 718.846551723,103.0 L 718.846551723,100.0 L 734.670689656,100.0 L 734.670689656,103.0 L 750.294827585,103.0 L 750.294827585,100.0 L 766.118965518,100.0 L 766.118965518,103.0 L 781.743103448,103.0 L 781.743103448,100.0 L 797.56724138,100.0 L 797.56724138,103.0 L 813.19137931,103.0 L 813.19137931,100.0 L 829.015517242,100.0 L 829.015517242,103.0 L 844.639655172,103.0 L 844.639655172,100.0 L 860.463793104,100.0 L 860.463793104,103.0 L 876.087931034,103.0 L 876.087931034,100.0 L 891.912068966,100.0 L 891.912068966,103.0 L 907.536206896,103.0 L 907.536206896,100.0 L 923.360344828,100.0 L 923.360344828,103.0 L 938.984482758,103.0 L 938.984482758,100.0 L 954.80862069,100.0 L 954.80862069,103.0 L 970.43275862,103.0 L 970.43275862,100.0 L 986.256896552,100.0 L 986.256896552,103.0 L 1001.88103448,103.0 L 1001.88103448,100.0 L 1017.70517241,100.0 L 1017.70517241,103.0 L 1033.32931034,103.0 L 1033.32931034,100.0 L 1049.15344828,100.0 L 1049.15344828,103.0 L 1064.77758621,103.0 L 1064.77758621,100.0 L 1080.60172414,100.0 L 1080.60172414,103.0 L 1096.22586207,103.0 L 1096.22586207,100.0 L 1112.0,100.0 " />
    <path
       id="path6332"
       inkscape:label="part"
       style="stroke:#000000;stroke-width:1;fill:none"
       d="M 1112.0,100.0 L 1112.0,115.896153847 L 1109.0,115.896153847 L 1109.0,131.642307692 L 1112.0,131.642307692 L 1112.0,147.588461539 L 1109.0,147.588461539 L 1109.0,163.334615384 L 1112.0,163.334615384 L 1112.0,179.280769232 L 1109.0,179.280769232 L 1109.0,195.026923076 L 1112.0,195.026923076 L 1112.0,210.973076924 L 1109.0,210.973076924 L 1109.0,226.719230768 L 1112.0,226.719230768 L 1112.0,242.665384616 L 1109.0,242.665384616 L 1109.0,258.411538461 L 1112.0,258.411538461 L 1112.0,274.357692308 L 1109.0,274.357692308 L 1109.0,290.103846153 L 1112.0,290.103846153 L 1112.0,306.0 " />
    <path
       id="path6334"
       inkscape:label="part"
       style="stroke:#000000;stroke-width:1;fill:none"
       d="M 1112.0,306.0 L 1096.22586207,306.0 L 1096.22586207,303.0 L 1080.60172414,303.0 L 1080.60172414,306.0 L 1064.77758621,306.0 L 1064.77758621,303.0 L 1049.15344828,303.0 L 1049.15344828,306.0 L 1033.32931034,306.0 L 1033.32931034,303.0 L 1017.70517241,303.0 L 1017.70517241,306.0 L 1001.88103448,306.0 L 1001.88103448,303.0 L 986.256896552,303.0 L 986.256896552,306.0 L 970.43275862,306.0 L 970.43275862,303.0 L 954.80862069,303.0 L 954.80862069,306.0 L 938.984482758,306.0 L 938.984482758,303.0 L 923.360344828,303.0 L 923.360344828,306.0 L 907.536206896,306.0 L 907.536206896,303.0 L 891.912068966,303.0 L 891.912068966,306.0 L 876.087931034,306.0 L 876.087931034,303.0 L 860.463793104,303.0 L 860.463793104,306.0 L 844.639655172,306.0 L 844.639655172,303.0 L 829.015517242,303.0 L 829.015517242,306.0 L 813.19137931,306.0 L 813.19137931,303.0 L 797.56724138,303.0 L 797.56724138,306.0 L 781.743103448,306.0 L 781.743103448,303.0 L 766.118965518,303.0 L 766.118965518,306.0 L 750.294827585,306.0 L 750.294827585,303.0 L 734.670689656,303.0 L 734.670689656,306.0 L 718.846551723,306.0 L 718.846551723,303.0 L 703.222413794,303.0 L 703.222413794,306.0 L 687.398275861,306.0 L 687.398275861,303.0 L 671.774137932,303.0 L 671.774137932,306.0 L 656.0,306.0 " />
    <path
       id="path6336"
       inkscape:label="part"
       style="stroke:#000000;stroke-width:1;fill:none"
       d="M 656.0,306.0 L 656.0,290.103846153 L 659.0,290.103846153 L 659.0,274.357692308 L 656.0,274.357692308 L 656.0,258.411538461 L 659.0,258.411538461 L 659.0,242.665384616 L 656.0,242.665384616 L 656.0,226.719230768 L 659.0,226.719230768 L 659.0,210.973076924 L 656.0,210.973076924 L 656.0,195.026923076 L 659.0,195.026923076 L 659.0,179.280769232 L 656.0,179.280769232 L 656.0,163.334615384 L 659.0,163.334615384 L 659.0,147.588461539 L 656.0,147.588461539 L 656.0,131.642307692 L 659.0,131.642307692 L 659.0,115.896153847 L 656.0,115.896153847 L 656.0,100.0 " />
    <path
       id="path6338"
       inkscape:label="part"
       style="stroke:#000000;stroke-width:1;fill:none"
       d="M 100.0,5.0 L 115.67413793,5.0 L 115.67413793,2.0 L 131.498275863,2.0 L 131.498275863,5.0 L 147.122413792,5.0 L 147.122413792,2.0 L 162.946551725,2.0 L 162.946551725,5.0 L 178.570689654,5.0 L 178.570689654,2.0 L 194.394827587,2.0 L 194.394827587,5.0 L 210.018965516,5.0 L 210.018965516,2.0 L 225.843103449,2.0 L 225.843103449,5.0 L 241.467241379,5.0 L 241.467241379,2.0 L 257.291379311,2.0 L 257.291379311,5.0 L 272.915517241,5.0 L 272.915517241,2.0 L 288.739655173,2.0 L 288.739655173,5.0 L 304.363793103,5.0 L 304.363793103,2.0 L 320.187931035,2.0 L 320.187931035,5.0 L 335.812068965,5.0 L 335.812068965,2.0 L 351.636206897,2.0 L 351.636206897,5.0 L 367.260344827,5.0 L 367.260344827,2.0 L 383.084482759,2.0 L 383.084482759,5.0 L 398.708620689,5.0 L 398.708620689,2.0 L 414.532758621,2.0 L 414.532758621,5.0 L 430.156896551,5.0 L 430.156896551,2.0 L 445.981034484,2.0 L 445.981034484,5.0 L 461.605172413,5.0 L 461.605172413,2.0 L 477.429310346,2.0 L 477.429310346,5.0 L 493.053448275,5.0 L 493.053448275,2.0 L 508.877586208,2.0 L 508.877586208,5.0 L 524.501724137,5.0 L 524.501724137,2.0 L 540.32586207,2.0 L 540.32586207,5.0 L 556.0,5.0 " />
    <path
       id="path6340"
       inkscape:label="part"
       style="stroke:#000000;stroke-width:1;fill:none"
       d="M 556.0,5.0 L 556.0,21.2500000007 L 553.0,21.2500000007 L 553.0,40.3499999993 L 556.0,40.3499999993 L 556.0,59.6500000007 L 553.0,59.6500000007 L 553.0,78.7499999993 L 556.0,78.7499999993 L 556.0,95.0 " />
    <path
       id="path6342"
       inkscape:label="part"
       style="stroke:#000000;stroke-width:1;fill:none"
       d="M 556.0,95.0 L 540.32586207,95.0 L 540.32586207,98.0 L 524.501724137,98.0 L 524.501724137,95.0 L 508.877586208,95.0 L 508.877586208,98.0 L 493.053448275,98.0 L 493.053448275,95.0 L 477.429310346,95.0 L 477.429310346,98.0 L 461.605172413,98.0 L 461.605172413,95.0 L 445.981034484,95.0 L 445.981034484,98.0 L 430.156896551,98.0 L 430.156896551,95.0 L 414.532758621,95.0 L 414.532758621,98.0 L 398.708620689,98.0 L 398.708620689,95.0 L 383.084482759,95.0 L 383.084482759,98.0 L 367.260344827,98.0 L 367.260344827,95.0 L 351.636206897,95.0 L 351.636206897,98.0 L 335.812068965,98.0 L 335.812068965,95.0 L 320.187931035,95.0 L 320.187931035,98.0 L 304.363793103,98.0 L 304.363793103,95.0 L 288.739655173,95.0 L 288.739655173,98.0 L 272.915517241,98.0 L 272.915517241,95.0 L 257.291379311,95.0 L 257.291379311,98.0 L 241.467241379,98.0 L 241.467241379,95.0 L 225.843103449,95.0 L 225.843103449,98.0 L 210.018965516,98.0 L 210.018965516,95.0 L 194.394827587,95.0 L 194.394827587,98.0 L 178.570689654,98.0 L 178.570689654,95.0 L 162.946551725,95.0 L 162.946551725,98.0 L 147.122413792,98.0 L 147.122413792,95.0 L 131.498275863,95.0 L 131.498275863,98.0 L 115.67413793,98.0 L 115.67413793,95.0 L 100.0,95.0 " />
    <path
       id="path6344"
       inkscape:label="part"
       style="stroke:#000000;stroke-width:1;fill:none"
       d="M 100.0,95.0 L 100.0,78.7499999993 L 103.0,78.7499999993 L 103.0,59.6500000007 L 100.0,59.6500000007 L 100.0,40.3499999993 L 103.0,40.3499999993 L 103.0,21.2500000007 L 100.0,21.2500000007 L 100.0,5.0 " />
    <g
       id="g3085">
      <g
         id="g6251"
         transform="translate(-265.79346,25.04152)">
        <rect
           ry="0"
           y="174.76917"
           x="389.25418"
           height="97.889877"
           width="71.158333"
           id="rect6194"
           style="fill:none;fill-opacity:1;stroke:#fffff0;stroke-width:0.1;stroke-miterlimit:4;stroke-dasharray:none;stroke-opacity:0" />
        <rect
           y="174.76917"
           x="384.05386"
           height="96.085823"
           width="76.358643"
           id="rect6204"
           style="fill:none;fill-opacity:1;stroke:#000000;stroke-width:0.10071637;stroke-miterlimit:4;stroke-dasharray:none;stroke-opacity:0.94387758" />
      </g>
      <g
         id="g3065">
        <path
           id="path6314"
           inkscape:label="part"
           style="stroke:#000000;stroke-width:1;fill:none"
           d="M 100.0,100.0 L 115.774137932,100.0 L 115.774137932,103.0 L 131.398275861,103.0 L 131.398275861,100.0 L 147.222413794,100.0 L 147.222413794,103.0 L 162.846551723,103.0 L 162.846551723,100.0 L 178.670689656,100.0 L 178.670689656,103.0 L 194.294827585,103.0 L 194.294827585,100.0 L 210.118965518,100.0 L 210.118965518,103.0 L 225.743103448,103.0 L 225.743103448,100.0 L 241.56724138,100.0 L 241.56724138,103.0 L 257.19137931,103.0 L 257.19137931,100.0 L 273.015517242,100.0 L 273.015517242,103.0 L 288.639655172,103.0 L 288.639655172,100.0 L 304.463793104,100.0 L 304.463793104,103.0 L 320.087931034,103.0 L 320.087931034,100.0 L 335.912068966,100.0 L 335.912068966,103.0 L 351.536206896,103.0 L 351.536206896,100.0 L 367.360344828,100.0 L 367.360344828,103.0 L 382.984482758,103.0 L 382.984482758,100.0 L 398.80862069,100.0 L 398.80862069,103.0 L 414.43275862,103.0 L 414.43275862,100.0 L 430.256896552,100.0 L 430.256896552,103.0 L 445.881034482,103.0 L 445.881034482,100.0 L 461.705172415,100.0 L 461.705172415,103.0 L 477.329310344,103.0 L 477.329310344,100.0 L 493.153448277,100.0 L 493.153448277,103.0 L 508.777586206,103.0 L 508.777586206,100.0 L 524.601724139,100.0 L 524.601724139,103.0 L 540.225862068,103.0 L 540.225862068,100.0 L 556.0,100.0 " />
        <path
           id="path6316"
           inkscape:label="part"
           style="stroke:#000000;stroke-width:1;fill:none"
           d="M 556.0,100.0 L 556.0,115.896153847 L 553.0,115.896153847 L 553.0,131.642307692 L 556.0,131.642307692 L 556.0,147.588461539 L 553.0,147.588461539 L 553.0,163.334615384 L 556.0,163.334615384 L 556.0,179.280769232 L 553.0,179.280769232 L 553.0,195.026923076 L 556.0,195.026923076 L 556.0,210.973076924 L 553.0,210.973076924 L 553.0,226.719230768 L 556.0,226.719230768 L 556.0,242.665384616 L 553.0,242.665384616 L 553.0,258.411538461 L 556.0,258.411538461 L 556.0,274.357692308 L 553.0,274.357692308 L 553.0,290.103846153 L 556.0,290.103846153 L 556.0,306.0 " />
        <path
           id="path6318"
           inkscape:label="part"
           style="stroke:#000000;stroke-width:1;fill:none"
           d="M 556.0,306.0 L 540.225862068,306.0 L 540.225862068,303.0 L 524.601724139,303.0 L 524.601724139,306.0 L 508.777586206,306.0 L 508.777586206,303.0 L 493.153448277,303.0 L 493.153448277,306.0 L 477.329310344,306.0 L 477.329310344,303.0 L 461.705172415,303.0 L 461.705172415,306.0 L 445.881034482,306.0 L 445.881034482,303.0 L 430.256896552,303.0 L 430.256896552,306.0 L 414.43275862,306.0 L 414.43275862,303.0 L 398.80862069,303.0 L 398.80862069,306.0 L 382.984482758,306.0 L 382.984482758,303.0 L 367.360344828,303.0 L 367.360344828,306.0 L 351.536206896,306.0 L 351.536206896,303.0 L 335.912068966,303.0 L 335.912068966,306.0 L 320.087931034,306.0 L 320.087931034,303.0 L 304.463793104,303.0 L 304.463793104,306.0 L 288.639655172,306.0 L 288.639655172,303.0 L 273.015517242,303.0 L 273.015517242,306.0 L 257.19137931,306.0 L 257.19137931,303.0 L 241.56724138,303.0 L 241.56724138,306.0 L 225.743103448,306.0 L 225.743103448,303.0 L 210.118965518,303.0 L 210.118965518,306.0 L 194.294827585,306.0 L 194.294827585,303.0 L 178.670689656,303.0 L 178.670689656,306.0 L 162.846551723,306.0 L 162.846551723,303.0 L 147.222413794,303.0 L 147.222413794,306.0 L 131.398275861,306.0 L 131.398275861,303.0 L 115.774137932,303.0 L 115.774137932,306.0 L 100.0,306.0 " />
        <path
           id="path6320"
           inkscape:label="part"
           style="stroke:#000000;stroke-width:1;fill:none"
           d="M 100.0,306.0 L 100.0,290.103846153 L 103.0,290.103846153 L 103.0,274.357692308 L 100.0,274.357692308 L 100.0,258.411538461 L 103.0,258.411538461 L 103.0,242.665384616 L 100.0,242.665384616 L 100.0,226.719230768 L 103.0,226.719230768 L 103.0,210.973076924 L 100.0,210.973076924 L 100.0,195.026923076 L 103.0,195.026923076 L 103.0,179.280769232 L 100.0,179.280769232 L 100.0,163.334615384 L 103.0,163.334615384 L 103.0,147.588461539 L 100.0,147.588461539 L 100.0,131.642307692 L 103.0,131.642307692 L 103.0,115.896153847 L 100.0,115.896153847 L 100.0,100.0 " />
      </g>
      <rect
         y="154.96007"
         x="240.22966"
         height="100.6"
         width="166.2"
         id="rect1252"
         style="fill:none;fill-opacity:1;stroke:#000000;stroke-width:0.1;stroke-miterlimit:4;stroke-dasharray:none;stroke-opacity:0.94387758" />
      <g
         id="g2999"
         transform="matrix(0.26458333,0,0,0.26458333,449.6131,-84.396721)">
        <path
           d="M 11.338583,1122.5197 H 309.92126"
           style="fill:none;stroke:#000000;stroke-width:0.37795275;stroke-miterlimit:4;stroke-dasharray:none"
           id="path2410"
           inkscape:connector-curvature="0" />
        <path
           d="m 321.25984,1111.1811 v -30.2362"
           style="fill:none;stroke:#000000;stroke-width:0.37795275;stroke-miterlimit:4;stroke-dasharray:none"
           id="path2412"
           inkscape:connector-curvature="0" />
        <path
           d="m 0,1080.9449 v 30.2362"
           style="fill:none;stroke:#000000;stroke-width:0.37795275;stroke-miterlimit:4;stroke-dasharray:none"
           id="path2414"
           inkscape:connector-curvature="0" />
        <path
           d="M 15.11811,1065.8268 A 15.11811,15.11811 0 0 0 0,1080.9449"
           style="fill:none;stroke:#000000;stroke-width:0.37795275;stroke-miterlimit:4;stroke-dasharray:none"
           id="path2416"
           inkscape:connector-curvature="0" />
        <path
           d="m 321.25984,1080.9449 a 15.11811,15.11811 0 0 0 -15.11811,-15.1181"
           style="fill:none;stroke:#000000;stroke-width:0.37795275;stroke-miterlimit:4;stroke-dasharray:none"
           id="path2418"
           inkscape:connector-curvature="0" />
        <path
           d="m 0,1111.1811 a 11.338583,11.338583 0 0 0 11.338583,11.3386"
           style="fill:none;stroke:#000000;stroke-width:0.37795275;stroke-miterlimit:4;stroke-dasharray:none"
           id="path2420"
           inkscape:connector-curvature="0" />
        <path
           d="m 309.92126,1122.5197 a 11.338583,11.338583 0 0 0 11.33858,-11.3386"
           style="fill:none;stroke:#000000;stroke-width:0.37795275;stroke-miterlimit:4;stroke-dasharray:none"
           id="path2422"
           inkscape:connector-curvature="0" />
        <path
           style="fill:none;stroke:#000000;stroke-width:0.37356964;stroke-linecap:butt;stroke-linejoin:miter;stroke-miterlimit:4;stroke-dasharray:none;stroke-opacity:1"
           d="m 15.064225,1065.8268 c 47.191413,-4.0986 94.185025,-8.18 142.697295,-8.1799 48.51227,0 98.44731,4.09 148.38021,8.1799"
           id="path2981"
           inkscape:connector-curvature="0"
           inkscape:path-effect="#path-effect2983"
           inkscape:original-d="m 15.064225,1065.8268 c 47.192105,-4.0906 94.184985,-8.1804 141.275985,-12.2698 49.93363,4.0893 99.86868,8.1792 149.80152,12.2698" />
      </g>
    </g>
  </g>
  <g
     inkscape:label="newlayer"
     inkscape:groupmode="layer"
     id="g4706"
     transform="translate(-1.5,-1.5)" />
  <g
     id="g4814"
     inkscape:groupmode="layer"
     inkscape:label="newlayer"
     transform="translate(-1.5,-1.5)" />
  <g
     inkscape:label="newlayer"
     inkscape:groupmode="layer"
     id="g6121" />
  <g
     id="g6350"
     inkscape:groupmode="layer"
     inkscape:label="newlayer" />
</svg>
