<?xml version="1.0" encoding="UTF-8" standalone="no"?>
<svg
   xmlns:dc="http://purl.org/dc/elements/1.1/"
   xmlns:cc="http://creativecommons.org/ns#"
   xmlns:rdf="http://www.w3.org/1999/02/22-rdf-syntax-ns#"
   xmlns:svg="http://www.w3.org/2000/svg"
   xmlns="http://www.w3.org/2000/svg"
   xmlns:sodipodi="http://sodipodi.sourceforge.net/DTD/sodipodi-0.dtd"
   xmlns:inkscape="http://www.inkscape.org/namespaces/inkscape"
   width="674.4646mm"
   height="134.46458mm"
   version="1.1"
   id="svg72"
   sodipodi:docname="ligne_ecran_facade_no_logo.svg"
   inkscape:version="0.92.2 (5c3e80d, 2017-08-06)">
  <metadata
     id="metadata76">
    <rdf:RDF>
      <cc:Work
         rdf:about="">
        <dc:format>image/svg+xml</dc:format>
        <dc:type
           rdf:resource="http://purl.org/dc/dcmitype/StillImage" />
        <dc:title></dc:title>
      </cc:Work>
    </rdf:RDF>
  </metadata>
  <sodipodi:namedview
     pagecolor="#ffffff"
     bordercolor="#666666"
     borderopacity="1"
     objecttolerance="10"
     gridtolerance="10"
     guidetolerance="10"
     inkscape:pageopacity="0"
     inkscape:pageshadow="2"
     inkscape:window-width="1920"
     inkscape:window-height="1017"
     id="namedview74"
     showgrid="false"
     units="mm"
     inkscape:document-units="mm"
     fit-margin-top="0.1"
     fit-margin-left="0.1"
     fit-margin-bottom="0.1"
     fit-margin-right="0.1"
     inkscape:zoom="0.59465222"
     inkscape:cx="1216.7002"
     inkscape:cy="319.85384"
     inkscape:window-x="-8"
     inkscape:window-y="-8"
     inkscape:window-maximized="1"
     inkscape:current-layer="g5753"
     showguides="false" />
  <desc
     id="desc2">C:\Users\maxen\OneDrive\ESEO\2017-2018 (I3)\PFE\Depot_GIT\Méca\Ecran\Facade_ecran_pi.dxf - scale = 1.000000, origin = (0.000000, 0.000000), method = manual</desc>
  <defs
     id="defs16">
    <marker
       id="DistanceX"
       orient="auto"
       refX="0"
       refY="0"
       style="overflow:visible">
      <path
         d="M 3,-3 -3,3 M 0,-5 V 5"
         style="stroke:#000000;stroke-width:0.5"
         id="path4"
         inkscape:connector-curvature="0" />
    </marker>
    <pattern
       height="8"
       id="Hatch"
       patternUnits="userSpaceOnUse"
       width="8"
       x="0"
       y="0">
      <path
         d="M8 4 l-4,4"
         linecap="square"
         stroke="#000000"
         stroke-width="0.25"
         id="path7" />
      <path
         d="M6 2 l-4,4"
         linecap="square"
         stroke="#000000"
         stroke-width="0.25"
         id="path9" />
      <path
         d="M4 0 l-4,4"
         linecap="square"
         stroke="#000000"
         stroke-width="0.25"
         id="path11" />
    </pattern>
    <symbol
       id="*MODEL_SPACE" />
    <symbol
       id="*PAPER_SPACE" />
  </defs>
  <g
     inkscape:groupmode="layer"
     inkscape:label="0"
     id="g70"
     transform="translate(814.22905,-1281.0865)">
    <path
       d="m -775.5558,1788.4212 h 2471.811 a 37.795276,37.795276 0 0 0 37.7953,-37.7953 v -430.8661 a 37.795276,37.795276 0 0 0 -37.7953,-37.7953 h -2471.811 a 37.795276,37.795276 0 0 0 -37.7953,37.7953 v 430.8661 a 37.795276,37.795276 0 0 0 37.7953,37.7953 z"
       style="fill:none;stroke:#ff0000;stroke-opacity:1;stroke-width:0.37795276;stroke-miterlimit:4;stroke-dasharray:none"
       id="path18"
       inkscape:connector-curvature="0" />
    <path
       d="m -794.4534,1761.9645 a 7.559055,7.559055 0 1 1 15.1181,0 7.559055,7.559055 0 1 1 -15.1181,0 z"
       style="fill:none;stroke:#ff0000;stroke-opacity:1;stroke-width:0.37795276;stroke-miterlimit:4;stroke-dasharray:none"
       id="path20"
       inkscape:connector-curvature="0" />
    <path
       d="m -794.4534,1308.4212 a 7.559055,7.559055 0 1 1 15.1181,0 7.559055,7.559055 0 1 1 -15.1181,0 z"
       style="fill:none;stroke:#ff0000;stroke-opacity:1;stroke-width:0.37795276;stroke-miterlimit:4;stroke-dasharray:none"
       id="path22"
       inkscape:connector-curvature="0" />
    <path
       d="m -794.4534,1535.1928 a 7.559055,7.559055 0 1 1 15.1181,0 7.559055,7.559055 0 1 1 -15.1181,0 z"
       style="fill:none;stroke:#ff0000;stroke-opacity:1;stroke-width:0.37795276;stroke-miterlimit:4;stroke-dasharray:none"
       id="path24"
       inkscape:connector-curvature="0" />
    <path
       d="m 1546.9639,1523.8542 a 35.905512,35.905512 0 1 1 71.811,0 35.905512,35.905512 0 1 1 -71.811,0 z"
       style="fill:none;stroke:#ff0000;stroke-opacity:1;stroke-width:0.37795276;stroke-miterlimit:4;stroke-dasharray:none"
       id="path26"
       inkscape:connector-curvature="0" />
    <path
       d="m 1283.1308,1729.2504 v -6.1939 h -210.7196 v 6.624 z"
       style="fill:none;stroke:#ff0000;stroke-width:0.37795276;stroke-opacity:1;stroke-miterlimit:4;stroke-dasharray:none"
       id="path28"
       inkscape:connector-curvature="0" />
    <g
       id="g945"
       transform="matrix(-1,0,0,1,1093.7972,0)"
       style="stroke-width:0.37795276;stroke-miterlimit:4;stroke-dasharray:none;stroke:#ff0000;stroke-opacity:1">
      <path
         inkscape:connector-curvature="0"
         id="path30"
         style="fill:none;stroke:#ff0000;stroke-opacity:1;stroke-width:0.37795276;stroke-miterlimit:4;stroke-dasharray:none"
         d="m 1245.7952,1387.1134 c -8.5454,0 -15.4729,7.3008 -15.4729,16.3067" />
      <path
         inkscape:connector-curvature="0"
         id="path32"
         style="fill:none;stroke:#ff0000;stroke-opacity:1;stroke-width:0.37795276;stroke-miterlimit:4;stroke-dasharray:none"
         d="m 1345.3872,1371.4695 c 25.8465,-0.8626 62.3066,-0.6498 90.1424,0.5461" />
      <path
         inkscape:connector-curvature="0"
         id="path34"
         style="fill:none;stroke:#ff0000;stroke-opacity:1;stroke-width:0.37795276;stroke-miterlimit:4;stroke-dasharray:none"
         d="m 1547.5174,1448.2637 c 3.0778,0 6.0295,-1.2885 8.2058,-3.5821" />
      <path
         inkscape:connector-curvature="0"
         id="path36"
         style="fill:none;stroke:#ff0000;stroke-opacity:1;stroke-width:0.37795276;stroke-miterlimit:4;stroke-dasharray:none"
         d="m 1230.3223,1403.4201 v 32.6135" />
      <path
         inkscape:connector-curvature="0"
         id="path38"
         style="fill:none;stroke:#ff0000;stroke-opacity:1;stroke-width:0.37795276;stroke-miterlimit:4;stroke-dasharray:none"
         d="m 1245.7952,1387.1134 c 14.4274,-3.6355 28.8535,-7.2707 43.683,-10.0571" />
      <path
         inkscape:connector-curvature="0"
         id="path40"
         style="fill:none;stroke:#ff0000;stroke-opacity:1;stroke-width:0.37795276;stroke-miterlimit:4;stroke-dasharray:none"
         d="m 1435.5296,1372.0156 c 27.8358,1.1959 47.0492,3.3752 63.6319,6.0554" />
      <path
         inkscape:connector-curvature="0"
         id="path42"
         style="fill:none;stroke:#ff0000;stroke-opacity:1;stroke-width:0.37795276;stroke-miterlimit:4;stroke-dasharray:none"
         d="m 1555.7232,1444.6816 c 2.1763,-2.2936 3.3989,-5.4044 3.3989,-8.648" />
      <path
         inkscape:connector-curvature="0"
         id="path44"
         style="fill:none;stroke:#ff0000;stroke-opacity:1;stroke-width:0.37795276;stroke-miterlimit:4;stroke-dasharray:none"
         d="m 1499.1615,1378.071 c 16.5827,2.6802 30.5356,5.8614 44.4877,9.0424" />
      <path
         inkscape:connector-curvature="0"
         id="path46"
         style="fill:none;stroke:#ff0000;stroke-opacity:1;stroke-width:0.37795276;stroke-miterlimit:4;stroke-dasharray:none"
         d="m 1559.1221,1403.4201 c 0,-9.0059 -6.9275,-16.3067 -15.4729,-16.3067" />
      <path
         inkscape:connector-curvature="0"
         id="path48"
         style="fill:none;stroke:#ff0000;stroke-opacity:1;stroke-width:0.37795276;stroke-miterlimit:4;stroke-dasharray:none"
         d="m 1241.927,1448.2637 h 305.5904" />
      <path
         inkscape:connector-curvature="0"
         id="path50"
         style="fill:none;stroke:#ff0000;stroke-opacity:1;stroke-width:0.37795276;stroke-miterlimit:4;stroke-dasharray:none"
         d="m 1233.7212,1444.6816 c 2.1763,2.2936 5.128,3.5821 8.2058,3.5821" />
      <path
         inkscape:connector-curvature="0"
         id="path52"
         style="fill:none;stroke:#ff0000;stroke-opacity:1;stroke-width:0.37795276;stroke-miterlimit:4;stroke-dasharray:none"
         d="m 1559.1221,1436.0336 v -32.6135" />
      <path
         inkscape:connector-curvature="0"
         id="path54"
         style="fill:none;stroke:#ff0000;stroke-opacity:1;stroke-width:0.37795276;stroke-miterlimit:4;stroke-dasharray:none"
         d="m 1289.4782,1377.0563 c 14.8296,-2.7865 30.0626,-4.7244 55.909,-5.5868" />
      <path
         inkscape:connector-curvature="0"
         id="path56"
         style="fill:none;stroke:#ff0000;stroke-opacity:1;stroke-width:0.37795276;stroke-miterlimit:4;stroke-dasharray:none"
         d="m 1230.3223,1436.0336 c 0,3.2436 1.2226,6.3544 3.3989,8.648" />
    </g>
    <path
       d="M 778.20798,1341.3031 H 142.49145"
       style="fill:none;stroke:#ff0000;stroke-opacity:1;stroke-width:0.37795276;stroke-miterlimit:4;stroke-dasharray:none"
       id="path58"
       inkscape:connector-curvature="0" />
    <path
       d="m 142.49145,1341.3031 v 387.7795"
       style="fill:none;stroke:#ff0000;stroke-opacity:1;stroke-width:0.37795276;stroke-miterlimit:4;stroke-dasharray:none"
       id="path60"
       inkscape:connector-curvature="0" />
    <path
       d="M 142.49145,1729.0826 H 778.20798"
       style="fill:none;stroke:#ff0000;stroke-opacity:1;stroke-width:0.37795276;stroke-miterlimit:4;stroke-dasharray:none"
       id="path62"
       inkscape:connector-curvature="0" />
    <path
       d="M 778.20798,1729.0826 V 1341.3031"
       style="fill:none;stroke:#ff0000;stroke-opacity:1;stroke-width:0.37795276;stroke-miterlimit:4;stroke-dasharray:none"
       id="path64"
       inkscape:connector-curvature="0" />
    <path
       style="fill:#0000ff;fill-opacity:1;stroke:none;stroke-width:0.5301587;stroke-opacity:1"
       d="m 1212.2537,1678.7928 c -3.7553,-7.5488 -11.3874,-19.2142 -15.4035,-23.5438 -3.2574,-3.5116 -5.3147,-4.8767 -15.4259,-10.2353 -5.562,-2.9477 -6.9952,-4.0091 -11.3984,-8.4419 -5.6403,-5.678 -9.7688,-12.0525 -16.3559,-25.2537 -4.5281,-9.0746 -4.6974,-9.6761 -3.5609,-12.652 1.1113,-2.9097 2.9915,-4.1786 6.261,-4.2253 1.3869,-0.02 2.5219,-0.1051 2.5221,-0.1896 2e-4,-0.085 -0.4816,-1.0985 -1.0707,-2.2532 -1.0582,-2.0742 -1.1077,-2.0996 -4.1088,-2.1112 -5.307,-0.02 -9.4693,-2.8574 -10.7016,-7.2945 -0.3535,-1.273 -0.5486,-15.7079 -0.5505,-40.741 0,-42.2029 -0.098,-40.8225 3.002,-43.7747 3.2323,-3.0783 3.2255,-3.0776 29.9804,-3.0649 22.6587,0.011 24.7009,0.086 26.6794,0.9849 2.2434,1.019 4.7869,3.6371 5.5928,5.7567 0.2606,0.6855 0.481,17.1108 0.4898,36.5006 l 0.016,35.2541 7.9709,8.0201 c 4.384,4.411 8.5397,8.9935 9.2349,10.1833 2.9966,5.1289 6.1803,17.8816 8.9805,35.9726 1.3662,8.8264 2.5487,12.9137 5.3166,18.3758 1.8804,3.7108 8.4093,14.4344 10.7962,17.7327 1.7903,2.4738 1.829,2.6196 0.88,3.3135 -0.5459,0.3992 -1.1767,0.7258 -1.4017,0.7258 -0.8394,0 -9.3636,-13.6392 -12.8458,-20.554 -3.3098,-6.5725 -4.0067,-8.9153 -5.621,-18.8981 -3.2171,-19.8951 -5.3365,-28.5894 -8.4633,-34.7183 -0.6629,-1.2994 -4.0946,-5.2169 -7.7427,-8.8385 l -6.5521,-6.5047 -0.469,2.2116 c -0.4313,2.0334 -0.2817,2.5612 1.8579,6.5531 2.312,4.3135 2.3196,4.3456 1.1844,4.9531 -0.6284,0.3363 -1.3353,0.4105 -1.5709,0.1648 -0.2356,-0.2457 -4.2379,-7.3063 -8.8939,-15.6901 -4.656,-8.3839 -9.1036,-16.08 -9.8835,-17.1025 -3.0079,-3.9436 -7.5742,-4.8735 -9.8327,-2.0023 -2.575,3.2736 -1.0634,8.4333 6.5952,22.5117 7.5704,13.9163 8.0068,15.2518 7.4164,22.6942 -0.8207,10.3448 -0.7402,11.1395 1.4634,14.4573 1.0793,1.6251 3.4442,4.5388 5.2553,6.4749 2.9925,3.1989 3.217,3.5961 2.4606,4.3526 -0.7565,0.7565 -0.9458,0.7546 -2.0744,-0.021 -1.8951,-1.3018 -7.6741,-8.2415 -9.2054,-11.0542 -1.5323,-2.8146 -1.7677,-5.1565 -1.1258,-11.2027 l 0.4417,-4.1604 -2.3498,1.3771 c -1.4786,0.8665 -3.1425,1.3771 -4.4875,1.3771 -2.1317,0 -2.1384,0.01 -2.3995,2.3228 -0.4519,4.0094 -3.9702,7.2087 -8.3952,7.6339 l -2.4266,0.2332 0.2321,2.7989 c 0.2159,2.6034 0.1032,2.9395 -1.6141,4.8133 -1.4917,1.6277 -2.3249,2.0716 -4.3401,2.3117 l -2.4939,0.2973 2.6787,3.8096 c 5.3951,7.6728 7.9574,9.7035 20.9894,16.635 8.2196,4.3719 12.0776,8.1228 18.77,18.249 4.6869,7.0916 11.184,19.1305 11.184,20.7235 0,0.4407 -0.5212,0.7559 -1.2499,0.7559 -1.0636,0 -1.6948,-0.8946 -4.2366,-6.0041 z m -43.161,-58.7006 c 0.5132,-0.6338 0.9332,-1.5947 0.9332,-2.1351 0,-0.5405 -1.3472,-3.4366 -2.9937,-6.4358 -1.6465,-2.9991 -3.9357,-7.1864 -5.0871,-9.305 -2.2463,-4.1335 -3.1288,-4.8956 -5.6685,-4.8956 -2.0963,0 -3.746,1.6524 -3.746,3.752 0,1.6279 9.4047,19.3176 10.7633,20.2452 1.1342,0.7744 4.808,0 5.7988,-1.2257 z m 8.479,-9.866 c 1.3492,-0.6796 3.0574,-3.1321 3.0574,-4.3897 0,-0.3023 -1.8241,-4.012 -4.0535,-8.2438 l -4.0535,-7.6942 h -6.0584 c -4.8695,0 -6.0248,0.143 -5.887,0.7288 0.094,0.4008 2.4194,5.0468 5.1669,10.3244 3.9392,7.5668 5.2843,9.699 6.3619,10.0844 1.5241,0.5452 3.2975,0.2825 5.4662,-0.8099 z m 10.1963,-9.4177 c 1.7573,-0.7342 3.4642,-3.1016 3.4642,-4.8045 0,-0.4615 -0.6004,-2.0241 -1.3343,-3.4723 l -1.3343,-2.6332 h -6.1129 -6.1128 l 2.4676,4.7777 c 3.4424,6.6653 5.0517,7.7663 8.9625,6.1323 z m -32.5866,-58.1616 v -44.6008 l -2.583,0.2482 c -3.3172,0.3188 -5.5897,1.9531 -6.6707,4.7974 -0.7616,2.0037 -0.8376,6.3713 -0.704,40.4179 l 0.1498,38.1714 1.2355,1.7323 c 1.4986,2.1011 4.5148,3.7792 6.8494,3.811 l 1.723,0.023 z m 32.6329,43.673 c -0.1928,-0.5103 -2.3358,-4.5063 -4.7622,-8.8801 -4.8366,-8.7183 -6.4583,-13.4571 -5.9992,-17.5304 0.5144,-4.5639 3.9086,-7.3572 8.464,-6.9657 5.2581,0.452 8.2157,3.8207 15.688,17.8691 1.0081,1.8953 2.2085,4.2214 2.6676,5.169 0.459,0.9477 1.0297,1.723 1.2682,1.723 0.2385,0 0.3677,-16.6403 0.2872,-36.9785 -0.1421,-35.8878 -0.1777,-37.0316 -1.2068,-38.7742 -2.1168,-3.5848 -3.0527,-3.7711 -18.9449,-3.7711 h -14.19 v 44.5334 44.5333 h 8.5393 c 7.9127,0 8.5135,-0.068 8.1888,-0.9278 z m -63.4228,-68.4822 -1.5497,-1.5497 v -16.1761 c 0,-9.0169 0.2245,-16.7668 0.5073,-17.5106 1.1728,-3.0845 -0.7261,-2.9758 51.9784,-2.9758 51.891,0 50.4993,-0.07 51.9398,2.6214 0.3409,0.6369 0.5459,7.2204 0.5459,17.5305 v 16.5106 l -1.5497,1.5497 c -1.5343,1.5343 -1.6105,1.5497 -7.6873,1.5497 h -6.1376 v -2.9159 -2.9159 h 4.1352 c 2.5094,0 4.3854,-0.2501 4.7715,-0.6362 0.4598,-0.4598 0.6361,-4.2017 0.6361,-13.5003 0,-12.1759 -0.055,-12.8936 -1.0254,-13.4131 -0.6837,-0.3659 -15.9561,-0.5488 -45.8209,-0.5488 -40.0162,0 -44.8843,0.089 -45.6285,0.8331 -0.709,0.7091 -0.8331,2.6483 -0.8331,13.0238 0,7.3894 0.2162,12.5945 0.5488,13.2161 0.4721,0.8821 1.1393,1.0254 4.7714,1.0254 h 4.2227 v 2.9159 2.9159 h -6.1376 c -6.0768,0 -6.153,-0.015 -7.6873,-1.5497 z"
       id="path3193"
       inkscape:connector-curvature="0" />
    <g
       id="g5753"
       transform="matrix(3.7795276,0,0,3.7795276,-601.78167,1108.4942)"
       style="stroke-width:0.1;stroke-miterlimit:4;stroke-dasharray:none;stroke:none;stroke-opacity:1;fill:#0000ff;fill-opacity:1" />
  </g>
</svg>
