  0
SECTION
  2
HEADER
  9
$ACADVER
  1
AC1014
  9
$HANDSEED
  5
FFFF
  9
$MEASUREMENT
 70
     1
  0
ENDSEC
  0
SECTION
  2
TABLES
  0
TABLE
  2
VPORT
  5
8
330
0
100
AcDbSymbolTable
 70
     4
  0
VPORT
  5
2E
330
8
100
AcDbSymbolTableRecord
100
AcDbViewportTableRecord
  2
*ACTIVE
 70
     0
 10
0.0
 20
0.0
 11
1.0
 21
1.0
 12
210.0
 22
148.5
 13
0.0
 23
0.0
 14
10.0
 24
10.0
 15
10.0
 25
10.0
 16
0.0
 26
0.0
 36
1.0
 17
0.0
 27
0.0
 37
0.0
 40
341.0
 41
1.24
 42
50.0
 43
0.0
 44
0.0
 50
0.0
 51
0.0
 71
     0
 72
   100
 73
     1
 74
     3
 75
     0
 76
     0
 77
     0
 78
     0
  0
ENDTAB
  0
TABLE
  2
LTYPE
  5
5
330
0
100
AcDbSymbolTable
 70
     1
  0
LTYPE
  5
14
330
5
100
AcDbSymbolTableRecord
100
AcDbLinetypeTableRecord
  2
BYBLOCK
 70
     0
  3

 72
    65
 73
     0
 40
0.0
  0
LTYPE
  5
15
330
5
100
AcDbSymbolTableRecord
100
AcDbLinetypeTableRecord
  2
BYLAYER
 70
     0
  3

 72
    65
 73
     0
 40
0.0
  0
LTYPE
  5
16
330
5
100
AcDbSymbolTableRecord
100
AcDbLinetypeTableRecord
  2
CONTINUOUS
 70
     0
  3
Solid line
 72
    65
 73
     0
 40
0.0
  0
ENDTAB
  0
TABLE
  2
LAYER
  5
2
100
AcDbSymbolTable
 70
3
  0
LAYER
  5
50
100
AcDbSymbolTableRecord
100
AcDbLayerTableRecord
  2
0
 70
0
  6
CONTINUOUS
  0
LAYER
  5
51
100
AcDbSymbolTableRecord
100
AcDbLayerTableRecord
  2
Calque_1
 70
0
  6
CONTINUOUS
  0
LAYER
  5
52
100
AcDbSymbolTableRecord
100
AcDbLayerTableRecord
  2
newlayer
 70
0
  6
CONTINUOUS
  0
ENDTAB
  0
TABLE
  2
STYLE
  5
3
330
0
100
AcDbSymbolTable
 70
     1
  0
STYLE
  5
11
330
3
100
AcDbSymbolTableRecord
100
AcDbTextStyleTableRecord
  2
STANDARD
 70
     0
 40
0.0
 41
1.0
 50
0.0
 71
     0
 42
2.5
  3
txt
  4

  0
ENDTAB
  0
TABLE
  2
VIEW
  5
6
330
0
100
AcDbSymbolTable
 70
     0
  0
ENDTAB
  0
TABLE
  2
UCS
  5
7
330
0
100
AcDbSymbolTable
 70
     0
  0
ENDTAB
  0
TABLE
  2
APPID
  5
9
330
0
100
AcDbSymbolTable
 70
     2
  0
APPID
  5
12
330
9
100
AcDbSymbolTableRecord
100
AcDbRegAppTableRecord
  2
ACAD
 70
     0
  0
ENDTAB
  0
TABLE
  2
DIMSTYLE
  5
A
330
0
100
AcDbSymbolTable
 70
     1
  0
DIMSTYLE
105
27
330
A
100
AcDbSymbolTableRecord
100
AcDbDimStyleTableRecord
  2
ISO-25
 70
     0
  3

  4

  5

  6

  7

 40
1.0
 41
2.5
 42
0.625
 43
3.75
 44
1.25
 45
0.0
 46
0.0
 47
0.0
 48
0.0
140
2.5
141
2.5
142
0.0
143
0.03937007874016
144
1.0
145
0.0
146
1.0
147
0.625
 71
     0
 72
     0
 73
     0
 74
     0
 75
     0
 76
     0
 77
     1
 78
     8
170
     0
171
     3
172
     1
173
     0
174
     0
175
     0
176
     0
177
     0
178
     0
270
     2
271
     2
272
     2
273
     2
274
     3
340
11
275
     0
280
     0
281
     0
282
     0
283
     0
284
     8
285
     0
286
     0
287
     3
288
     0
  0
ENDTAB
  0
TABLE
  2
BLOCK_RECORD
  5
1
330
0
100
AcDbSymbolTable
 70
     1
  0
BLOCK_RECORD
  5
1F
330
1
100
AcDbSymbolTableRecord
100
AcDbBlockTableRecord
  2
*MODEL_SPACE
  0
BLOCK_RECORD
  5
1B
330
1
100
AcDbSymbolTableRecord
100
AcDbBlockTableRecord
  2
*PAPER_SPACE
  0
ENDTAB
  0
ENDSEC
  0
SECTION
  2
BLOCKS
  0
BLOCK
  5
20
330
1F
100
AcDbEntity
  8
0
100
AcDbBlockBegin
  2
*MODEL_SPACE
 70
     0
 10
0.0
 20
0.0
 30
0.0
  3
*MODEL_SPACE
  1

  0
ENDBLK
  5
21
330
1F
100
AcDbEntity
  8
0
100
AcDbBlockEnd
  0
BLOCK
  5
1C
330
1B
100
AcDbEntity
 67
     1
  8
0
100
AcDbBlockBegin
  2
*PAPER_SPACE
  1

  0
ENDBLK
  5
1D
330
1B
100
AcDbEntity
 67
     1
  8
0
100
AcDbBlockEnd
  0
ENDSEC
  0
SECTION
  2
ENTITIES
  0
SPLINE
  5
100
100
AcDbEntity
  8
newlayer
 62
5
100
AcDbSpline
 70
8
 71
3
 72
8
 73
4
 74
0
 40
0
 40
0
 40
0
 40
0
 40
1
 40
1
 40
1
 40
1
 10
1495.297567
 20
538.623848
 30
0.0
 10
1495.297567
 20
539.338379
 30
0.0
 10
1494.902480
 20
539.998633
 30
0.0
 10
1494.261131
 20
540.355899
 30
0.0
  0
SPLINE
  5
101
100
AcDbEntity
  8
newlayer
 62
5
100
AcDbSpline
 70
8
 71
3
 72
8
 73
4
 74
0
 40
0
 40
0
 40
0
 40
0
 40
1
 40
1
 40
1
 40
1
 10
1494.261131
 20
540.355899
 30
0.0
 10
1493.619783
 20
540.713164
 30
0.0
 10
1492.829608
 20
540.713164
 30
0.0
 10
1492.188260
 20
540.355899
 30
0.0
  0
SPLINE
  5
102
100
AcDbEntity
  8
newlayer
 62
5
100
AcDbSpline
 70
8
 71
3
 72
8
 73
4
 74
0
 40
0
 40
0
 40
0
 40
0
 40
1
 40
1
 40
1
 40
1
 10
1492.188260
 20
540.355899
 30
0.0
 10
1491.546911
 20
539.998633
 30
0.0
 10
1491.151824
 20
539.338379
 30
0.0
 10
1491.151824
 20
538.623848
 30
0.0
  0
SPLINE
  5
103
100
AcDbEntity
  8
newlayer
 62
5
100
AcDbSpline
 70
8
 71
3
 72
8
 73
4
 74
0
 40
0
 40
0
 40
0
 40
0
 40
1
 40
1
 40
1
 40
1
 10
1491.151824
 20
538.623848
 30
0.0
 10
1491.151824
 20
537.909317
 30
0.0
 10
1491.546911
 20
537.249063
 30
0.0
 10
1492.188260
 20
536.891797
 30
0.0
  0
SPLINE
  5
104
100
AcDbEntity
  8
newlayer
 62
5
100
AcDbSpline
 70
8
 71
3
 72
8
 73
4
 74
0
 40
0
 40
0
 40
0
 40
0
 40
1
 40
1
 40
1
 40
1
 10
1492.188260
 20
536.891797
 30
0.0
 10
1492.829608
 20
536.534532
 30
0.0
 10
1493.619783
 20
536.534532
 30
0.0
 10
1494.261131
 20
536.891797
 30
0.0
  0
SPLINE
  5
105
100
AcDbEntity
  8
newlayer
 62
5
100
AcDbSpline
 70
8
 71
3
 72
8
 73
4
 74
0
 40
0
 40
0
 40
0
 40
0
 40
1
 40
1
 40
1
 40
1
 10
1494.261131
 20
536.891797
 30
0.0
 10
1494.902480
 20
537.249063
 30
0.0
 10
1495.297567
 20
537.909317
 30
0.0
 10
1495.297567
 20
538.623848
 30
0.0
  0
SPLINE
  5
106
100
AcDbEntity
  8
newlayer
 62
5
100
AcDbSpline
 70
8
 71
3
 72
8
 73
4
 74
0
 40
0
 40
0
 40
0
 40
0
 40
1
 40
1
 40
1
 40
1
 10
1495.297567
 20
478.623848
 30
0.0
 10
1495.297567
 20
479.338379
 30
0.0
 10
1494.902480
 20
479.998633
 30
0.0
 10
1494.261131
 20
480.355899
 30
0.0
  0
SPLINE
  5
107
100
AcDbEntity
  8
newlayer
 62
5
100
AcDbSpline
 70
8
 71
3
 72
8
 73
4
 74
0
 40
0
 40
0
 40
0
 40
0
 40
1
 40
1
 40
1
 40
1
 10
1494.261131
 20
480.355899
 30
0.0
 10
1493.619783
 20
480.713164
 30
0.0
 10
1492.829608
 20
480.713164
 30
0.0
 10
1492.188260
 20
480.355899
 30
0.0
  0
SPLINE
  5
108
100
AcDbEntity
  8
newlayer
 62
5
100
AcDbSpline
 70
8
 71
3
 72
8
 73
4
 74
0
 40
0
 40
0
 40
0
 40
0
 40
1
 40
1
 40
1
 40
1
 10
1492.188260
 20
480.355899
 30
0.0
 10
1491.546911
 20
479.998633
 30
0.0
 10
1491.151824
 20
479.338379
 30
0.0
 10
1491.151824
 20
478.623848
 30
0.0
  0
SPLINE
  5
109
100
AcDbEntity
  8
newlayer
 62
5
100
AcDbSpline
 70
8
 71
3
 72
8
 73
4
 74
0
 40
0
 40
0
 40
0
 40
0
 40
1
 40
1
 40
1
 40
1
 10
1491.151824
 20
478.623848
 30
0.0
 10
1491.151824
 20
477.909317
 30
0.0
 10
1491.546911
 20
477.249063
 30
0.0
 10
1492.188260
 20
476.891797
 30
0.0
  0
SPLINE
  5
10a
100
AcDbEntity
  8
newlayer
 62
5
100
AcDbSpline
 70
8
 71
3
 72
8
 73
4
 74
0
 40
0
 40
0
 40
0
 40
0
 40
1
 40
1
 40
1
 40
1
 10
1492.188260
 20
476.891797
 30
0.0
 10
1492.829608
 20
476.534532
 30
0.0
 10
1493.619783
 20
476.534532
 30
0.0
 10
1494.261131
 20
476.891797
 30
0.0
  0
SPLINE
  5
10b
100
AcDbEntity
  8
newlayer
 62
5
100
AcDbSpline
 70
8
 71
3
 72
8
 73
4
 74
0
 40
0
 40
0
 40
0
 40
0
 40
1
 40
1
 40
1
 40
1
 10
1494.261131
 20
476.891797
 30
0.0
 10
1494.902480
 20
477.249063
 30
0.0
 10
1495.297567
 20
477.909317
 30
0.0
 10
1495.297567
 20
478.623848
 30
0.0
  0
LWPOLYLINE
  5
10c
100
AcDbEntity
  8
newlayer
 62
5
100
AcDbPolyline
 90
1
 70
1
 10
1495.297567
 20
538.623848
 30
0.0
  0
SPLINE
  5
10d
100
AcDbEntity
  8
newlayer
 62
5
100
AcDbSpline
 70
8
 71
3
 72
8
 73
4
 74
0
 40
0
 40
0
 40
0
 40
0
 40
1
 40
1
 40
1
 40
1
 10
1495.297567
 20
418.623858
 30
0.0
 10
1495.297567
 20
419.338389
 30
0.0
 10
1494.902480
 20
419.998643
 30
0.0
 10
1494.261131
 20
420.355909
 30
0.0
  0
SPLINE
  5
10e
100
AcDbEntity
  8
newlayer
 62
5
100
AcDbSpline
 70
8
 71
3
 72
8
 73
4
 74
0
 40
0
 40
0
 40
0
 40
0
 40
1
 40
1
 40
1
 40
1
 10
1494.261131
 20
420.355909
 30
0.0
 10
1493.619783
 20
420.713174
 30
0.0
 10
1492.829608
 20
420.713174
 30
0.0
 10
1492.188260
 20
420.355909
 30
0.0
  0
SPLINE
  5
10f
100
AcDbEntity
  8
newlayer
 62
5
100
AcDbSpline
 70
8
 71
3
 72
8
 73
4
 74
0
 40
0
 40
0
 40
0
 40
0
 40
1
 40
1
 40
1
 40
1
 10
1492.188260
 20
420.355909
 30
0.0
 10
1491.546911
 20
419.998643
 30
0.0
 10
1491.151824
 20
419.338389
 30
0.0
 10
1491.151824
 20
418.623858
 30
0.0
  0
SPLINE
  5
110
100
AcDbEntity
  8
newlayer
 62
5
100
AcDbSpline
 70
8
 71
3
 72
8
 73
4
 74
0
 40
0
 40
0
 40
0
 40
0
 40
1
 40
1
 40
1
 40
1
 10
1491.151824
 20
418.623858
 30
0.0
 10
1491.151824
 20
417.909327
 30
0.0
 10
1491.546911
 20
417.249073
 30
0.0
 10
1492.188260
 20
416.891807
 30
0.0
  0
SPLINE
  5
111
100
AcDbEntity
  8
newlayer
 62
5
100
AcDbSpline
 70
8
 71
3
 72
8
 73
4
 74
0
 40
0
 40
0
 40
0
 40
0
 40
1
 40
1
 40
1
 40
1
 10
1492.188260
 20
416.891807
 30
0.0
 10
1492.829608
 20
416.534542
 30
0.0
 10
1493.619783
 20
416.534542
 30
0.0
 10
1494.261131
 20
416.891807
 30
0.0
  0
SPLINE
  5
112
100
AcDbEntity
  8
newlayer
 62
5
100
AcDbSpline
 70
8
 71
3
 72
8
 73
4
 74
0
 40
0
 40
0
 40
0
 40
0
 40
1
 40
1
 40
1
 40
1
 10
1494.261131
 20
416.891807
 30
0.0
 10
1494.902480
 20
417.249073
 30
0.0
 10
1495.297567
 20
417.909327
 30
0.0
 10
1495.297567
 20
418.623858
 30
0.0
  0
LWPOLYLINE
  5
113
100
AcDbEntity
  8
newlayer
 62
5
100
AcDbPolyline
 90
1
 70
1
 10
1495.297567
 20
478.623848
 30
0.0
  0
SPLINE
  5
114
100
AcDbEntity
  8
newlayer
 62
1
100
AcDbSpline
 70
8
 71
3
 72
8
 73
4
 74
0
 40
0
 40
0
 40
0
 40
0
 40
1
 40
1
 40
1
 40
1
 10
743.193475
 20
478.933810
 30
0.0
 10
743.193475
 20
470.913172
 30
0.0
 10
738.758609
 20
463.501797
 30
0.0
 10
731.559448
 20
459.491478
 30
0.0
  0
SPLINE
  5
115
100
AcDbEntity
  8
newlayer
 62
1
100
AcDbSpline
 70
8
 71
3
 72
8
 73
4
 74
0
 40
0
 40
0
 40
0
 40
0
 40
1
 40
1
 40
1
 40
1
 10
731.559448
 20
459.491478
 30
0.0
 10
724.360286
 20
455.481159
 30
0.0
 10
715.490554
 20
455.481159
 30
0.0
 10
708.291393
 20
459.491478
 30
0.0
  0
SPLINE
  5
116
100
AcDbEntity
  8
newlayer
 62
1
100
AcDbSpline
 70
8
 71
3
 72
8
 73
4
 74
0
 40
0
 40
0
 40
0
 40
0
 40
1
 40
1
 40
1
 40
1
 10
708.291393
 20
459.491478
 30
0.0
 10
701.092231
 20
463.501797
 30
0.0
 10
696.657365
 20
470.913172
 30
0.0
 10
696.657365
 20
478.933810
 30
0.0
  0
SPLINE
  5
117
100
AcDbEntity
  8
newlayer
 62
1
100
AcDbSpline
 70
8
 71
3
 72
8
 73
4
 74
0
 40
0
 40
0
 40
0
 40
0
 40
1
 40
1
 40
1
 40
1
 10
696.657365
 20
478.933810
 30
0.0
 10
696.657365
 20
486.954448
 30
0.0
 10
701.092231
 20
494.365823
 30
0.0
 10
708.291393
 20
498.376142
 30
0.0
  0
SPLINE
  5
118
100
AcDbEntity
  8
newlayer
 62
1
100
AcDbSpline
 70
8
 71
3
 72
8
 73
4
 74
0
 40
0
 40
0
 40
0
 40
0
 40
1
 40
1
 40
1
 40
1
 10
708.291393
 20
498.376142
 30
0.0
 10
715.490554
 20
502.386461
 30
0.0
 10
724.360286
 20
502.386461
 30
0.0
 10
731.559448
 20
498.376142
 30
0.0
  0
SPLINE
  5
119
100
AcDbEntity
  8
newlayer
 62
1
100
AcDbSpline
 70
8
 71
3
 72
8
 73
4
 74
0
 40
0
 40
0
 40
0
 40
0
 40
1
 40
1
 40
1
 40
1
 10
731.559448
 20
498.376142
 30
0.0
 10
738.758609
 20
494.365823
 30
0.0
 10
743.193475
 20
486.954448
 30
0.0
 10
743.193475
 20
478.933810
 30
0.0
  0
LWPOLYLINE
  5
11a
100
AcDbEntity
  8
newlayer
 62
5
100
AcDbPolyline
 90
1
 70
1
 10
1495.297567
 20
418.623858
 30
0.0
  0
LWPOLYLINE
  5
11b
100
AcDbEntity
  8
newlayer
 62
1
100
AcDbPolyline
 90
1
 70
1
 10
743.193475
 20
478.933810
 30
0.0
  0
LWPOLYLINE
  5
11c
100
AcDbEntity
  8
newlayer
 62
1
100
AcDbPolyline
 90
140
 70
1
 10
400.150000
 20
380.149990
 30
0.0
 10
430.539780
 20
380.149990
 30
0.0
 10
430.539780
 20
390.149990
 30
0.0
 10
461.064570
 20
390.149990
 30
0.0
 10
461.064570
 20
380.149990
 30
0.0
 10
491.409350
 20
380.149990
 30
0.0
 10
491.409350
 20
390.149990
 30
0.0
 10
521.934130
 20
390.149990
 30
0.0
 10
521.934130
 20
380.149990
 30
0.0
 10
552.278910
 20
380.149990
 30
0.0
 10
552.278910
 20
390.149990
 30
0.0
 10
582.803700
 20
390.149990
 30
0.0
 10
582.803700
 20
380.149990
 30
0.0
 10
613.148480
 20
380.149990
 30
0.0
 10
613.148480
 20
390.149990
 30
0.0
 10
643.673260
 20
390.149990
 30
0.0
 10
643.673260
 20
380.149990
 30
0.0
 10
674.018040
 20
380.149990
 30
0.0
 10
674.018040
 20
390.149990
 30
0.0
 10
704.542830
 20
390.149990
 30
0.0
 10
704.542830
 20
380.149990
 30
0.0
 10
734.887610
 20
380.149990
 30
0.0
 10
734.887610
 20
390.149990
 30
0.0
 10
765.412390
 20
390.149990
 30
0.0
 10
765.412390
 20
380.149990
 30
0.0
 10
795.757170
 20
380.149990
 30
0.0
 10
795.757170
 20
390.149990
 30
0.0
 10
826.281960
 20
390.149990
 30
0.0
 10
826.281960
 20
380.149990
 30
0.0
 10
856.626740
 20
380.149990
 30
0.0
 10
856.626740
 20
390.149990
 30
0.0
 10
887.151520
 20
390.149990
 30
0.0
 10
887.151520
 20
380.149990
 30
0.0
 10
917.496300
 20
380.149990
 30
0.0
 10
917.496300
 20
390.149990
 30
0.0
 10
948.021090
 20
390.149990
 30
0.0
 10
948.021090
 20
380.149990
 30
0.0
 10
978.365870
 20
380.149990
 30
0.0
 10
978.365870
 20
390.149990
 30
0.0
 10
1008.890700
 20
390.149990
 30
0.0
 10
1008.890700
 20
380.149990
 30
0.0
 10
1039.235400
 20
380.149990
 30
0.0
 10
1039.235400
 20
390.149990
 30
0.0
 10
1069.760200
 20
390.149990
 30
0.0
 10
1069.760200
 20
380.149990
 30
0.0
 10
1100.150000
 20
380.149990
 30
0.0
 10
1100.150000
 20
359.335760
 30
0.0
 10
1090.150000
 20
359.335760
 30
0.0
 10
1090.150000
 20
328.656530
 30
0.0
 10
1100.150000
 20
328.656530
 30
0.0
 10
1100.150000
 20
297.797300
 30
0.0
 10
1090.150000
 20
297.797300
 30
0.0
 10
1090.150000
 20
267.118070
 30
0.0
 10
1100.150000
 20
267.118070
 30
0.0
 10
1100.150000
 20
236.258840
 30
0.0
 10
1090.150000
 20
236.258840
 30
0.0
 10
1090.150000
 20
205.579610
 30
0.0
 10
1100.150000
 20
205.579610
 30
0.0
 10
1100.150000
 20
174.720370
 30
0.0
 10
1090.150000
 20
174.720370
 30
0.0
 10
1090.150000
 20
144.041140
 30
0.0
 10
1100.150000
 20
144.041140
 30
0.0
 10
1100.150000
 20
113.181910
 30
0.0
 10
1090.150000
 20
113.181910
 30
0.0
 10
1090.150000
 20
82.502680
 30
0.0
 10
1100.150000
 20
82.502680
 30
0.0
 10
1100.150000
 20
51.643450
 30
0.0
 10
1090.150000
 20
51.643450
 30
0.0
 10
1090.150000
 20
20.964220
 30
0.0
 10
1100.150000
 20
20.964220
 30
0.0
 10
1100.150000
 20
0.149990
 30
0.0
 10
1069.760200
 20
0.149990
 30
0.0
 10
1069.760200
 20
0.149990
 30
0.0
 10
1039.235400
 20
0.149990
 30
0.0
 10
1039.235400
 20
0.149990
 30
0.0
 10
1008.890700
 20
0.149990
 30
0.0
 10
1008.890700
 20
0.149990
 30
0.0
 10
978.365870
 20
0.149990
 30
0.0
 10
978.365870
 20
0.149990
 30
0.0
 10
948.021090
 20
0.149990
 30
0.0
 10
948.021090
 20
0.149990
 30
0.0
 10
917.496300
 20
0.149990
 30
0.0
 10
917.496300
 20
0.149990
 30
0.0
 10
887.151520
 20
0.149990
 30
0.0
 10
887.151520
 20
0.149990
 30
0.0
 10
856.626740
 20
0.149990
 30
0.0
 10
856.626740
 20
0.149990
 30
0.0
 10
826.281960
 20
0.149990
 30
0.0
 10
826.281960
 20
0.149990
 30
0.0
 10
795.757170
 20
0.149990
 30
0.0
 10
795.757170
 20
0.149990
 30
0.0
 10
765.412390
 20
0.149990
 30
0.0
 10
765.412390
 20
0.149990
 30
0.0
 10
734.887610
 20
0.149990
 30
0.0
 10
734.887610
 20
0.149990
 30
0.0
 10
704.542830
 20
0.149990
 30
0.0
 10
704.542830
 20
0.149990
 30
0.0
 10
674.018040
 20
0.149990
 30
0.0
 10
674.018040
 20
0.149990
 30
0.0
 10
643.673260
 20
0.149990
 30
0.0
 10
643.673260
 20
0.149990
 30
0.0
 10
613.148480
 20
0.149990
 30
0.0
 10
613.148480
 20
0.149990
 30
0.0
 10
582.803700
 20
0.149990
 30
0.0
 10
582.803700
 20
0.149990
 30
0.0
 10
552.278910
 20
0.149990
 30
0.0
 10
552.278910
 20
0.149990
 30
0.0
 10
521.934130
 20
0.149990
 30
0.0
 10
521.934130
 20
0.149990
 30
0.0
 10
491.409350
 20
0.149990
 30
0.0
 10
491.409350
 20
0.149990
 30
0.0
 10
461.064570
 20
0.149990
 30
0.0
 10
461.064570
 20
0.149990
 30
0.0
 10
430.539780
 20
0.149990
 30
0.0
 10
430.539780
 20
0.149990
 30
0.0
 10
400.150000
 20
0.149990
 30
0.0
 10
400.150000
 20
20.964220
 30
0.0
 10
410.150000
 20
20.964220
 30
0.0
 10
410.150000
 20
51.643450
 30
0.0
 10
400.150000
 20
51.643450
 30
0.0
 10
400.150000
 20
82.502680
 30
0.0
 10
410.150000
 20
82.502680
 30
0.0
 10
410.150000
 20
113.181910
 30
0.0
 10
400.150000
 20
113.181910
 30
0.0
 10
400.150000
 20
144.041140
 30
0.0
 10
410.150000
 20
144.041140
 30
0.0
 10
410.150000
 20
174.720370
 30
0.0
 10
400.150000
 20
174.720370
 30
0.0
 10
400.150000
 20
205.579610
 30
0.0
 10
410.150000
 20
205.579610
 30
0.0
 10
410.150000
 20
236.258840
 30
0.0
 10
400.150000
 20
236.258840
 30
0.0
 10
400.150000
 20
267.118070
 30
0.0
 10
410.150000
 20
267.118070
 30
0.0
 10
410.150000
 20
297.797300
 30
0.0
 10
400.150000
 20
297.797300
 30
0.0
 10
400.150000
 20
328.656530
 30
0.0
 10
410.150000
 20
328.656530
 30
0.0
 10
410.150000
 20
359.335760
 30
0.0
 10
400.150000
 20
359.335760
 30
0.0
  0
LWPOLYLINE
  5
11d
100
AcDbEntity
  8
newlayer
 62
1
100
AcDbPolyline
 90
68
 70
1
 10
0.150000
 20
550.149990
 30
0.0
 10
20.874231
 20
550.149990
 30
0.0
 10
20.874231
 20
560.149990
 30
0.0
 10
51.733462
 20
560.149990
 30
0.0
 10
51.733462
 20
550.149990
 30
0.0
 10
82.412690
 20
550.149990
 30
0.0
 10
82.412690
 20
560.149990
 30
0.0
 10
113.271920
 20
560.149990
 30
0.0
 10
113.271920
 20
550.149990
 30
0.0
 10
143.951150
 20
550.149990
 30
0.0
 10
143.951150
 20
560.149990
 30
0.0
 10
174.810380
 20
560.149990
 30
0.0
 10
174.810380
 20
550.149990
 30
0.0
 10
205.489620
 20
550.149990
 30
0.0
 10
205.489620
 20
560.149990
 30
0.0
 10
236.348850
 20
560.149990
 30
0.0
 10
236.348850
 20
550.149990
 30
0.0
 10
267.028080
 20
550.149990
 30
0.0
 10
267.028080
 20
560.149990
 30
0.0
 10
297.887310
 20
560.149990
 30
0.0
 10
297.887310
 20
550.149990
 30
0.0
 10
328.566540
 20
550.149990
 30
0.0
 10
328.566540
 20
560.149990
 30
0.0
 10
359.425770
 20
560.149990
 30
0.0
 10
359.425770
 20
550.149990
 30
0.0
 10
380.150000
 20
550.149990
 30
0.0
 10
380.150000
 20
528.194990
 30
0.0
 10
390.150000
 20
528.194990
 30
0.0
 10
390.150000
 20
496.104990
 30
0.0
 10
380.150000
 20
496.104990
 30
0.0
 10
380.150000
 20
464.194990
 30
0.0
 10
390.150000
 20
464.194990
 30
0.0
 10
390.150000
 20
432.104990
 30
0.0
 10
380.150000
 20
432.104990
 30
0.0
 10
380.150000
 20
410.149990
 30
0.0
 10
359.425770
 20
410.149990
 30
0.0
 10
359.425770
 20
400.149990
 30
0.0
 10
328.566540
 20
400.149990
 30
0.0
 10
328.566540
 20
410.149990
 30
0.0
 10
297.887310
 20
410.149990
 30
0.0
 10
297.887310
 20
400.149990
 30
0.0
 10
267.028080
 20
400.149990
 30
0.0
 10
267.028080
 20
410.149990
 30
0.0
 10
236.348850
 20
410.149990
 30
0.0
 10
236.348850
 20
400.149990
 30
0.0
 10
205.489620
 20
400.149990
 30
0.0
 10
205.489620
 20
410.149990
 30
0.0
 10
174.810380
 20
410.149990
 30
0.0
 10
174.810380
 20
400.149990
 30
0.0
 10
143.951150
 20
400.149990
 30
0.0
 10
143.951150
 20
410.149990
 30
0.0
 10
113.271920
 20
410.149990
 30
0.0
 10
113.271920
 20
400.149990
 30
0.0
 10
82.412690
 20
400.149990
 30
0.0
 10
82.412690
 20
410.149990
 30
0.0
 10
51.733462
 20
410.149990
 30
0.0
 10
51.733462
 20
400.149990
 30
0.0
 10
20.874231
 20
400.149990
 30
0.0
 10
20.874231
 20
410.149990
 30
0.0
 10
0.150000
 20
410.149990
 30
0.0
 10
0.150000
 20
432.104990
 30
0.0
 10
0.150000
 20
432.104990
 30
0.0
 10
0.150000
 20
464.194990
 30
0.0
 10
0.150000
 20
464.194990
 30
0.0
 10
0.150000
 20
496.104990
 30
0.0
 10
0.150000
 20
496.104990
 30
0.0
 10
0.150000
 20
528.194990
 30
0.0
 10
0.150000
 20
528.194990
 30
0.0
  0
LWPOLYLINE
  5
11e
100
AcDbEntity
  8
newlayer
 62
1
100
AcDbPolyline
 90
108
 70
1
 10
400.150000
 20
560.149990
 30
0.0
 10
430.629780
 20
560.149990
 30
0.0
 10
430.629780
 20
550.149990
 30
0.0
 10
460.974570
 20
550.149990
 30
0.0
 10
460.974570
 20
560.149990
 30
0.0
 10
491.499350
 20
560.149990
 30
0.0
 10
491.499350
 20
550.149990
 30
0.0
 10
521.844130
 20
550.149990
 30
0.0
 10
521.844130
 20
560.149990
 30
0.0
 10
552.368910
 20
560.149990
 30
0.0
 10
552.368910
 20
550.149990
 30
0.0
 10
582.713700
 20
550.149990
 30
0.0
 10
582.713700
 20
560.149990
 30
0.0
 10
613.238480
 20
560.149990
 30
0.0
 10
613.238480
 20
550.149990
 30
0.0
 10
643.583260
 20
550.149990
 30
0.0
 10
643.583260
 20
560.149990
 30
0.0
 10
674.108040
 20
560.149990
 30
0.0
 10
674.108040
 20
550.149990
 30
0.0
 10
704.452830
 20
550.149990
 30
0.0
 10
704.452830
 20
560.149990
 30
0.0
 10
734.977610
 20
560.149990
 30
0.0
 10
734.977610
 20
550.149990
 30
0.0
 10
765.322390
 20
550.149990
 30
0.0
 10
765.322390
 20
560.149990
 30
0.0
 10
795.847170
 20
560.149990
 30
0.0
 10
795.847170
 20
550.149990
 30
0.0
 10
826.191960
 20
550.149990
 30
0.0
 10
826.191960
 20
560.149990
 30
0.0
 10
856.716740
 20
560.149990
 30
0.0
 10
856.716740
 20
550.149990
 30
0.0
 10
887.061520
 20
550.149990
 30
0.0
 10
887.061520
 20
560.149990
 30
0.0
 10
917.586300
 20
560.149990
 30
0.0
 10
917.586300
 20
550.149990
 30
0.0
 10
947.931090
 20
550.149990
 30
0.0
 10
947.931090
 20
560.149990
 30
0.0
 10
978.455870
 20
560.149990
 30
0.0
 10
978.455870
 20
550.149990
 30
0.0
 10
1008.800700
 20
550.149990
 30
0.0
 10
1008.800700
 20
560.149990
 30
0.0
 10
1039.325400
 20
560.149990
 30
0.0
 10
1039.325400
 20
550.149990
 30
0.0
 10
1069.670200
 20
550.149990
 30
0.0
 10
1069.670200
 20
560.149990
 30
0.0
 10
1100.150000
 20
560.149990
 30
0.0
 10
1100.150000
 20
528.104990
 30
0.0
 10
1090.150000
 20
528.104990
 30
0.0
 10
1090.150000
 20
496.194990
 30
0.0
 10
1100.150000
 20
496.194990
 30
0.0
 10
1100.150000
 20
464.104990
 30
0.0
 10
1090.150000
 20
464.104990
 30
0.0
 10
1090.150000
 20
432.194990
 30
0.0
 10
1100.150000
 20
432.194990
 30
0.0
 10
1100.150000
 20
400.149990
 30
0.0
 10
1069.670200
 20
400.149990
 30
0.0
 10
1069.670200
 20
410.149990
 30
0.0
 10
1039.325400
 20
410.149990
 30
0.0
 10
1039.325400
 20
400.149990
 30
0.0
 10
1008.800700
 20
400.149990
 30
0.0
 10
1008.800700
 20
410.149990
 30
0.0
 10
978.455870
 20
410.149990
 30
0.0
 10
978.455870
 20
400.149990
 30
0.0
 10
947.931090
 20
400.149990
 30
0.0
 10
947.931090
 20
410.149990
 30
0.0
 10
917.586300
 20
410.149990
 30
0.0
 10
917.586300
 20
400.149990
 30
0.0
 10
887.061520
 20
400.149990
 30
0.0
 10
887.061520
 20
410.149990
 30
0.0
 10
856.716740
 20
410.149990
 30
0.0
 10
856.716740
 20
400.149990
 30
0.0
 10
826.191960
 20
400.149990
 30
0.0
 10
826.191960
 20
410.149990
 30
0.0
 10
795.847170
 20
410.149990
 30
0.0
 10
795.847170
 20
400.149990
 30
0.0
 10
765.322390
 20
400.149990
 30
0.0
 10
765.322390
 20
410.149990
 30
0.0
 10
734.977610
 20
410.149990
 30
0.0
 10
734.977610
 20
400.149990
 30
0.0
 10
704.452830
 20
400.149990
 30
0.0
 10
704.452830
 20
410.149990
 30
0.0
 10
674.108040
 20
410.149990
 30
0.0
 10
674.108040
 20
400.149990
 30
0.0
 10
643.583260
 20
400.149990
 30
0.0
 10
643.583260
 20
410.149990
 30
0.0
 10
613.238480
 20
410.149990
 30
0.0
 10
613.238480
 20
400.149990
 30
0.0
 10
582.713700
 20
400.149990
 30
0.0
 10
582.713700
 20
410.149990
 30
0.0
 10
552.368910
 20
410.149990
 30
0.0
 10
552.368910
 20
400.149990
 30
0.0
 10
521.844130
 20
400.149990
 30
0.0
 10
521.844130
 20
410.149990
 30
0.0
 10
491.499350
 20
410.149990
 30
0.0
 10
491.499350
 20
400.149990
 30
0.0
 10
460.974570
 20
400.149990
 30
0.0
 10
460.974570
 20
410.149990
 30
0.0
 10
430.629780
 20
410.149990
 30
0.0
 10
430.629780
 20
400.149990
 30
0.0
 10
400.150000
 20
400.149990
 30
0.0
 10
400.150000
 20
432.194990
 30
0.0
 10
410.150000
 20
432.194990
 30
0.0
 10
410.150000
 20
464.104990
 30
0.0
 10
400.150000
 20
464.104990
 30
0.0
 10
400.150000
 20
496.194990
 30
0.0
 10
410.150000
 20
496.194990
 30
0.0
 10
410.150000
 20
528.104990
 30
0.0
 10
400.150000
 20
528.104990
 30
0.0
  0
LWPOLYLINE
  5
11f
100
AcDbEntity
  8
newlayer
 62
1
100
AcDbPolyline
 90
68
 70
1
 10
1120.150000
 20
550.149990
 30
0.0
 10
1140.874200
 20
550.149990
 30
0.0
 10
1140.874200
 20
560.149990
 30
0.0
 10
1171.733500
 20
560.149990
 30
0.0
 10
1171.733500
 20
550.149990
 30
0.0
 10
1202.412700
 20
550.149990
 30
0.0
 10
1202.412700
 20
560.149990
 30
0.0
 10
1233.271900
 20
560.149990
 30
0.0
 10
1233.271900
 20
550.149990
 30
0.0
 10
1263.951200
 20
550.149990
 30
0.0
 10
1263.951200
 20
560.149990
 30
0.0
 10
1294.810400
 20
560.149990
 30
0.0
 10
1294.810400
 20
550.149990
 30
0.0
 10
1325.489600
 20
550.149990
 30
0.0
 10
1325.489600
 20
560.149990
 30
0.0
 10
1356.348800
 20
560.149990
 30
0.0
 10
1356.348800
 20
550.149990
 30
0.0
 10
1387.028100
 20
550.149990
 30
0.0
 10
1387.028100
 20
560.149990
 30
0.0
 10
1417.887300
 20
560.149990
 30
0.0
 10
1417.887300
 20
550.149990
 30
0.0
 10
1448.566500
 20
550.149990
 30
0.0
 10
1448.566500
 20
560.149990
 30
0.0
 10
1479.425800
 20
560.149990
 30
0.0
 10
1479.425800
 20
550.149990
 30
0.0
 10
1500.150000
 20
550.149990
 30
0.0
 10
1500.150000
 20
528.194990
 30
0.0
 10
1500.150000
 20
528.194990
 30
0.0
 10
1500.150000
 20
496.104990
 30
0.0
 10
1500.150000
 20
496.104990
 30
0.0
 10
1500.150000
 20
464.194990
 30
0.0
 10
1500.150000
 20
464.194990
 30
0.0
 10
1500.150000
 20
432.104990
 30
0.0
 10
1500.150000
 20
432.104990
 30
0.0
 10
1500.150000
 20
410.149990
 30
0.0
 10
1479.425800
 20
410.149990
 30
0.0
 10
1479.425800
 20
400.149990
 30
0.0
 10
1448.566500
 20
400.149990
 30
0.0
 10
1448.566500
 20
410.149990
 30
0.0
 10
1417.887300
 20
410.149990
 30
0.0
 10
1417.887300
 20
400.149990
 30
0.0
 10
1387.028100
 20
400.149990
 30
0.0
 10
1387.028100
 20
410.149990
 30
0.0
 10
1356.348800
 20
410.149990
 30
0.0
 10
1356.348800
 20
400.149990
 30
0.0
 10
1325.489600
 20
400.149990
 30
0.0
 10
1325.489600
 20
410.149990
 30
0.0
 10
1294.810400
 20
410.149990
 30
0.0
 10
1294.810400
 20
400.149990
 30
0.0
 10
1263.951200
 20
400.149990
 30
0.0
 10
1263.951200
 20
410.149990
 30
0.0
 10
1233.271900
 20
410.149990
 30
0.0
 10
1233.271900
 20
400.149990
 30
0.0
 10
1202.412700
 20
400.149990
 30
0.0
 10
1202.412700
 20
410.149990
 30
0.0
 10
1171.733500
 20
410.149990
 30
0.0
 10
1171.733500
 20
400.149990
 30
0.0
 10
1140.874200
 20
400.149990
 30
0.0
 10
1140.874200
 20
410.149990
 30
0.0
 10
1120.150000
 20
410.149990
 30
0.0
 10
1120.150000
 20
432.104990
 30
0.0
 10
1110.150000
 20
432.104990
 30
0.0
 10
1110.150000
 20
464.194990
 30
0.0
 10
1120.150000
 20
464.194990
 30
0.0
 10
1120.150000
 20
496.104990
 30
0.0
 10
1110.150000
 20
496.104990
 30
0.0
 10
1110.150000
 20
528.194990
 30
0.0
 10
1120.150000
 20
528.194990
 30
0.0
  0
LWPOLYLINE
  5
120
100
AcDbEntity
  8
newlayer
 62
1
100
AcDbPolyline
 90
140
 70
1
 10
400.150000
 20
960.149990
 30
0.0
 10
430.539780
 20
960.149990
 30
0.0
 10
430.539780
 20
960.149990
 30
0.0
 10
461.064570
 20
960.149990
 30
0.0
 10
461.064570
 20
960.149990
 30
0.0
 10
491.409350
 20
960.149990
 30
0.0
 10
491.409350
 20
960.149990
 30
0.0
 10
521.934130
 20
960.149990
 30
0.0
 10
521.934130
 20
960.149990
 30
0.0
 10
552.278910
 20
960.149990
 30
0.0
 10
552.278910
 20
960.149990
 30
0.0
 10
582.803700
 20
960.149990
 30
0.0
 10
582.803700
 20
960.149990
 30
0.0
 10
613.148480
 20
960.149990
 30
0.0
 10
613.148480
 20
960.149990
 30
0.0
 10
643.673260
 20
960.149990
 30
0.0
 10
643.673260
 20
960.149990
 30
0.0
 10
674.018040
 20
960.149990
 30
0.0
 10
674.018040
 20
960.149990
 30
0.0
 10
704.542830
 20
960.149990
 30
0.0
 10
704.542830
 20
960.149990
 30
0.0
 10
734.887610
 20
960.149990
 30
0.0
 10
734.887610
 20
960.149990
 30
0.0
 10
765.412390
 20
960.149990
 30
0.0
 10
765.412390
 20
960.149990
 30
0.0
 10
795.757170
 20
960.149990
 30
0.0
 10
795.757170
 20
960.149990
 30
0.0
 10
826.281960
 20
960.149990
 30
0.0
 10
826.281960
 20
960.149990
 30
0.0
 10
856.626740
 20
960.149990
 30
0.0
 10
856.626740
 20
960.149990
 30
0.0
 10
887.151520
 20
960.149990
 30
0.0
 10
887.151520
 20
960.149990
 30
0.0
 10
917.496300
 20
960.149990
 30
0.0
 10
917.496300
 20
960.149990
 30
0.0
 10
948.021090
 20
960.149990
 30
0.0
 10
948.021090
 20
960.149990
 30
0.0
 10
978.365870
 20
960.149990
 30
0.0
 10
978.365870
 20
960.149990
 30
0.0
 10
1008.890700
 20
960.149990
 30
0.0
 10
1008.890700
 20
960.149990
 30
0.0
 10
1039.235400
 20
960.149990
 30
0.0
 10
1039.235400
 20
960.149990
 30
0.0
 10
1069.760200
 20
960.149990
 30
0.0
 10
1069.760200
 20
960.149990
 30
0.0
 10
1100.150000
 20
960.149990
 30
0.0
 10
1100.150000
 20
939.335759
 30
0.0
 10
1090.150000
 20
939.335759
 30
0.0
 10
1090.150000
 20
908.656528
 30
0.0
 10
1100.150000
 20
908.656528
 30
0.0
 10
1100.150000
 20
877.797300
 30
0.0
 10
1090.150000
 20
877.797300
 30
0.0
 10
1090.150000
 20
847.118070
 30
0.0
 10
1100.150000
 20
847.118070
 30
0.0
 10
1100.150000
 20
816.258840
 30
0.0
 10
1090.150000
 20
816.258840
 30
0.0
 10
1090.150000
 20
785.579610
 30
0.0
 10
1100.150000
 20
785.579610
 30
0.0
 10
1100.150000
 20
754.720370
 30
0.0
 10
1090.150000
 20
754.720370
 30
0.0
 10
1090.150000
 20
724.041140
 30
0.0
 10
1100.150000
 20
724.041140
 30
0.0
 10
1100.150000
 20
693.181910
 30
0.0
 10
1090.150000
 20
693.181910
 30
0.0
 10
1090.150000
 20
662.502680
 30
0.0
 10
1100.150000
 20
662.502680
 30
0.0
 10
1100.150000
 20
631.643450
 30
0.0
 10
1090.150000
 20
631.643450
 30
0.0
 10
1090.150000
 20
600.964220
 30
0.0
 10
1100.150000
 20
600.964220
 30
0.0
 10
1100.150000
 20
580.149990
 30
0.0
 10
1069.760200
 20
580.149990
 30
0.0
 10
1069.760200
 20
570.149990
 30
0.0
 10
1039.235400
 20
570.149990
 30
0.0
 10
1039.235400
 20
580.149990
 30
0.0
 10
1008.890700
 20
580.149990
 30
0.0
 10
1008.890700
 20
570.149990
 30
0.0
 10
978.365870
 20
570.149990
 30
0.0
 10
978.365870
 20
580.149990
 30
0.0
 10
948.021090
 20
580.149990
 30
0.0
 10
948.021090
 20
570.149990
 30
0.0
 10
917.496300
 20
570.149990
 30
0.0
 10
917.496300
 20
580.149990
 30
0.0
 10
887.151520
 20
580.149990
 30
0.0
 10
887.151520
 20
570.149990
 30
0.0
 10
856.626740
 20
570.149990
 30
0.0
 10
856.626740
 20
580.149990
 30
0.0
 10
826.281960
 20
580.149990
 30
0.0
 10
826.281960
 20
570.149990
 30
0.0
 10
795.757170
 20
570.149990
 30
0.0
 10
795.757170
 20
580.149990
 30
0.0
 10
765.412390
 20
580.149990
 30
0.0
 10
765.412390
 20
570.149990
 30
0.0
 10
734.887610
 20
570.149990
 30
0.0
 10
734.887610
 20
580.149990
 30
0.0
 10
704.542830
 20
580.149990
 30
0.0
 10
704.542830
 20
570.149990
 30
0.0
 10
674.018040
 20
570.149990
 30
0.0
 10
674.018040
 20
580.149990
 30
0.0
 10
643.673260
 20
580.149990
 30
0.0
 10
643.673260
 20
570.149990
 30
0.0
 10
613.148480
 20
570.149990
 30
0.0
 10
613.148480
 20
580.149990
 30
0.0
 10
582.803700
 20
580.149990
 30
0.0
 10
582.803700
 20
570.149990
 30
0.0
 10
552.278910
 20
570.149990
 30
0.0
 10
552.278910
 20
580.149990
 30
0.0
 10
521.934130
 20
580.149990
 30
0.0
 10
521.934130
 20
570.149990
 30
0.0
 10
491.409350
 20
570.149990
 30
0.0
 10
491.409350
 20
580.149990
 30
0.0
 10
461.064570
 20
580.149990
 30
0.0
 10
461.064570
 20
570.149990
 30
0.0
 10
430.539780
 20
570.149990
 30
0.0
 10
430.539780
 20
580.149990
 30
0.0
 10
400.150000
 20
580.149990
 30
0.0
 10
400.150000
 20
600.964220
 30
0.0
 10
410.150000
 20
600.964220
 30
0.0
 10
410.150000
 20
631.643450
 30
0.0
 10
400.150000
 20
631.643450
 30
0.0
 10
400.150000
 20
662.502680
 30
0.0
 10
410.150000
 20
662.502680
 30
0.0
 10
410.150000
 20
693.181910
 30
0.0
 10
400.150000
 20
693.181910
 30
0.0
 10
400.150000
 20
724.041140
 30
0.0
 10
410.150000
 20
724.041140
 30
0.0
 10
410.150000
 20
754.720370
 30
0.0
 10
400.150000
 20
754.720370
 30
0.0
 10
400.150000
 20
785.579610
 30
0.0
 10
410.150000
 20
785.579610
 30
0.0
 10
410.150000
 20
816.258840
 30
0.0
 10
400.150000
 20
816.258840
 30
0.0
 10
400.150000
 20
847.118070
 30
0.0
 10
410.150000
 20
847.118070
 30
0.0
 10
410.150000
 20
877.797300
 30
0.0
 10
400.150000
 20
877.797300
 30
0.0
 10
400.150000
 20
908.656528
 30
0.0
 10
410.150000
 20
908.656528
 30
0.0
 10
410.150000
 20
939.335759
 30
0.0
 10
400.150000
 20
939.335759
 30
0.0
  0
ENDSEC
  0
SECTION
  2
OBJECTS
  0
DICTIONARY
  5
C
330
0
100
AcDbDictionary
  3
ACAD_GROUP
350
D
  3
ACAD_MLINESTYLE
350
17
  0
DICTIONARY
  5
D
330
C
100
AcDbDictionary
  0
DICTIONARY
  5
1A
330
C
100
AcDbDictionary
  0
DICTIONARY
  5
17
330
C
100
AcDbDictionary
  3
STANDARD
350
18
  0
DICTIONARY
  5
19
330
C
100
AcDbDictionary
  0
ENDSEC
  0
EOF
