<?xml version="1.0" encoding="UTF-8" standalone="no"?>
<svg
   xmlns:dc="http://purl.org/dc/elements/1.1/"
   xmlns:cc="http://creativecommons.org/ns#"
   xmlns:rdf="http://www.w3.org/1999/02/22-rdf-syntax-ns#"
   xmlns:svg="http://www.w3.org/2000/svg"
   xmlns="http://www.w3.org/2000/svg"
   xmlns:sodipodi="http://sodipodi.sourceforge.net/DTD/sodipodi-0.dtd"
   xmlns:inkscape="http://www.inkscape.org/namespaces/inkscape"
   width="793.700787402"
   height="1122.51968504"
   version="1.1"
   id="svg1413"
   sodipodi:docname="armoire_C3H15E6.svg"
   inkscape:version="0.92.2 (5c3e80d, 2017-08-06)">
  <metadata
     id="metadata1417">
    <rdf:RDF>
      <cc:Work
         rdf:about="">
        <dc:format>image/svg+xml</dc:format>
        <dc:type
           rdf:resource="http://purl.org/dc/dcmitype/StillImage" />
        <dc:title></dc:title>
      </cc:Work>
    </rdf:RDF>
  </metadata>
  <sodipodi:namedview
     pagecolor="#ffffff"
     bordercolor="#666666"
     borderopacity="1"
     objecttolerance="10"
     gridtolerance="10"
     guidetolerance="10"
     inkscape:pageopacity="0"
     inkscape:pageshadow="2"
     inkscape:window-width="1920"
     inkscape:window-height="1017"
     id="namedview1415"
     showgrid="false"
     inkscape:zoom="0.13354478"
     inkscape:cx="4162.494"
     inkscape:cy="-195.89578"
     inkscape:window-x="-8"
     inkscape:window-y="-8"
     inkscape:window-maximized="1"
     inkscape:current-layer="g1411" />
  <desc
     id="desc815">C:\Users\Matthieu\Documents\I3\projet_gmo\Méca\Armoire\Ligne H15\armoire_C3H15E6.dxf - scale = 1.000000, origin = (0.000000, 0.000000), method = manual</desc>
  <defs
     id="defs829">
    <marker
       id="DistanceX"
       orient="auto"
       refX="0.0"
       refY="0.0"
       style="overflow:visible">
      <path
         d="M 3,-3 L -3,3 M 0,-5 L  0,5"
         style="stroke:#000000; stroke-width:0.5"
         id="path817" />
    </marker>
    <pattern
       height="8"
       id="Hatch"
       patternUnits="userSpaceOnUse"
       width="8"
       x="0"
       y="0">
      <path
         d="M8 4 l-4,4"
         linecap="square"
         stroke="#000000"
         stroke-width="0.25"
         id="path820" />
      <path
         d="M6 2 l-4,4"
         linecap="square"
         stroke="#000000"
         stroke-width="0.25"
         id="path822" />
      <path
         d="M4 0 l-4,4"
         linecap="square"
         stroke="#000000"
         stroke-width="0.25"
         id="path824" />
    </pattern>
    <symbol
       id="*MODEL_SPACE" />
    <symbol
       id="*PAPER_SPACE" />
  </defs>
  <g
     inkscape:groupmode="layer"
     inkscape:label="0"
     id="g1411">
    <path
       d="M 3506.574187,1436.220472 L 3506.574187,1458.897638 L 3391.885243,1458.897638 L 3391.885243,1436.220472 L 3276.515989,1436.220472 L 3276.515989,1458.897638 L 3161.827045,1458.897638 L 3161.827045,1436.220472 L 3046.457790,1436.220472 L 3046.457790,1458.897638 L 2931.768847,1458.897638 L 2931.768847,1436.220472 L 2816.399588,1436.220472 L 2816.399588,1458.897638 L 2701.710648,1458.897638 L 2701.710648,1436.220472 L 2586.341390,1436.220472 L 2586.341390,1458.897638 L 2471.652446,1458.897638 L 2471.652446,1436.220472 L 2356.283191,1436.220472 L 2356.283191,1458.897638 L 2241.594248,1458.897638 L 2241.594248,1436.220472 L 2126.224993,1436.220472 L 2126.224993,1458.897638 L 2011.536049,1458.897638 L 2011.536049,1436.220472 L 1896.166791,1436.220472 L 1896.166791,1458.897638 L 1781.477851,1458.897638 L 1781.477851,1436.220472 L 1666.108592,1436.220472 L 1666.108592,1458.897638 L 1551.419652,1458.897638 L 1551.419652,1436.220472 L 1436.220472,1436.220472 L 1436.220472,1549.776378 L 1458.897638,1549.776378 L 1458.897638,1662.822047 L 1436.220472,1662.822047 L 1436.220472,1776.548031 L 1458.897638,1776.548031 L 1458.897638,1889.593701 L 1436.220472,1889.593701 L 1436.220472,2003.149606 L 1551.419652,2003.149606 L 1551.419652,1980.472441 L 1666.108592,1980.472441 L 1666.108592,2003.149606 L 1781.477851,2003.149606 L 1781.477851,1980.472441 L 1896.166791,1980.472441 L 1896.166791,2003.149606 L 2011.536049,2003.149606 L 2011.536049,1980.472441 L 2126.224993,1980.472441 L 2126.224993,2003.149606 L 2241.594248,2003.149606 L 2241.594248,1980.472441 L 2356.283191,1980.472441 L 2356.283191,2003.149606 L 2471.652446,2003.149606 L 2471.652446,1980.472441 L 2586.341390,1980.472441 L 2586.341390,2003.149606 L 2701.710648,2003.149606 L 2701.710648,1980.472441 L 2816.399588,1980.472441 L 2816.399588,2003.149606 L 2931.768847,2003.149606 L 2931.768847,1980.472441 L 3046.457790,1980.472441 L 3046.457790,2003.149606 L 3161.827045,2003.149606 L 3161.827045,1980.472441 L 3276.515989,1980.472441 L 3276.515989,2003.149606 L 3391.885243,2003.149606 L 3391.885243,1980.472441 L 3506.574187,1980.472441 L 3506.574187,2003.149606 L 3621.943446,2003.149606 L 3621.943446,1980.472441 L 3736.632386,1980.472441 L 3736.632386,2003.149606 L 3852.001644,2003.149606 L 3852.001644,1980.472441 L 3966.690584,1980.472441 L 3966.690584,2003.149606 L 4081.889764,2003.149606 L 4081.889764,1889.593701 L 4059.212598,1889.593701 L 4059.212598,1776.548031 L 4081.889764,1776.548031 L 4081.889764,1662.822047 L 4059.212598,1662.822047 L 4059.212598,1549.776378 L 4081.889764,1549.776378 L 4081.889764,1436.220472 L 3966.690584,1436.220472 L 3966.690584,1458.897638 L 3852.001644,1458.897638 L 3852.001644,1436.220472 L 3736.632386,1436.220472 L 3736.632386,1458.897638 L 3621.943446,1458.897638 L 3621.943446,1436.220472 L 3506.574187,1436.220472 z"
       style="stroke:#ff0000;fill:none;stroke-opacity:1;stroke-width:0.37795276;stroke-miterlimit:4;stroke-dasharray:none"
       id="path831" />
    <path
       d="M 1666.448750,60.472441 L 1551.079495,60.472441 L 1436.220472,60.472441 L 1436.220472,161.658985 L 1458.897638,161.658985 L 1458.897638,285.012454 L 1436.220472,285.012454 L 1436.220472,409.046241 L 1458.897638,409.046241 L 1458.897638,532.399714 L 1436.220472,532.399714 L 1436.220472,656.433502 L 1458.897638,656.433502 L 1458.897638,779.786971 L 1436.220472,779.786971 L 1436.220472,903.820758 L 1458.897638,903.820758 L 1458.897638,1027.174231 L 1436.220472,1027.174231 L 1436.220472,1151.208019 L 1458.897638,1151.208019 L 1458.897638,1274.561488 L 1436.220472,1274.561488 L 1436.220472,1375.748031 L 1551.079495,1375.748031 L 1551.079495,1398.425197 L 1666.448750,1398.425197 L 1666.448750,1375.748031 L 1781.137693,1375.748031 L 1781.137693,1398.425197 L 1896.506948,1398.425197 L 1896.506948,1375.748031 L 2011.195892,1375.748031 L 2011.195892,1398.425197 L 2126.565150,1398.425197 L 2126.565150,1375.748031 L 2241.254090,1375.748031 L 2241.254090,1398.425197 L 2356.623349,1398.425197 L 2356.623349,1375.748031 L 2471.312289,1375.748031 L 2471.312289,1398.425197 L 2586.681547,1398.425197 L 2586.681547,1375.748031 L 2701.370491,1375.748031 L 2701.370491,1398.425197 L 2816.739746,1398.425197 L 2816.739746,1375.748031 L 2931.428689,1375.748031 L 2931.428689,1398.425197 L 3046.797948,1398.425197 L 3046.797948,1375.748031 L 3161.486888,1375.748031 L 3161.486888,1398.425197 L 3276.856146,1398.425197 L 3276.856146,1375.748031 L 3391.545086,1375.748031 L 3391.545086,1398.425197 L 3506.914345,1398.425197 L 3506.914345,1375.748031 L 3621.603288,1375.748031 L 3621.603288,1398.425197 L 3736.972543,1398.425197 L 3736.972543,1375.748031 L 3851.661487,1375.748031 L 3851.661487,1398.425197 L 3967.030741,1398.425197 L 3967.030741,1375.748031 L 4081.889764,1375.748031 L 4081.889764,1274.561488 L 4059.212598,1274.561488 L 4059.212598,1151.208019 L 4081.889764,1151.208019 L 4081.889764,1027.174231 L 4059.212598,1027.174231 L 4059.212598,903.820758 L 4081.889764,903.820758 L 4081.889764,779.786971 L 4059.212598,779.786971 L 4059.212598,656.433502 L 4081.889764,656.433502 L 4081.889764,532.399714 L 4059.212598,532.399714 L 4059.212598,409.046241 L 4081.889764,409.046241 L 4081.889764,285.012454 L 4059.212598,285.012454 L 4059.212598,161.658985 L 4081.889764,161.658985 L 4081.889764,60.472441 L 3967.030741,60.472441 L 3851.661487,60.472441 L 3736.972543,60.472441 L 3621.603288,60.472441 L 3506.914345,60.472441 L 3391.545086,60.472441 L 3276.856146,60.472441 L 3161.486888,60.472441 L 3046.797948,60.472441 L 2931.428689,60.472441 L 2816.739746,60.472441 L 2701.370491,60.472441 L 2586.681547,60.472441 L 2471.312289,60.472441 L 2356.623349,60.472441 L 2241.254090,60.472441 L 2126.565150,60.472441 L 2011.195892,60.472441 L 1896.506948,60.472441 L 1781.137693,60.472441 L 1666.448750,60.472441 z"
       style="stroke:#ff0000;fill:none;stroke-opacity:1;stroke-width:0.37795276;stroke-miterlimit:4;stroke-dasharray:none"
       id="path835" />
    <path
       d="M 2310.551180,285.012454 L 2310.551180,161.658985 L 2333.228345,161.658985 L 2333.228345,285.012454 L 2310.551180,285.012454 z"
       style="stroke:#ff0000;fill:none;stroke-opacity:1;stroke-width:0.37795276;stroke-miterlimit:4;stroke-dasharray:none"
       id="path837" />
    <path
       d="M 3184.881891,161.658985 L 3207.559056,161.658985 L 3207.559056,285.012454 L 3184.881891,285.012454 L 3184.881891,161.658985 z"
       style="stroke:#ff0000;fill:none;stroke-opacity:1;stroke-width:0.37795276;stroke-miterlimit:4;stroke-dasharray:none"
       id="path839" />
    <path
       d="M 3207.559056,779.786971 L 3184.881891,779.786971 L 3184.881891,656.433502 L 3207.559056,656.433502 L 3207.559056,779.786971 z"
       style="stroke:#ff0000;fill:none;stroke-opacity:1;stroke-width:0.37795276;stroke-miterlimit:4;stroke-dasharray:none"
       id="path841" />
    <path
       d="M 3184.881891,1027.174231 L 3184.881891,903.820758 L 3207.559056,903.820758 L 3207.559056,1027.174231 L 3184.881891,1027.174231 z"
       style="stroke:#ff0000;fill:none;stroke-opacity:1;stroke-width:0.37795276;stroke-miterlimit:4;stroke-dasharray:none"
       id="path843" />
    <path
       d="M 2310.551180,779.786971 L 2310.551180,656.433502 L 2333.228345,656.433502 L 2333.228345,779.786971 L 2310.551180,779.786971 z"
       style="stroke:#ff0000;fill:none;stroke-opacity:1;stroke-width:0.37795276;stroke-miterlimit:4;stroke-dasharray:none"
       id="path845" />
    <path
       d="M 2333.228345,409.046241 L 2333.228345,532.399714 L 2310.551180,532.399714 L 2310.551180,409.046241 L 2333.228345,409.046241 z"
       style="stroke:#ff0000;fill:none;stroke-opacity:1;stroke-width:0.37795276;stroke-miterlimit:4;stroke-dasharray:none"
       id="path847" />
    <path
       d="M 3184.881891,1151.208019 L 3207.559056,1151.208019 L 3207.559056,1274.561488 L 3184.881891,1274.561488 L 3184.881891,1151.208019 z"
       style="stroke:#ff0000;fill:none;stroke-opacity:1;stroke-width:0.37795276;stroke-miterlimit:4;stroke-dasharray:none"
       id="path849" />
    <path
       d="M 3207.559056,409.046241 L 3207.559056,532.399714 L 3184.881891,532.399714 L 3184.881891,409.046241 L 3207.559056,409.046241 z"
       style="stroke:#ff0000;fill:none;stroke-opacity:1;stroke-width:0.37795276;stroke-miterlimit:4;stroke-dasharray:none"
       id="path851" />
    <path
       d="M 2310.551180,1274.561488 L 2310.551180,1151.208019 L 2333.228345,1151.208019 L 2333.228345,1274.561488 L 2310.551180,1274.561488 z"
       style="stroke:#ff0000;fill:none;stroke-opacity:1;stroke-width:0.37795276;stroke-miterlimit:4;stroke-dasharray:none"
       id="path853" />
    <path
       d="M 2310.551180,1027.174231 L 2310.551180,903.820758 L 2333.228345,903.820758 L 2333.228345,1027.174231 L 2310.551180,1027.174231 z"
       style="stroke:#ff0000;fill:none;stroke-opacity:1;stroke-width:0.37795276;stroke-miterlimit:4;stroke-dasharray:none"
       id="path855" />
    <path
       d="M 3046.797948,2063.622047 L 3046.797948,2040.944882 L 2931.428689,2040.944882 L 2931.428689,2063.622047 L 2816.739746,2063.622047 L 2816.739746,2040.944882 L 2701.370491,2040.944882 L 2701.370491,2063.622047 L 2586.681547,2063.622047 L 2586.681547,2040.944882 L 2471.312289,2040.944882 L 2471.312289,2063.622047 L 2356.623349,2063.622047 L 2356.623349,2040.944882 L 2241.254090,2040.944882 L 2241.254090,2063.622047 L 2126.565150,2063.622047 L 2126.565150,2040.944882 L 2011.195892,2040.944882 L 2011.195892,2063.622047 L 1896.506948,2063.622047 L 1896.506948,2040.944882 L 1781.137693,2040.944882 L 1781.137693,2063.622047 L 1666.448750,2063.622047 L 1666.448750,2040.944882 L 1551.079495,2040.944882 L 1551.079495,2063.622047 L 1436.220472,2063.622047 L 1436.220472,2164.808591 L 1458.897638,2164.808591 L 1458.897638,2288.162060 L 1436.220472,2288.162060 L 1436.220472,2412.195848 L 1458.897638,2412.195848 L 1458.897638,2535.549320 L 1436.220472,2535.549320 L 1436.220472,2659.583108 L 1458.897638,2659.583108 L 1458.897638,2782.936577 L 1436.220472,2782.936577 L 1436.220472,2906.970365 L 1458.897638,2906.970365 L 1458.897638,3030.323837 L 1436.220472,3030.323837 L 1436.220472,3154.357625 L 1458.897638,3154.357625 L 1458.897638,3277.711094 L 1436.220472,3277.711094 L 1436.220472,3378.897638 L 1551.079495,3378.897638 L 1666.448750,3378.897638 L 1781.137693,3378.897638 L 1896.506948,3378.897638 L 2011.195892,3378.897638 L 2126.565150,3378.897638 L 2241.254090,3378.897638 L 2356.623349,3378.897638 L 2471.312289,3378.897638 L 2586.681547,3378.897638 L 2701.370491,3378.897638 L 2816.739746,3378.897638 L 2931.428689,3378.897638 L 3046.797948,3378.897638 L 3161.486888,3378.897638 L 3276.856146,3378.897638 L 3391.545086,3378.897638 L 3506.914345,3378.897638 L 3621.603288,3378.897638 L 3736.972543,3378.897638 L 3851.661487,3378.897638 L 3967.030741,3378.897638 L 4081.889764,3378.897638 L 4081.889764,3277.711094 L 4059.212598,3277.711094 L 4059.212598,3154.357625 L 4081.889764,3154.357625 L 4081.889764,3030.323837 L 4059.212598,3030.323837 L 4059.212598,2906.970365 L 4081.889764,2906.970365 L 4081.889764,2782.936577 L 4059.212598,2782.936577 L 4059.212598,2659.583108 L 4081.889764,2659.583108 L 4081.889764,2535.549320 L 4059.212598,2535.549320 L 4059.212598,2412.195848 L 4081.889764,2412.195848 L 4081.889764,2288.162060 L 4059.212598,2288.162060 L 4059.212598,2164.808591 L 4081.889764,2164.808591 L 4081.889764,2063.622047 L 3967.030741,2063.622047 L 3967.030741,2040.944882 L 3851.661487,2040.944882 L 3851.661487,2063.622047 L 3736.972543,2063.622047 L 3736.972543,2040.944882 L 3621.603288,2040.944882 L 3621.603288,2063.622047 L 3506.914345,2063.622047 L 3506.914345,2040.944882 L 3391.545086,2040.944882 L 3391.545086,2063.622047 L 3276.856146,2063.622047 L 3276.856146,2040.944882 L 3161.486888,2040.944882 L 3161.486888,2063.622047 L 3046.797948,2063.622047 z"
       style="stroke:#ff0000;fill:none;stroke-opacity:1;stroke-width:0.37795276;stroke-miterlimit:4;stroke-dasharray:none"
       id="path857" />
    <path
       d="M 2333.228345,2412.195848 L 2333.228345,2535.549320 L 2310.551180,2535.549320 L 2310.551180,2412.195848 L 2333.228345,2412.195848 z"
       style="stroke:#ff0000;fill:none;stroke-opacity:1;stroke-width:0.37795276;stroke-miterlimit:4;stroke-dasharray:none"
       id="path859" />
    <path
       d="M 3184.881891,2906.970365 L 3207.559056,2906.970365 L 3207.559056,3030.323837 L 3184.881891,3030.323837 L 3184.881891,2906.970365 z"
       style="stroke:#ff0000;fill:none;stroke-opacity:1;stroke-width:0.37795276;stroke-miterlimit:4;stroke-dasharray:none"
       id="path861" />
    <path
       d="M 3184.881891,2782.936577 L 3184.881891,2659.583108 L 3207.559056,2659.583108 L 3207.559056,2782.936577 L 3184.881891,2782.936577 z"
       style="stroke:#ff0000;fill:none;stroke-opacity:1;stroke-width:0.37795276;stroke-miterlimit:4;stroke-dasharray:none"
       id="path863" />
    <path
       d="M 2310.551180,3030.323837 L 2310.551180,2906.970365 L 2333.228345,2906.970365 L 2333.228345,3030.323837 L 2310.551180,3030.323837 z"
       style="stroke:#ff0000;fill:none;stroke-opacity:1;stroke-width:0.37795276;stroke-miterlimit:4;stroke-dasharray:none"
       id="path865" />
    <path
       d="M 2333.228345,2782.936577 L 2310.551180,2782.936577 L 2310.551180,2659.583108 L 2333.228345,2659.583108 L 2333.228345,2782.936577 z"
       style="stroke:#ff0000;fill:none;stroke-opacity:1;stroke-width:0.37795276;stroke-miterlimit:4;stroke-dasharray:none"
       id="path867" />
    <path
       d="M 3207.559056,2412.195848 L 3207.559056,2535.549320 L 3184.881891,2535.549320 L 3184.881891,2412.195848 L 3207.559056,2412.195848 z"
       style="stroke:#ff0000;fill:none;stroke-opacity:1;stroke-width:0.37795276;stroke-miterlimit:4;stroke-dasharray:none"
       id="path869" />
    <path
       d="M 3184.881891,2164.808591 L 3207.559056,2164.808591 L 3207.559056,2288.162060 L 3184.881891,2288.162060 L 3184.881891,2164.808591 z"
       style="stroke:#ff0000;fill:none;stroke-opacity:1;stroke-width:0.37795276;stroke-miterlimit:4;stroke-dasharray:none"
       id="path871" />
    <path
       d="M 2310.551180,2288.162060 L 2310.551180,2164.808591 L 2333.228345,2164.808591 L 2333.228345,2288.162060 L 2310.551180,2288.162060 z"
       style="stroke:#ff0000;fill:none;stroke-opacity:1;stroke-width:0.37795276;stroke-miterlimit:4;stroke-dasharray:none"
       id="path873" />
    <path
       d="M 2310.551180,3154.357625 L 2333.228345,3154.357625 L 2333.228345,3277.711094 L 2310.551180,3277.711094 L 2310.551180,3154.357625 z"
       style="stroke:#ff0000;fill:none;stroke-opacity:1;stroke-width:0.37795276;stroke-miterlimit:4;stroke-dasharray:none"
       id="path875" />
    <path
       d="M 3207.559056,3154.357625 L 3207.559056,3277.711094 L 3184.881891,3277.711094 L 3184.881891,3154.357625 L 3207.559056,3154.357625 z"
       style="stroke:#ff0000;fill:none;stroke-opacity:1;stroke-width:0.37795276;stroke-miterlimit:4;stroke-dasharray:none"
       id="path877" />
    <path
       d="M 4062.992126,1477.795367 L 4051.653543,1477.795367 L 4051.653543,1500.472533 L 4062.992126,1500.472533 L 4062.992126,1477.795367 z"
       style="stroke:#ff0000;fill:none;stroke-opacity:1;stroke-width:0.37795276;stroke-miterlimit:4;stroke-dasharray:none"
       id="path1401" />
    <path
       d="M 3177.322836,1500.472533 L 3188.661419,1500.472533 L 3188.661419,1477.795362 L 3177.322836,1477.795362 L 3177.322836,1500.472533 z"
       style="stroke:#ff0000;fill:none;stroke-opacity:1;stroke-width:0.37795276;stroke-miterlimit:4;stroke-dasharray:none"
       id="path1403" />
    <path
       d="M 2302.992125,1500.472533 L 2314.330707,1500.472533 L 2314.330707,1477.795362 L 2302.992125,1477.795362 L 2302.992125,1500.472533 z"
       style="stroke:#ff0000;fill:none;stroke-opacity:1;stroke-width:0.37795276;stroke-miterlimit:4;stroke-dasharray:none"
       id="path1405" />
  </g>
</svg>
