<?xml version="1.0" encoding="UTF-8" standalone="no"?>
<!-- Created with Inkscape (http://www.inkscape.org/) -->

<svg
   xmlns:dc="http://purl.org/dc/elements/1.1/"
   xmlns:cc="http://creativecommons.org/ns#"
   xmlns:rdf="http://www.w3.org/1999/02/22-rdf-syntax-ns#"
   xmlns:svg="http://www.w3.org/2000/svg"
   xmlns="http://www.w3.org/2000/svg"
   xmlns:sodipodi="http://sodipodi.sourceforge.net/DTD/sodipodi-0.dtd"
   xmlns:inkscape="http://www.inkscape.org/namespaces/inkscape"
   width="710mm"
   height="400mm"
   viewBox="0 0 710 400"
   version="1.1"
   id="svg1504"
   inkscape:version="0.92.2 (5c3e80d, 2017-08-06)"
   sodipodi:docname="GMO_PI_E6_back_sides_holders.svg">
  <defs
     id="defs1498">
    <marker
       style="overflow:visible"
       refY="0.0"
       refX="0.0"
       orient="auto"
       id="DistanceX">
      <path
         id="path2106"
         style="stroke:#000000; stroke-width:0.5"
         d="M 3,-3 L -3,3 M 0,-5 L  0,5" />
    </marker>
    <pattern
       y="0"
       x="0"
       width="8"
       patternUnits="userSpaceOnUse"
       id="Hatch"
       height="8">
      <path
         id="path2109"
         stroke-width="0.25"
         stroke="#000000"
         linecap="square"
         d="M8 4 l-4,4" />
      <path
         id="path2111"
         stroke-width="0.25"
         stroke="#000000"
         linecap="square"
         d="M6 2 l-4,4" />
      <path
         id="path2113"
         stroke-width="0.25"
         stroke="#000000"
         linecap="square"
         d="M4 0 l-4,4" />
    </pattern>
    <symbol
       id="*MODEL_SPACE" />
    <symbol
       id="*PAPER_SPACE" />
    <marker
       style="overflow:visible"
       refY="0.0"
       refX="0.0"
       orient="auto"
       id="DistanceX-5">
      <path
         id="path851"
         style="stroke:#000000; stroke-width:0.5"
         d="M 3,-3 L -3,3 M 0,-5 L  0,5" />
    </marker>
    <pattern
       y="0"
       x="0"
       width="8"
       patternUnits="userSpaceOnUse"
       id="Hatch-0"
       height="8">
      <path
         id="path854"
         stroke-width="0.25"
         stroke="#000000"
         linecap="square"
         d="M8 4 l-4,4" />
      <path
         id="path856"
         stroke-width="0.25"
         stroke="#000000"
         linecap="square"
         d="M6 2 l-4,4" />
      <path
         id="path858"
         stroke-width="0.25"
         stroke="#000000"
         linecap="square"
         d="M4 0 l-4,4" />
    </pattern>
    <symbol
       id="*MODEL_SPACE-7" />
    <symbol
       id="*PAPER_SPACE-0" />
    <marker
       style="overflow:visible"
       refY="0"
       refX="0"
       orient="auto"
       id="DistanceX-7">
      <path
         inkscape:connector-curvature="0"
         id="path4"
         style="stroke:#000000;stroke-width:0.5"
         d="M 3,-3 -3,3 M 0,-5 V 5" />
    </marker>
    <pattern
       y="0"
       x="0"
       width="8"
       patternUnits="userSpaceOnUse"
       id="Hatch-1"
       height="8">
      <path
         id="path7"
         stroke-width="0.25"
         stroke="#000000"
         linecap="square"
         d="M8 4 l-4,4" />
      <path
         id="path9"
         stroke-width="0.25"
         stroke="#000000"
         linecap="square"
         d="M6 2 l-4,4" />
      <path
         id="path11"
         stroke-width="0.25"
         stroke="#000000"
         linecap="square"
         d="M4 0 l-4,4" />
    </pattern>
    <symbol
       id="*MODEL_SPACE-6" />
    <symbol
       id="*PAPER_SPACE-6" />
    <marker
       style="overflow:visible"
       refY="0"
       refX="0"
       orient="auto"
       id="DistanceX-8">
      <path
         inkscape:connector-curvature="0"
         id="path3020"
         style="stroke:#000000;stroke-width:0.5"
         d="M 3,-3 -3,3 M 0,-5 V 5" />
    </marker>
    <pattern
       y="0"
       x="0"
       width="8"
       patternUnits="userSpaceOnUse"
       id="Hatch-3"
       height="8">
      <path
         id="path3023"
         stroke-width="0.25"
         stroke="#000000"
         linecap="square"
         d="M8 4 l-4,4" />
      <path
         id="path3025"
         stroke-width="0.25"
         stroke="#000000"
         linecap="square"
         d="M6 2 l-4,4" />
      <path
         id="path3027"
         stroke-width="0.25"
         stroke="#000000"
         linecap="square"
         d="M4 0 l-4,4" />
    </pattern>
    <symbol
       id="*MODEL_SPACE-5" />
    <symbol
       id="*PAPER_SPACE-1" />
  </defs>
  <sodipodi:namedview
     id="base"
     pagecolor="#ffffff"
     bordercolor="#666666"
     borderopacity="1.0"
     inkscape:pageopacity="0.0"
     inkscape:pageshadow="2"
     inkscape:zoom="0.35"
     inkscape:cx="1121.403"
     inkscape:cy="446.42348"
     inkscape:document-units="mm"
     inkscape:current-layer="g1071"
     showgrid="false"
     inkscape:window-width="1920"
     inkscape:window-height="1017"
     inkscape:window-x="-8"
     inkscape:window-y="-8"
     inkscape:window-maximized="1" />
  <metadata
     id="metadata1501">
    <rdf:RDF>
      <cc:Work
         rdf:about="">
        <dc:format>image/svg+xml</dc:format>
        <dc:type
           rdf:resource="http://purl.org/dc/dcmitype/StillImage" />
        <dc:title></dc:title>
      </cc:Work>
    </rdf:RDF>
  </metadata>
  <g
     inkscape:label="Calque 1"
     inkscape:groupmode="layer"
     id="layer1"
     transform="translate(0,103)">
    <path
       d="M 35.777397,-91.904755 H 5.2976173 v 30.045 h 5.9999797 v 29.90998 H 5.2976173 V -1.8597746 H 11.297597 V 28.050235 H 5.2976173 v 30.045 H 35.777397 v -6.00001 h 30.34478 v 6.00001 h 30.52479 v -6.00001 h 30.344783 v 6.00001 h 30.52476 v -6.00001 h 30.3448 v 6.00001 h 30.52477 v -6.00001 h 30.3448 v 6.00001 h 30.52477 v -6.00001 h 30.3448 v 6.00001 h 30.52477 v -6.00001 h 30.34479 v 6.00001 h 30.52477 v -6.00001 h 30.3448 v 6.00001 h 30.52477 v -6.00001 h 30.34479 v 6.00001 h 30.52476 v -6.00001 h 30.3448 v 6.00001 h 30.52477 v -6.00001 h 30.34479 v 6.00001 h 30.52477 v -6.00001 h 30.3448 v 6.00001 h 30.47979 v -30.045 h -6.00001 V -1.8597746 h 6.00001 V -31.949775 h -6.00001 v -29.90998 h 6.00001 v -30.045 h -30.47979 v 6.00001 h -30.3448 v -6.00001 h -30.52477 v 6.00001 h -30.34479 v -6.00001 H 553.0787 v 6.00001 h -30.3448 v -6.00001 h -30.52476 v 6.00001 h -30.34479 v -6.00001 h -30.52477 v 6.00001 h -30.3448 v -6.00001 h -30.52477 v 6.00001 h -30.34479 v -6.00001 h -30.52477 v 6.00001 h -30.3448 v -6.00001 h -30.52477 v 6.00001 h -30.3448 v -6.00001 h -30.52477 v 6.00001 h -30.3448 v -6.00001 h -30.52476 v 6.00001 H 96.646967 v -6.00001 h -30.52479 v 6.00001 h -30.34478 z"
       style="fill:none;stroke:#ff0000;stroke-width:0.1;stroke-miterlimit:4;stroke-dasharray:none;stroke-opacity:1"
       id="path835"
       inkscape:connector-curvature="0" />
    <path
       d="m 699.29761,-74.902895 h 0.99999 v -5.99998 h -0.99999 z"
       style="fill:none;stroke:#ff0000;stroke-width:0.1;stroke-miterlimit:4;stroke-dasharray:none;stroke-opacity:1"
       id="path837"
       inkscape:connector-curvature="0" />
    <g
       id="g2130"
       inkscape:label="0"
       transform="matrix(-0.26458333,0,0,-0.26458333,351.67419,396.50661)">
      <path
         id="path2120"
         style="fill:none;stroke:#ff0000;stroke-width:0.37795275;stroke-miterlimit:4;stroke-dasharray:none;stroke-opacity:1"
         d="M -22.677165,691.48347 H 0 v -90.53859 h 100.84639 v -22.67716 h 124.03378 v 22.67716 h 123.35347 v -22.67716 h 124.03379 v 22.67716 H 595.6209 v -22.67716 h 124.03379 v 22.67716 h 123.35347 v -22.67716 h 124.03379 v 22.67716 h 123.35345 v -22.67716 h 124.0338 v 22.67716 h 100.8464 v 521.57482 h -100.8464 v 22.6772 h -124.0338 v -22.6772 H 967.04192 v 22.6771 H 843.00814 v -22.6771 H 719.65467 v 22.6771 H 595.62089 v -22.6771 H 472.26742 v 22.6771 H 348.23364 v -22.6771 H 224.88016 v 22.6771 H 100.84638 v -22.6771 H -1e-6 L 0,1031.9811 H -22.677165 V 918.25512 H 0 V 805.20945 h -22.677165 z"
         inkscape:connector-curvature="0" />
      <path
         id="path2122"
         style="fill:none;stroke:#ff0000;stroke-width:0.37795275;stroke-miterlimit:4;stroke-dasharray:none;stroke-opacity:1"
         d="m 1290.7087,748.34646 a 1.8898,1.8898 0 1 0 -3.7796,0 1.8898,1.8898 0 1 0 3.7796,0 z"
         inkscape:connector-curvature="0" />
      <path
         id="path2124"
         style="fill:none;stroke:#ff0000;stroke-width:0.37795275;stroke-miterlimit:4;stroke-dasharray:none;stroke-opacity:1"
         d="m 1290.7087,975.11811 a 1.8898,1.8898 0 1 0 -3.7796,0 1.8898,1.8898 0 1 0 3.7796,0 z"
         inkscape:connector-curvature="0" />
    </g>
    <g
       id="g1071"
       inkscape:label="0"
       transform="matrix(0.26458333,0,0,0.26458333,357.67419,-89.583333)">
      <path
         id="path865"
         style="fill:none;stroke:#ff0000;stroke-width:0.37795275;stroke-miterlimit:4;stroke-dasharray:none;stroke-opacity:1"
         d="M 0,691.48347 H -22.677165"
         inkscape:connector-curvature="0" />
      <path
         id="path867"
         style="fill:none;stroke:#ff0000;stroke-width:0.37795275;stroke-miterlimit:4;stroke-dasharray:none;stroke-opacity:1"
         d="M -22.677165,691.48347 V 805.20945"
         inkscape:connector-curvature="0" />
      <path
         id="path869"
         style="fill:none;stroke:#ff0000;stroke-width:0.37795275;stroke-miterlimit:4;stroke-dasharray:none;stroke-opacity:1"
         d="M -22.677165,805.20945 H 0"
         inkscape:connector-curvature="0" />
      <path
         id="path871"
         style="fill:none;stroke:#ff0000;stroke-width:0.37795275;stroke-miterlimit:4;stroke-dasharray:none;stroke-opacity:1"
         d="M 0,805.20945 V 918.25512"
         inkscape:connector-curvature="0" />
      <path
         id="path873"
         style="fill:none;stroke:#ff0000;stroke-width:0.37795275;stroke-miterlimit:4;stroke-dasharray:none;stroke-opacity:1"
         d="M -22.677165,918.25512 V 1031.9811"
         inkscape:connector-curvature="0" />
      <path
         id="path875"
         style="fill:none;stroke:#ff0000;stroke-width:0.37795275;stroke-miterlimit:4;stroke-dasharray:none;stroke-opacity:1"
         d="M -22.677165,1031.9811 H 0"
         inkscape:connector-curvature="0" />
      <path
         id="path877"
         style="fill:none;stroke:#ff0000;stroke-width:0.37795275;stroke-miterlimit:4;stroke-dasharray:none;stroke-opacity:1"
         d="M -22.677165,918.25512 H 0"
         inkscape:connector-curvature="0" />
      <path
         id="path885"
         style="fill:none;stroke:#ff0000;stroke-width:0.37795275;stroke-miterlimit:4;stroke-dasharray:none;stroke-opacity:1"
         d="m 719.65469,578.26772 v 22.67716"
         inkscape:connector-curvature="0" />
      <path
         id="path887"
         style="fill:none;stroke:#ff0000;stroke-width:0.37795275;stroke-miterlimit:4;stroke-dasharray:none;stroke-opacity:1"
         d="M 348.23364,600.94488 V 578.26772"
         inkscape:connector-curvature="0" />
      <path
         id="path889"
         style="fill:none;stroke:#ff0000;stroke-width:0.37795275;stroke-miterlimit:4;stroke-dasharray:none;stroke-opacity:1"
         d="M 472.26743,600.94488 H 595.6209"
         inkscape:connector-curvature="0" />
      <path
         id="path891"
         style="fill:none;stroke:#ff0000;stroke-width:0.37795275;stroke-miterlimit:4;stroke-dasharray:none;stroke-opacity:1"
         d="M 967.04192,1145.1969 H 843.00815"
         inkscape:connector-curvature="0" />
      <path
         id="path893"
         style="fill:none;stroke:#ff0000;stroke-width:0.37795275;stroke-miterlimit:4;stroke-dasharray:none;stroke-opacity:1"
         d="M 843.00816,600.94488 V 578.26772"
         inkscape:connector-curvature="0" />
      <path
         id="path897"
         style="fill:none;stroke:#ff0000;stroke-width:0.37795275;stroke-miterlimit:4;stroke-dasharray:none;stroke-opacity:1"
         d="M 100.84639,578.26772 H 224.88017"
         inkscape:connector-curvature="0" />
      <path
         id="path899"
         style="fill:none;stroke:#ff0000;stroke-width:0.37795275;stroke-miterlimit:4;stroke-dasharray:none;stroke-opacity:1"
         d="m 719.65467,1122.5197 v 22.6772"
         inkscape:connector-curvature="0" />
      <path
         id="path907"
         style="fill:none;stroke:#ff0000;stroke-width:0.37795275;stroke-miterlimit:4;stroke-dasharray:none;stroke-opacity:1"
         d="M 348.23364,578.26772 H 472.26743"
         inkscape:connector-curvature="0" />
      <path
         id="path909"
         style="fill:none;stroke:#ff0000;stroke-width:0.37795275;stroke-miterlimit:4;stroke-dasharray:none;stroke-opacity:1"
         d="m 100.84639,1145.1969 v -22.6772"
         inkscape:connector-curvature="0" />
      <path
         id="path911"
         style="fill:none;stroke:#ff0000;stroke-width:0.37795275;stroke-miterlimit:4;stroke-dasharray:none;stroke-opacity:1"
         d="M 719.65469,600.94488 H 843.00816"
         inkscape:connector-curvature="0" />
      <path
         id="path915"
         style="fill:none;stroke:#ff0000;stroke-width:0.37795275;stroke-miterlimit:4;stroke-dasharray:none;stroke-opacity:1"
         d="m 843.00815,1145.1969 v -22.6772"
         inkscape:connector-curvature="0" />
      <path
         id="path917"
         style="fill:none;stroke:#ff0000;stroke-width:0.37795275;stroke-miterlimit:4;stroke-dasharray:none;stroke-opacity:1"
         d="M 843.00815,1122.5197 H 719.65467"
         inkscape:connector-curvature="0" />
      <path
         id="path919"
         style="fill:none;stroke:#ff0000;stroke-width:0.37795275;stroke-miterlimit:4;stroke-dasharray:none;stroke-opacity:1"
         d="M 967.04195,600.94488 H 1090.3954"
         inkscape:connector-curvature="0" />
      <path
         id="path921"
         style="fill:none;stroke:#ff0000;stroke-width:0.37795275;stroke-miterlimit:4;stroke-dasharray:none;stroke-opacity:1"
         d="m 472.26743,578.26772 v 22.67716"
         inkscape:connector-curvature="0" />
      <path
         id="path923"
         style="fill:none;stroke:#ff0000;stroke-width:0.37795275;stroke-miterlimit:4;stroke-dasharray:none;stroke-opacity:1"
         d="M 224.88017,1145.1969 H 100.84639"
         inkscape:connector-curvature="0" />
      <path
         id="path925"
         style="fill:none;stroke:#ff0000;stroke-width:0.37795275;stroke-miterlimit:4;stroke-dasharray:none;stroke-opacity:1"
         d="m 472.26742,1122.5197 v 22.6772"
         inkscape:connector-curvature="0" />
      <path
         id="path927"
         style="fill:none;stroke:#ff0000;stroke-width:0.37795275;stroke-miterlimit:4;stroke-dasharray:none;stroke-opacity:1"
         d="M 595.6209,578.26772 H 719.65469"
         inkscape:connector-curvature="0" />
      <path
         id="path929"
         style="fill:none;stroke:#ff0000;stroke-width:0.37795275;stroke-miterlimit:4;stroke-dasharray:none;stroke-opacity:1"
         d="M 843.00816,578.26772 H 967.04195"
         inkscape:connector-curvature="0" />
      <path
         id="path933"
         style="fill:none;stroke:#ff0000;stroke-width:0.37795275;stroke-miterlimit:4;stroke-dasharray:none;stroke-opacity:1"
         d="M 595.62089,1122.5197 H 472.26742"
         inkscape:connector-curvature="0" />
      <path
         id="path935"
         style="fill:none;stroke:#ff0000;stroke-width:0.37795275;stroke-miterlimit:4;stroke-dasharray:none;stroke-opacity:1"
         d="M 472.26742,1145.1969 H 348.23364"
         inkscape:connector-curvature="0" />
      <path
         id="path937"
         style="fill:none;stroke:#ff0000;stroke-width:0.37795275;stroke-miterlimit:4;stroke-dasharray:none;stroke-opacity:1"
         d="m 1090.3954,1145.1969 v -22.6772"
         inkscape:connector-curvature="0" />
      <path
         id="path943"
         style="fill:none;stroke:#ff0000;stroke-width:0.37795275;stroke-miterlimit:4;stroke-dasharray:none;stroke-opacity:1"
         d="M 100.84639,1122.5197 H 0"
         inkscape:connector-curvature="0" />
      <path
         id="path953"
         style="fill:none;stroke:#ff0000;stroke-width:0.37795275;stroke-miterlimit:4;stroke-dasharray:none;stroke-opacity:1"
         d="M 595.6209,600.94488 V 578.26772"
         inkscape:connector-curvature="0" />
      <path
         id="path955"
         style="fill:none;stroke:#ff0000;stroke-width:0.37795275;stroke-miterlimit:4;stroke-dasharray:none;stroke-opacity:1"
         d="M 1214.4292,1145.1969 H 1090.3954"
         inkscape:connector-curvature="0" />
      <path
         id="path961"
         style="fill:none;stroke:#ff0000;stroke-width:0.37795275;stroke-miterlimit:4;stroke-dasharray:none;stroke-opacity:1"
         d="m 1214.4292,1122.5197 v 22.6772"
         inkscape:connector-curvature="0" />
      <path
         id="path963"
         style="fill:none;stroke:#ff0000;stroke-width:0.37795275;stroke-miterlimit:4;stroke-dasharray:none;stroke-opacity:1"
         d="m 224.88017,1122.5197 v 22.6772"
         inkscape:connector-curvature="0" />
      <path
         id="path965"
         style="fill:none;stroke:#ff0000;stroke-width:0.37795275;stroke-miterlimit:4;stroke-dasharray:none;stroke-opacity:1"
         d="M 1315.2756,600.94488 V 1122.5197"
         inkscape:connector-curvature="0" />
      <path
         id="path973"
         style="fill:none;stroke:#ff0000;stroke-width:0.37795275;stroke-miterlimit:4;stroke-dasharray:none;stroke-opacity:1"
         d="M 1315.2756,1122.5197 H 1214.4292"
         inkscape:connector-curvature="0" />
      <path
         id="path977"
         style="fill:none;stroke:#ff0000;stroke-width:0.37795275;stroke-miterlimit:4;stroke-dasharray:none;stroke-opacity:1"
         d="M 0,600.94488 H 100.84639"
         inkscape:connector-curvature="0" />
      <path
         id="path979"
         style="fill:none;stroke:#ff0000;stroke-width:0.37795275;stroke-miterlimit:4;stroke-dasharray:none;stroke-opacity:1"
         d="M 719.65467,1145.1969 H 595.62089"
         inkscape:connector-curvature="0" />
      <path
         id="path981"
         style="fill:none;stroke:#ff0000;stroke-width:0.37795275;stroke-miterlimit:4;stroke-dasharray:none;stroke-opacity:1"
         d="M 100.84639,600.94488 V 578.26772"
         inkscape:connector-curvature="0" />
      <path
         id="path983"
         style="fill:none;stroke:#ff0000;stroke-width:0.37795275;stroke-miterlimit:4;stroke-dasharray:none;stroke-opacity:1"
         d="m 348.23364,1145.1969 v -22.6772"
         inkscape:connector-curvature="0" />
      <path
         id="path985"
         style="fill:none;stroke:#ff0000;stroke-width:0.37795275;stroke-miterlimit:4;stroke-dasharray:none;stroke-opacity:1"
         d="m 595.62089,1145.1969 v -22.6772"
         inkscape:connector-curvature="0" />
      <path
         id="path987"
         style="fill:none;stroke:#ff0000;stroke-width:0.37795275;stroke-miterlimit:4;stroke-dasharray:none;stroke-opacity:1"
         d="m 967.04192,1122.5197 v 22.6772"
         inkscape:connector-curvature="0" />
      <path
         id="path989"
         style="fill:none;stroke:#ff0000;stroke-width:0.37795275;stroke-miterlimit:4;stroke-dasharray:none;stroke-opacity:1"
         d="M 224.88017,600.94488 H 348.23364"
         inkscape:connector-curvature="0" />
      <path
         id="path991"
         style="fill:none;stroke:#ff0000;stroke-width:0.37795275;stroke-miterlimit:4;stroke-dasharray:none;stroke-opacity:1"
         d="m 967.04195,578.26772 v 22.67716"
         inkscape:connector-curvature="0" />
      <path
         id="path993"
         style="fill:none;stroke:#ff0000;stroke-width:0.37795275;stroke-miterlimit:4;stroke-dasharray:none;stroke-opacity:1"
         d="M 348.23364,1122.5197 H 224.88017"
         inkscape:connector-curvature="0" />
      <path
         id="path995"
         style="fill:none;stroke:#ff0000;stroke-width:0.37795275;stroke-miterlimit:4;stroke-dasharray:none;stroke-opacity:1"
         d="m 224.88017,578.26772 v 22.67716"
         inkscape:connector-curvature="0" />
      <path
         id="path999"
         style="fill:none;stroke:#ff0000;stroke-width:0.37795275;stroke-miterlimit:4;stroke-dasharray:none;stroke-opacity:1"
         d="M 1090.3954,1122.5197 H 967.04192"
         inkscape:connector-curvature="0" />
      <path
         id="path1035"
         style="fill:none;stroke:#ff0000;stroke-width:0.37795275;stroke-miterlimit:4;stroke-dasharray:none;stroke-opacity:1"
         d="m 1214.4292,578.26772 v 22.67716"
         inkscape:connector-curvature="0" />
      <path
         id="path1059"
         style="fill:none;stroke:#ff0000;stroke-width:0.37795275;stroke-miterlimit:4;stroke-dasharray:none;stroke-opacity:1"
         d="m 1090.3954,578.26772 h 124.0338"
         inkscape:connector-curvature="0" />
      <path
         id="path1061"
         style="fill:none;stroke:#ff0000;stroke-width:0.37795275;stroke-miterlimit:4;stroke-dasharray:none;stroke-opacity:1"
         d="m 1214.4292,600.94488 h 100.8464"
         inkscape:connector-curvature="0" />
      <path
         id="path1063"
         style="fill:none;stroke:#ff0000;stroke-width:0.37795275;stroke-miterlimit:4;stroke-dasharray:none;stroke-opacity:1"
         d="M 1090.3954,600.94488 V 578.26772"
         inkscape:connector-curvature="0" />
      <path
         id="path1067"
         style="fill:none;stroke:#ff0000;stroke-width:0.37795275;stroke-miterlimit:4;stroke-dasharray:none;stroke-opacity:1"
         d="m 0,1031.9811 v 90.5386"
         inkscape:connector-curvature="0" />
      <path
         id="path1069"
         style="fill:none;stroke:#ff0000;stroke-width:0.37795275;stroke-miterlimit:4;stroke-dasharray:none;stroke-opacity:1"
         d="M 0,691.48347 V 600.94488"
         inkscape:connector-curvature="0" />
    </g>
    <g
       transform="matrix(0,0.26458333,-0.26458333,0,689.07443,235.4803)"
       id="g3044"
       inkscape:label="0">
      <path
         inkscape:connector-curvature="0"
         id="path3034"
         style="fill:none;stroke:#ff0000;stroke-width:0.37795275;stroke-miterlimit:4;stroke-dasharray:none;stroke-opacity:1"
         d="M 41.413014,1103.1923 V 659.85368 a 18.897638,18.897638 0 1 0 -37.795275,2e-5 v 443.3386 a 18.897638,18.897638 0 0 0 37.795275,0 z" />
      <path
         inkscape:connector-curvature="0"
         id="path3036"
         style="fill:none;stroke:#ff0000;stroke-width:0.37795275;stroke-miterlimit:4;stroke-dasharray:none;stroke-opacity:1"
         d="m 28.184668,770.0269 a 5.6692915,5.6692915 0 1 0 -11.338583,0 5.6692915,5.6692915 0 1 0 11.338583,0 z" />
      <path
         inkscape:connector-curvature="0"
         id="path3038"
         style="fill:none;stroke:#ff0000;stroke-width:0.37795275;stroke-miterlimit:4;stroke-dasharray:none;stroke-opacity:1"
         d="m 28.184668,1018.1529 a 5.6692915,5.6692915 0 1 0 -11.338583,0 5.6692915,5.6692915 0 1 0 11.338583,0 z" />
      <path
         inkscape:connector-curvature="0"
         id="path3040"
         style="fill:none;stroke:#ff0000;stroke-width:0.37795275;stroke-miterlimit:4;stroke-dasharray:none;stroke-opacity:1"
         d="m 24.40514,659.85367 a 1.889764,1.889764 0 1 0 -3.779527,0 1.889764,1.889764 0 1 0 3.779527,0 z" />
      <path
         inkscape:connector-curvature="0"
         id="path3042"
         style="fill:none;stroke:#ff0000;stroke-width:0.37795275;stroke-miterlimit:4;stroke-dasharray:none;stroke-opacity:1"
         d="m 24.40514,1103.1923 a 1.889764,1.889764 0 1 0 -3.779527,0 1.889764,1.889764 0 1 0 3.779527,0 z" />
    </g>
    <g
       transform="matrix(0,0.26458333,-0.26458333,0,688.69645,261.56067)"
       id="g3044-8"
       inkscape:label="0">
      <path
         inkscape:connector-curvature="0"
         id="path3034-7"
         style="fill:none;stroke:#ff0000;stroke-width:0.37795275;stroke-miterlimit:4;stroke-dasharray:none;stroke-opacity:1"
         d="M 41.413014,1103.1923 V 659.85368 a 18.897638,18.897638 0 1 0 -37.795275,2e-5 v 443.3386 a 18.897638,18.897638 0 0 0 37.795275,0 z" />
      <path
         inkscape:connector-curvature="0"
         id="path3036-3"
         style="fill:none;stroke:#ff0000;stroke-width:0.37795275;stroke-miterlimit:4;stroke-dasharray:none;stroke-opacity:1"
         d="m 28.184668,770.0269 a 5.6692915,5.6692915 0 1 0 -11.338583,0 5.6692915,5.6692915 0 1 0 11.338583,0 z" />
      <path
         inkscape:connector-curvature="0"
         id="path3038-9"
         style="fill:none;stroke:#ff0000;stroke-width:0.37795275;stroke-miterlimit:4;stroke-dasharray:none;stroke-opacity:1"
         d="m 28.184668,1018.1529 a 5.6692915,5.6692915 0 1 0 -11.338583,0 5.6692915,5.6692915 0 1 0 11.338583,0 z" />
      <path
         inkscape:connector-curvature="0"
         id="path3040-3"
         style="fill:none;stroke:#ff0000;stroke-width:0.37795275;stroke-miterlimit:4;stroke-dasharray:none;stroke-opacity:1"
         d="m 24.40514,659.85367 a 1.889764,1.889764 0 1 0 -3.779527,0 1.889764,1.889764 0 1 0 3.779527,0 z" />
      <path
         inkscape:connector-curvature="0"
         id="path3042-3"
         style="fill:none;stroke:#ff0000;stroke-width:0.37795275;stroke-miterlimit:4;stroke-dasharray:none;stroke-opacity:1"
         d="m 24.40514,1103.1923 a 1.889764,1.889764 0 1 0 -3.779527,0 1.889764,1.889764 0 1 0 3.779527,0 z" />
    </g>
  </g>
</svg>
