0
SECTION
2
HEADER
9
$INSUNITS
70
4
9
$ACADVER
1
AC1014
9
$HANDSEED
5
FFFF
0
ENDSEC
0
SECTION
2
TABLES
0
TABLE
2
VPORT
5
8
100
AcDbSymbolTable
0
ENDTAB
0
TABLE
2
LTYPE
5
5
100
AcDbSymbolTable
0
LTYPE
5
14
100
AcDbSymbolTableRecord
100
AcDbLinetypeTableRecord
2
BYBLOCK
70
0
0
LTYPE
5
15
100
AcDbSymbolTableRecord
100
AcDbLinetypeTableRecord
2
BYLAYER
70
0
0
ENDTAB
0
TABLE
2
LAYER
5
2
100
AcDbSymbolTable
70
2
0
LAYER
5
50
100
AcDbSymbolTableRecord
100
AcDbLayerTableRecord
2
0
70
0
6
CONTINUOUS
0
ENDTAB
0
TABLE
2
STYLE
5
3
100
AcDbSymbolTable
70
1
0
STYLE
5
11
100
AcDbSymbolTableRecord
100
AcDbTextStyleTableRecord
2
STANDARD
70
0
0
ENDTAB
0
TABLE
2
VIEW
5
6
100
AcDbSymbolTable
70
0
0
ENDTAB
0
TABLE
2
UCS
5
7
100
AcDbSymbolTable
70
0
0
ENDTAB
0
TABLE
2
APPID
5
9
100
AcDbSymbolTable
70
2
0
APPID
5
12
100
AcDbSymbolTableRecord
100
AcDbRegAppTableRecord
2
ACAD
70
0
0
ENDTAB
0
TABLE
2
DIMSTYLE
5
A
100
AcDbSymbolTable
70
1
0
ENDTAB
0
TABLE
2
BLOCK_RECORD
5
1
100
AcDbSymbolTable
70
1
0
BLOCK_RECORD
5
1F
100
AcDbSymbolTableRecord
100
AcDbBlockTableRecord
2
*MODEL_SPACE
0
BLOCK_RECORD
5
1B
100
AcDbSymbolTableRecord
100
AcDbBlockTableRecord
2
*PAPER_SPACE
0
ENDTAB
0
ENDSEC
0
SECTION
2
BLOCKS
0
BLOCK
5
20
100
AcDbEntity
100
AcDbBlockBegin
2
*MODEL_SPACE
0
ENDBLK
5
21
100
AcDbEntity
100
AcDbBlockEnd
0
BLOCK
5
1C
100
AcDbEntity
100
AcDbBlockBegin
2
*PAPER_SPACE
0
ENDBLK
5
1D
100
AcDbEntity
100
AcDbBlockEnd
0
ENDSEC
0
SECTION
2
ENTITIES
0
LWPOLYLINE
5
100
100
AcDbEntity
8
0
100
AcDbPolyline
90
10
70
1
43
0.0
10
215.00000000000003
20
0
10
9.9999999999999964
20
0
10
0
20
0
10
0
20
9.9999999999999645
10
-5.9879383993543192e-15
20
272.00000000000011
10
-6.6613381477509392e-15
20
276
10
9.9999999999999289
20
276
10
215.00000000000003
20
276
42
-0.41421356237309503
10
217.00000000000003
20
274
10
217.00000000000003
20
1.9999999999999996
42
-0.41421356237309503
0
LINE
5
101
100
AcDbEntity
8
0
100
AcDbLine
10
195.25000000000446
20
268.74999999999528
30
0
11
189.75000000000438
21
268.75000000000477
31
0
0
LINE
5
102
100
AcDbEntity
8
0
100
AcDbLine
10
189.75000000000438
20
268.75000000000477
30
0
11
189.74999999999565
21
263.2500000000046
31
0
0
LINE
5
103
100
AcDbEntity
8
0
100
AcDbLine
10
189.74999999999565
20
263.2500000000046
30
0
11
195.24999999999579
21
263.24999999999557
31
0
0
LINE
5
104
100
AcDbEntity
8
0
100
AcDbLine
10
195.24999999999579
20
263.24999999999557
30
0
11
195.25000000000446
21
268.74999999999528
31
0
0
LINE
5
105
100
AcDbEntity
8
0
100
AcDbLine
10
195.25000000000446
20
268.74999999999528
30
0
11
189.74999999999565
21
263.2500000000046
31
0
0
LINE
5
106
100
AcDbEntity
8
0
100
AcDbLine
10
189.75000000000438
20
268.75000000000477
30
0
11
195.24999999999579
21
263.24999999999557
31
0
0
LINE
5
107
100
AcDbEntity
8
0
100
AcDbLine
10
7.0000000000002052
20
78.000000000000014
30
0
11
7.0000000000002016
21
138
31
0
0
LINE
5
108
100
AcDbEntity
8
0
100
AcDbLine
10
7.0000000000002016
20
138
30
0
11
7.0000000000001981
21
198
31
0
0
LINE
5
109
100
AcDbEntity
8
0
100
AcDbLine
10
7.0000000000001981
20
198
30
0
11
7.0000000000001927
21
258
31
0
0
LINE
5
110
100
AcDbEntity
8
0
100
AcDbLine
10
7.0000000000001927
20
258
30
0
11
7.0000000000001776
21
276
31
0
0
LINE
5
111
100
AcDbEntity
8
0
100
AcDbLine
10
7.0000000000002052
20
78.000000000000014
30
0
11
7.0000000000002025
21
18.000000000000011
31
0
0
LINE
5
112
100
AcDbEntity
8
0
100
AcDbLine
10
7.0000000000002025
20
18.000000000000011
30
0
11
6.999999999998753
21
0
31
0
0
CIRCLE
5
113
100
AcDbEntity
8
0
100
AcDbCircle
<<<<<<< HEAD
10
7.0000000000001927
20
258
30
0
40
1.5500000000000003
0
CIRCLE
5
114
100
AcDbEntity
8
0
100
AcDbCircle
10
7.0000000000001981
20
198
30
0
40
1.5500000000000003
0
CIRCLE
5
115
100
AcDbEntity
8
0
100
AcDbCircle
10
7.0000000000002016
20
138
30
0
40
1.5500000000000003
0
CIRCLE
5
116
100
AcDbEntity
8
0
100
AcDbCircle
10
7.0000000000002052
20
78.000000000000014
30
0
40
1.5500000000000003
0
CIRCLE
5
117
100
AcDbEntity
8
0
100
AcDbCircle
10
7.0000000000002025
20
18.000000000000011
30
0
40
1.5500000000000003
0
LINE
5
118
100
AcDbEntity
8
0
100
AcDbLine
10
192.50000000000003
20
266
30
0
11
192.50000000000006
21
258
31
0
=======
10
7.0000000000001927
20
258
30
0
40
2.0000000000000009
>>>>>>> 81052dc1a5153e09b3e2e5b9c540531e721efc1d
0
CIRCLE
5
119
100
AcDbEntity
8
0
100
AcDbCircle
10
<<<<<<< HEAD
192.50000000000006
20
258
30
0
11
213.50000000000009
21
258.00000000000011
31
0
=======
7.0000000000001981
20
198
30
0
40
1.9999999999999996
>>>>>>> 81052dc1a5153e09b3e2e5b9c540531e721efc1d
0
CIRCLE
5
120
100
AcDbEntity
8
0
100
AcDbCircle
10
<<<<<<< HEAD
213.50000000000009
20
258.00000000000011
30
0
11
209.50000000000011
21
258.00000000000011
31
0
=======
7.0000000000002016
20
138
30
0
40
1.9999999999999964
>>>>>>> 81052dc1a5153e09b3e2e5b9c540531e721efc1d
0
CIRCLE
5
121
100
AcDbEntity
8
0
100
AcDbCircle
10
<<<<<<< HEAD
209.50000000000011
20
258.00000000000011
30
0
11
209.50000000000011
21
262.00000000000011
31
0
=======
7.0000000000002052
20
78.000000000000014
30
0
40
1.9999999999999996
>>>>>>> 81052dc1a5153e09b3e2e5b9c540531e721efc1d
0
CIRCLE
5
122
100
AcDbEntity
8
0
100
AcDbCircle
10
<<<<<<< HEAD
209.50000000000011
20
262.00000000000011
30
0
11
213.50000000000009
21
262.00000000000011
31
0
=======
7.0000000000002025
20
18.000000000000011
30
0
40
2
>>>>>>> 81052dc1a5153e09b3e2e5b9c540531e721efc1d
0
LINE
5
123
100
AcDbEntity
8
0
100
AcDbLine
10
<<<<<<< HEAD
213.50000000000009
20
262.00000000000011
30
0
11
213.50000000000009
21
258.00000000000011
=======
192.50000000000003
20
266
30
0
11
192.50000000000006
21
258
>>>>>>> 81052dc1a5153e09b3e2e5b9c540531e721efc1d
31
0
0
LINE
5
124
100
AcDbEntity
8
0
100
AcDbLine
10
<<<<<<< HEAD
7.0000000000001927
=======
192.50000000000006
>>>>>>> 81052dc1a5153e09b3e2e5b9c540531e721efc1d
20
258
30
0
11
<<<<<<< HEAD
-14.196942348140343
21
258
31
0
0
ELLIPSE
5
125
100
AcDbEntity
8
0
100
AcDbEllipse
10
-5.6679722253430181e-15
20
258
30
0
11
-9.1418906860371303e-17
21
4
=======
213.50000000000009
21
258.00000000000011
>>>>>>> 81052dc1a5153e09b3e2e5b9c540531e721efc1d
31
0.0
40
0.37500000000000006
41
0
42
6.2831853071795862
0
LINE
5
126
100
AcDbEntity
8
0
100
AcDbLine
10
<<<<<<< HEAD
-5.7396706821770134e-15
20
254.00000000000003
30
0
11
-5.75939113220339e-15
21
262
=======
213.50000000000009
20
258.00000000000011
30
0
11
209.50000000000011
21
258.00000000000011
>>>>>>> 81052dc1a5153e09b3e2e5b9c540531e721efc1d
31
0
0
LINE
5
127
100
AcDbEntity
8
0
100
AcDbLine
10
<<<<<<< HEAD
1.4999999999999947
=======
209.50000000000011
>>>>>>> 81052dc1a5153e09b3e2e5b9c540531e721efc1d
20
258.00000000000011
30
0
11
<<<<<<< HEAD
-1.5000000000000058
21
258
=======
209.50000000000011
21
262.00000000000011
>>>>>>> 81052dc1a5153e09b3e2e5b9c540531e721efc1d
31
0
0
ELLIPSE
5
128
100
AcDbEntity
8
0
100
AcDbEllipse
10
-5.6679722253430181e-15
20
198
30
0
11
-9.1418906860371303e-17
21
4
31
0.0
40
0.37500000000000006
41
0
42
6.2831853071795862
0
LINE
5
129
100
AcDbEntity
8
0
100
AcDbLine
10
<<<<<<< HEAD
-5.7602503383547497e-15
20
194.00000000000003
30
0
11
-5.75939113220339e-15
21
202
=======
209.50000000000011
20
262.00000000000011
30
0
11
213.50000000000009
21
262.00000000000011
>>>>>>> 81052dc1a5153e09b3e2e5b9c540531e721efc1d
31
0
0
LINE
5
130
100
AcDbEntity
8
0
100
AcDbLine
10
<<<<<<< HEAD
1.4999999999999947
20
198
30
0
11
-1.5000000000000058
21
198
31
0
0
ELLIPSE
5
131
100
AcDbEntity
8
0
100
AcDbEllipse
10
-5.6679722253430181e-15
20
138
30
0
11
-9.1418906860371303e-17
21
4
31
0.0
40
0.37500000000000006
41
0
42
6.2831853071795862
0
LINE
5
132
100
AcDbEntity
8
0
100
AcDbLine
10
-5.7602503383547497e-15
20
134.00000000000003
30
0
11
-5.75939113220339e-15
21
142
31
0
0
LINE
5
133
100
AcDbEntity
8
0
100
AcDbLine
10
1.4999999999999947
20
138
30
0
11
-1.5000000000000058
21
138
31
0
0
ELLIPSE
5
134
100
AcDbEntity
8
0
100
AcDbEllipse
10
-5.6679722253430181e-15
20
78
30
0
11
-9.1418906860371303e-17
21
4
31
0.0
40
0.37500000000000006
41
0
42
6.2831853071795862
0
LINE
5
135
100
AcDbEntity
8
0
100
AcDbLine
10
-5.7602503383547497e-15
20
74.000000000000028
30
0
11
-5.75939113220339e-15
21
82
31
0
0
LINE
5
136
100
AcDbEntity
8
0
100
AcDbLine
10
1.4999999999999947
20
78
30
0
11
-1.5000000000000058
21
78
31
0
0
ELLIPSE
5
137
100
AcDbEntity
8
0
100
AcDbEllipse
10
-5.6679722253430181e-15
20
18.000000000000007
30
0
11
-9.1418906860371303e-17
21
4
31
0.0
40
0.37500000000000006
41
0
42
6.2831853071795862
0
LINE
5
138
100
AcDbEntity
8
0
100
AcDbLine
10
-5.7602503383547497e-15
20
14.000000000000021
30
0
11
-5.75939113220339e-15
21
21.999999999999993
31
0
0
LINE
5
139
100
AcDbEntity
8
0
100
AcDbLine
10
1.4999999999999947
20
18.000000000000007
30
0
11
-1.5000000000000058
21
18.000000000000007
31
0
0
=======
213.50000000000009
20
262.00000000000011
30
0
11
213.50000000000009
21
258.00000000000011
31
0
0
>>>>>>> 81052dc1a5153e09b3e2e5b9c540531e721efc1d
ENDSEC
0
SECTION
2
OBJECTS
0
DICTIONARY
5
C
100
AcDbDictionary
3
ACAD_GROUP
350
D
3
ACAD_MLINESTYLE
350
17
0
DICTIONARY
5
D
100
AcDbDictionary
0
DICTIONARY
5
1A
330
C
100
AcDbDictionary
0
DICTIONARY
5
17
100
AcDbDictionary
0
ENDSEC
0
EOF
