0
SECTION
2
HEADER
9
$INSUNITS
70
4
9
$ACADVER
1
AC1014
9
$HANDSEED
5
FFFF
0
ENDSEC
0
SECTION
2
TABLES
0
TABLE
2
VPORT
5
8
100
AcDbSymbolTable
0
ENDTAB
0
TABLE
2
LTYPE
5
5
100
AcDbSymbolTable
0
LTYPE
5
14
100
AcDbSymbolTableRecord
100
AcDbLinetypeTableRecord
2
BYBLOCK
70
0
0
LTYPE
5
15
100
AcDbSymbolTableRecord
100
AcDbLinetypeTableRecord
2
BYLAYER
70
0
0
ENDTAB
0
TABLE
2
LAYER
5
2
100
AcDbSymbolTable
70
2
0
LAYER
5
50
100
AcDbSymbolTableRecord
100
AcDbLayerTableRecord
2
0
70
0
6
CONTINUOUS
0
ENDTAB
0
TABLE
2
STYLE
5
3
100
AcDbSymbolTable
70
1
0
STYLE
5
11
100
AcDbSymbolTableRecord
100
AcDbTextStyleTableRecord
2
STANDARD
70
0
0
ENDTAB
0
TABLE
2
VIEW
5
6
100
AcDbSymbolTable
70
0
0
ENDTAB
0
TABLE
2
UCS
5
7
100
AcDbSymbolTable
70
0
0
ENDTAB
0
TABLE
2
APPID
5
9
100
AcDbSymbolTable
70
2
0
APPID
5
12
100
AcDbSymbolTableRecord
100
AcDbRegAppTableRecord
2
ACAD
70
0
0
ENDTAB
0
TABLE
2
DIMSTYLE
5
A
100
AcDbSymbolTable
70
1
0
ENDTAB
0
TABLE
2
BLOCK_RECORD
5
1
100
AcDbSymbolTable
70
1
0
BLOCK_RECORD
5
1F
100
AcDbSymbolTableRecord
100
AcDbBlockTableRecord
2
*MODEL_SPACE
0
BLOCK_RECORD
5
1B
100
AcDbSymbolTableRecord
100
AcDbBlockTableRecord
2
*PAPER_SPACE
0
ENDTAB
0
ENDSEC
0
SECTION
2
BLOCKS
0
BLOCK
5
20
100
AcDbEntity
100
AcDbBlockBegin
2
*MODEL_SPACE
0
ENDBLK
5
21
100
AcDbEntity
100
AcDbBlockEnd
0
BLOCK
5
1C
100
AcDbEntity
100
AcDbBlockBegin
2
*PAPER_SPACE
0
ENDBLK
5
1D
100
AcDbEntity
100
AcDbBlockEnd
0
ENDSEC
0
SECTION
2
ENTITIES
0
LWPOLYLINE
5
100
100
AcDbEntity
8
0
100
AcDbPolyline
90
28
70
1
43
0.0
10
162.5
20
0
10
9.9999999999999964
20
0
10
0
20
0
10
-4.3715031594615539e-15
20
16.426653389203196
42
-0.21342176528337709
10
0.33333333333330162
20
17.172009381703099
42
0.44721359549993595
10
0.33333333333330128
20
24.62556930670236
42
-0.21342176528338347
10
-6.106226635438361e-15
20
25.37092529920227
10
-4.0245584642661925e-15
20
76.426653389203196
42
-0.21342176528338277
10
0.33333333333329884
20
77.172009381703091
42
0.44721359549993683
10
0.3333333333332919
20
84.625569306702374
42
-0.21342176528337231
10
-5.9674487573602164e-15
20
85.370925299202284
10
-3.5388358909926865e-15
20
136.42665338920318
42
-0.21342176528337325
10
0.33333333333329496
20
137.17200938170311
42
0.44721359549993672
10
0.33333333333329968
20
144.62556930670237
42
-0.21342176528337312
10
-6.106226635438361e-15
20
145.3709252992023
10
-1.9428902930940239e-15
20
196.42665338920321
42
-0.21342176528337511
10
0.33333333333329995
20
197.17200938170311
42
0.44721359549994061
10
0.33333333333323956
20
204.62556930670243
42
-0.21342176528338788
10
-8.3960616237277463e-14
20
205.37092529920233
10
-1.5265566588595902e-15
20
256.42665338920318
42
-0.21342176528337417
10
0.33333333333329829
20
257.17200938170311
42
0.44721359549993511
10
0.33333333333329801
20
264.62556930670235
42
-0.21342176528337592
10
-6.2450045135165055e-15
20
265.37092529920227
10
-1.3322676295501878e-14
20
282
10
9.9999999999999289
20
282
10
162.5
20
282
42
-0.41421356237309503
10
164.5
20
280.00000000000006
10
164.5
20
1.9999999999999996
42
-0.41421356237309503
0
LINE
5
101
100
AcDbEntity
8
0
100
AcDbLine
10
7.0000000000003126
20
80.898789344185232
30
0
11
7.000000000000199
21
140.89878934420278
31
0
0
LINE
5
102
100
AcDbEntity
8
0
100
AcDbLine
10
7.000000000000199
20
140.89878934420278
30
0
11
7.000000000000199
21
200.89878934420278
31
0
0
LINE
5
103
100
AcDbEntity
8
0
100
AcDbLine
10
7.000000000000199
20
200.89878934420278
30
0
11
7.0000000000002025
21
260.89878934420273
31
0
0
LINE
5
104
100
AcDbEntity
8
0
100
AcDbLine
10
7.0000000000002025
20
260.89878934420273
30
0
11
7.0000000000002052
21
281.52755500913634
31
0
0
LINE
5
105
100
AcDbEntity
8
0
100
AcDbLine
10
7.0000000000003126
20
80.898789344185232
30
0
11
7.0000000000002576
21
20.898789344167703
31
0
0
LINE
5
106
100
AcDbEntity
8
0
100
AcDbLine
10
7.0000000000002576
20
20.898789344167703
30
0
11
6.9999999999985985
21
0.27002367923408155
31
0
0
CIRCLE
5
107
100
AcDbEntity
8
0
100
AcDbCircle
10
7.0000000000002025
20
260.89878934420273
30
0
40
1.5500000000000003
0
CIRCLE
5
108
100
AcDbEntity
8
0
100
AcDbCircle
10
7.000000000000199
20
200.89878934420278
30
0
40
1.5500000000000003
0
CIRCLE
5
109
100
AcDbEntity
8
0
100
AcDbCircle
10
7.000000000000199
20
140.89878934420278
30
0
40
1.5500000000000003
0
CIRCLE
5
110
100
AcDbEntity
8
0
100
AcDbCircle
10
7.0000000000003126
20
80.898789344185232
30
0
40
1.5500000000000003
0
CIRCLE
5
111
100
AcDbEntity
8
0
100
AcDbCircle
10
7.0000000000002576
20
20.898789344167703
30
0
40
1.5500000000000003
0
LINE
5
112
100
AcDbEntity
8
0
100
AcDbLine
10
7.000000000000199
20
200.89878934420278
30
0
11
-7.1888924083175283
21
200.89878934420281
31
0
0
LINE
5
113
100
AcDbEntity
8
0
100
AcDbLine
10
7.0000000000002025
20
260.89878934420273
30
0
11
-3.6906354808958501
21
260.89878934420273
31
0
0
LINE
5
114
100
AcDbEntity
8
0
100
AcDbLine
10
157
20
268.00000000000011
30
0
11
161
21
268.00000000000011
31
0
0
LINE
5
115
100
AcDbEntity
8
0
100
AcDbLine
10
161
20
264.00000000000011
30
0
11
157
21
264.00000000000011
31
0
0
LINE
5
116
100
AcDbEntity
8
0
100
AcDbLine
10
161
20
268.00000000000011
30
0
11
161
21
264.00000000000011
31
0
0
LINE
5
117
100
AcDbEntity
8
0
100
AcDbLine
10
140.00000000000003
20
264
30
0
11
161
21
264.00000000000011
31
0
0
LINE
5
118
100
AcDbEntity
8
0
100
AcDbLine
10
157
20
264.00000000000011
30
0
11
157
21
268.00000000000011
31
0
0
LINE
5
119
100
AcDbEntity
8
0
100
AcDbLine
10
140
20
272
30
0
11
140.00000000000003
21
264
31
0
0
LWPOLYLINE
5
120
100
AcDbEntity
8
0
100
AcDbPolyline
90
6
70
1
43
0.0
10
142.74999999999588
20
269.24999999999505
10
137.24999999999423
20
269.25000000000369
10
137.25000000000446
20
274.7500000000046
10
142.75000000000455
20
274.74999999999511
10
142.74999999999588
20
269.24999999999505
10
137.25000000000446
20
274.7500000000046
0
ENDSEC
0
SECTION
2
OBJECTS
0
DICTIONARY
5
C
100
AcDbDictionary
3
ACAD_GROUP
350
D
3
ACAD_MLINESTYLE
350
17
0
DICTIONARY
5
D
100
AcDbDictionary
0
DICTIONARY
5
1A
330
C
100
AcDbDictionary
0
DICTIONARY
5
17
100
AcDbDictionary
0
ENDSEC
0
EOF
