<?xml version="1.0" encoding="utf-8"?>
<!-- Generator: Adobe Illustrator 19.1.1, SVG Export Plug-In . SVG Version: 6.00 Build 0)  -->
<svg version="1.1" id="_x30_" xmlns="http://www.w3.org/2000/svg" xmlns:xlink="http://www.w3.org/1999/xlink" x="0px" y="0px"
	 viewBox="0 0 595.3 841.9" style="enable-background:new 0 0 595.3 841.9;" xml:space="preserve">
<style type="text/css">
	.st0{fill:none;stroke:#000000;stroke-width:0.7087;stroke-linecap:round;stroke-linejoin:round;stroke-miterlimit:10;}
</style>
<g id="LWPOLYLINE">
	<polygon class="st0" points="-1165.6,831.9 -1250.6,831.9 -1250.6,891.4 -1222.3,891.4 -1222.3,976.5 -1250.6,976.5 
		-1250.6,1064.4 -1222.3,1064.4 -1222.3,1152.2 -1250.6,1152.2 -1250.6,1240.1 -1222.3,1240.1 -1222.3,1328 -1250.6,1328 
		-1250.6,1413 -1222.3,1413 -1222.3,1500.9 -1250.6,1500.9 -1250.6,1588.8 -1222.3,1588.8 -1222.3,1676.6 -1250.6,1676.6 
		-1250.6,1764.5 -1222.3,1764.5 -1222.3,1849.6 -1250.6,1849.6 -1250.6,1909.1 -1165.6,1909.1 -1077.7,1909.1 -992.7,1909.1 
		-904.8,1909.1 -819.8,1909.1 -731.9,1909.1 -646.9,1909.1 -559,1909.1 -473.9,1909.1 -388.9,1909.1 -301,1909.1 -216,1909.1 
		-128.1,1909.1 -43.1,1909.1 42,1909.1 129.8,1909.1 214.9,1909.1 302.8,1909.1 387.8,1909.1 475.7,1909.1 560.7,1909.1 
		648.6,1909.1 733.6,1909.1 733.6,1849.6 705.3,1849.6 705.3,1764.5 733.6,1764.5 733.6,1676.6 705.3,1676.6 705.3,1588.8 
		733.6,1588.8 733.6,1500.9 705.3,1500.9 705.3,1413 733.6,1413 733.6,1328 705.3,1328 705.3,1240.1 733.6,1240.1 733.6,1152.2 
		705.3,1152.2 705.3,1064.4 733.6,1064.4 733.6,976.5 705.3,976.5 705.3,891.4 733.6,891.4 733.6,831.9 648.6,831.9 648.6,803.6 
		560.7,803.6 560.7,831.9 475.7,831.9 475.7,803.6 387.8,803.6 387.8,831.9 302.8,831.9 302.8,803.6 214.9,803.6 214.9,831.9 
		129.8,831.9 129.8,803.6 42,803.6 42,831.9 -43.1,831.9 -43.1,803.6 -128.1,803.6 -128.1,831.9 -216,831.9 -216,803.6 -301,803.6 
		-301,831.9 -388.9,831.9 -388.9,803.6 -473.9,803.6 -473.9,831.9 -559,831.9 -559,803.6 -646.9,803.6 -646.9,831.9 -731.9,831.9 
		-731.9,803.6 -819.8,803.6 -819.8,831.9 -904.8,831.9 -904.8,803.6 -992.7,803.6 -992.7,831.9 -1077.7,831.9 -1077.7,803.6 
		-1165.6,803.6 	"/>
</g>
<g id="LWPOLYLINE_1_">
	<rect x="214.9" y="891.4" class="st0" width="28.3" height="85"/>
</g>
<g id="LWPOLYLINE_2_">
	<rect x="-272.7" y="891.4" class="st0" width="28.3" height="85"/>
</g>
<g id="LWPOLYLINE_3_">
	<rect x="-763.1" y="891.4" class="st0" width="28.3" height="85"/>
</g>
<g id="LWPOLYLINE_4_">
	<rect x="214.9" y="1064.4" class="st0" width="28.3" height="87.9"/>
</g>
<g id="LWPOLYLINE_5_">
	<rect x="-272.7" y="1064.4" class="st0" width="28.3" height="87.9"/>
</g>
<g id="LWPOLYLINE_6_">
	<rect x="-763.1" y="1064.4" class="st0" width="28.3" height="87.9"/>
</g>
<g id="LWPOLYLINE_7_">
	<rect x="214.9" y="1240.1" class="st0" width="28.3" height="87.9"/>
</g>
<g id="LWPOLYLINE_8_">
	<rect x="-272.7" y="1240.1" class="st0" width="28.3" height="87.9"/>
</g>
<g id="LWPOLYLINE_9_">
	<rect x="-763.1" y="1240.1" class="st0" width="28.3" height="87.9"/>
</g>
<g id="LWPOLYLINE_10_">
	<rect x="214.9" y="1413" class="st0" width="28.3" height="87.9"/>
</g>
<g id="LWPOLYLINE_11_">
	<rect x="-272.7" y="1413" class="st0" width="28.3" height="87.9"/>
</g>
<g id="LWPOLYLINE_12_">
	<rect x="-763.1" y="1413" class="st0" width="28.3" height="87.9"/>
</g>
<g id="LWPOLYLINE_13_">
	<rect x="214.9" y="1588.8" class="st0" width="28.3" height="87.9"/>
</g>
<g id="LWPOLYLINE_14_">
	<rect x="-272.7" y="1588.8" class="st0" width="28.3" height="87.9"/>
</g>
<g id="LWPOLYLINE_15_">
	<rect x="-763.1" y="1588.8" class="st0" width="28.3" height="87.9"/>
</g>
<g id="LWPOLYLINE_16_">
	<rect x="214.9" y="1764.5" class="st0" width="28.3" height="85"/>
</g>
<g id="LWPOLYLINE_17_">
	<rect x="-272.7" y="1764.5" class="st0" width="28.3" height="85"/>
</g>
<g id="LWPOLYLINE_18_">
	<rect x="-763.1" y="1764.5" class="st0" width="28.3" height="85"/>
</g>
<g id="LWPOLYLINE_19_">
	<polygon class="st0" points="-2325,94.9 -2384.5,94.9 -2384.5,168.6 -2384.5,267.8 -2384.5,369.9 -2384.5,471.9 -2384.5,574 
		-2384.5,673.2 -2384.5,746.9 -2325,746.9 -2325,775.2 -2237.1,775.2 -2237.1,746.9 -2152.1,746.9 -2152.1,775.2 -2064.2,775.2 
		-2064.2,746.9 -1976.3,746.9 -1976.3,775.2 -1888.4,775.2 -1888.4,746.9 -1803.4,746.9 -1803.4,775.2 -1715.5,775.2 -1715.5,746.9 
		-1627.6,746.9 -1627.6,775.2 -1539.8,775.2 -1539.8,746.9 -1454.7,746.9 -1454.7,775.2 -1366.9,775.2 -1366.9,746.9 -1307.3,746.9 
		-1307.3,673.2 -1279,673.2 -1279,574 -1307.3,574 -1307.3,471.9 -1279,471.9 -1279,369.9 -1307.3,369.9 -1307.3,267.8 -1279,267.8 
		-1279,168.6 -1307.3,168.6 -1307.3,94.9 -1366.9,94.9 -1366.9,66.6 -1454.7,66.6 -1454.7,94.9 -1539.8,94.9 -1539.8,66.6 
		-1627.6,66.6 -1627.6,94.9 -1715.5,94.9 -1715.5,66.6 -1803.4,66.6 -1803.4,94.9 -1888.4,94.9 -1888.4,66.6 -1976.3,66.6 
		-1976.3,94.9 -2064.2,94.9 -2064.2,66.6 -2152.1,66.6 -2152.1,94.9 -2237.1,94.9 -2237.1,66.6 -2325,66.6 	"/>
</g>
<g id="LWPOLYLINE_20_">
	<polygon class="st0" points="2953.1,160.1 2953.1,103.4 2879.4,103.4 2777.4,103.4 2678.2,103.4 2576.1,103.4 2474.1,103.4 
		2372,103.4 2301.2,103.4 2301.2,160.1 2272.8,160.1 2272.8,248 2301.2,248 2301.2,335.9 2272.8,335.9 2272.8,423.7 2301.2,423.7 
		2301.2,511.6 2272.8,511.6 2272.8,596.6 2301.2,596.6 2301.2,684.5 2272.8,684.5 2272.8,772.4 2301.2,772.4 2301.2,860.3 
		2272.8,860.3 2272.8,945.3 2301.2,945.3 2301.2,1033.2 2272.8,1033.2 2272.8,1121 2301.2,1121 2301.2,1180.6 2372,1180.6 
		2474.1,1180.6 2576.1,1180.6 2678.2,1180.6 2777.4,1180.6 2879.4,1180.6 2953.1,1180.6 2953.1,1121 2981.5,1121 2981.5,1033.2 
		2953.1,1033.2 2953.1,945.3 2981.5,945.3 2981.5,860.3 2953.1,860.3 2953.1,772.4 2981.5,772.4 2981.5,684.5 2953.1,684.5 
		2953.1,596.6 2981.5,596.6 2981.5,511.6 2953.1,511.6 2953.1,423.7 2981.5,423.7 2981.5,335.9 2953.1,335.9 2953.1,248 2981.5,248 
		2981.5,160.1 	"/>
</g>
<g id="LWPOLYLINE_21_">
	<polygon class="st0" points="-1165.6,66.6 -1250.6,66.6 -1250.6,168.6 -1222.3,168.6 -1222.3,267.8 -1250.6,267.8 -1250.6,369.9 
		-1222.3,369.9 -1222.3,471.9 -1250.6,471.9 -1250.6,574 -1222.3,574 -1222.3,673.2 -1250.6,673.2 -1250.6,775.2 -1165.6,775.2 
		-1165.6,746.9 -1077.7,746.9 -1077.7,775.2 -992.7,775.2 -992.7,746.9 -904.8,746.9 -904.8,775.2 -819.8,775.2 -819.8,746.9 
		-731.9,746.9 -731.9,775.2 -646.9,775.2 -646.9,746.9 -561.8,746.9 -561.8,775.2 -473.9,775.2 -473.9,746.9 -388.9,746.9 
		-388.9,775.2 -301,775.2 -301,746.9 -216,746.9 -216,775.2 -128.1,775.2 -128.1,746.9 -43.1,746.9 -43.1,775.2 44.8,775.2 
		44.8,746.9 129.8,746.9 129.8,775.2 214.9,775.2 214.9,746.9 302.8,746.9 302.8,775.2 387.8,775.2 387.8,746.9 475.7,746.9 
		475.7,775.2 560.7,775.2 560.7,746.9 648.6,746.9 648.6,775.2 733.6,775.2 733.6,673.2 705.3,673.2 705.3,574 733.6,574 
		733.6,471.9 705.3,471.9 705.3,369.9 733.6,369.9 733.6,267.8 705.3,267.8 705.3,168.6 733.6,168.6 733.6,66.6 648.6,66.6 
		648.6,94.9 560.7,94.9 560.7,66.6 475.7,66.6 475.7,94.9 387.8,94.9 387.8,66.6 302.8,66.6 302.8,94.9 214.9,94.9 214.9,66.6 
		129.8,66.6 129.8,94.9 44.8,94.9 44.8,66.6 -43.1,66.6 -43.1,94.9 -128.1,94.9 -128.1,66.6 -216,66.6 -216,94.9 -301,94.9 
		-301,66.6 -388.9,66.6 -388.9,94.9 -473.9,94.9 -473.9,66.6 -561.8,66.6 -561.8,94.9 -646.9,94.9 -646.9,66.6 -731.9,66.6 
		-731.9,94.9 -819.8,94.9 -819.8,66.6 -904.8,66.6 -904.8,94.9 -992.7,94.9 -992.7,66.6 -1077.7,66.6 -1077.7,94.9 -1165.6,94.9 	
		"/>
</g>
<g id="LWPOLYLINE_22_">
	<polygon class="st0" points="849.8,94.9 790.3,94.9 790.3,168.6 762,168.6 762,267.8 790.3,267.8 790.3,369.9 762,369.9 762,471.9 
		790.3,471.9 790.3,574 762,574 762,673.2 790.3,673.2 790.3,746.9 849.8,746.9 849.8,775.2 937.7,775.2 937.7,746.9 1022.8,746.9 
		1022.8,775.2 1110.6,775.2 1110.6,746.9 1198.5,746.9 1198.5,775.2 1286.4,775.2 1286.4,746.9 1371.4,746.9 1371.4,775.2 
		1459.3,775.2 1459.3,746.9 1547.2,746.9 1547.2,775.2 1635,775.2 1635,746.9 1720.1,746.9 1720.1,775.2 1807.9,775.2 1807.9,746.9 
		1867.5,746.9 1867.5,673.2 1867.5,574 1867.5,471.9 1867.5,369.9 1867.5,267.8 1867.5,168.6 1867.5,94.9 1807.9,94.9 1807.9,66.6 
		1720.1,66.6 1720.1,94.9 1635,94.9 1635,66.6 1547.2,66.6 1547.2,94.9 1459.3,94.9 1459.3,66.6 1371.4,66.6 1371.4,94.9 
		1286.4,94.9 1286.4,66.6 1198.5,66.6 1198.5,94.9 1110.6,94.9 1110.6,66.6 1022.8,66.6 1022.8,94.9 937.7,94.9 937.7,66.6 
		849.8,66.6 	"/>
</g>
<g id="LWPOLYLINE_23_">
	<polygon class="st0" points="-1165.6,-1067.3 -1250.6,-1067.3 -1250.6,-1007.8 -1222.3,-1007.8 -1222.3,-922.7 -1250.6,-922.7 
		-1250.6,-834.9 -1222.3,-834.9 -1222.3,-747 -1250.6,-747 -1250.6,-659.1 -1222.3,-659.1 -1222.3,-571.2 -1250.6,-571.2 
		-1250.6,-486.2 -1222.3,-486.2 -1222.3,-398.3 -1250.6,-398.3 -1250.6,-310.4 -1222.3,-310.4 -1222.3,-222.6 -1250.6,-222.6 
		-1250.6,-134.7 -1222.3,-134.7 -1222.3,-49.7 -1250.6,-49.7 -1250.6,9.9 -1165.6,9.9 -1165.6,38.2 -1077.7,38.2 -1077.7,9.9 
		-992.7,9.9 -992.7,38.2 -904.8,38.2 -904.8,9.9 -819.8,9.9 -819.8,38.2 -731.9,38.2 -731.9,9.9 -646.9,9.9 -646.9,38.2 -559,38.2 
		-559,9.9 -473.9,9.9 -473.9,38.2 -388.9,38.2 -388.9,9.9 -301,9.9 -301,38.2 -216,38.2 -216,9.9 -128.1,9.9 -128.1,38.2 
		-43.1,38.2 -43.1,9.9 42,9.9 42,38.2 129.8,38.2 129.8,9.9 214.9,9.9 214.9,38.2 302.8,38.2 302.8,9.9 387.8,9.9 387.8,38.2 
		475.7,38.2 475.7,9.9 560.7,9.9 560.7,38.2 648.6,38.2 648.6,9.9 733.6,9.9 733.6,-49.7 705.3,-49.7 705.3,-134.7 733.6,-134.7 
		733.6,-222.6 705.3,-222.6 705.3,-310.4 733.6,-310.4 733.6,-398.3 705.3,-398.3 705.3,-486.2 733.6,-486.2 733.6,-571.2 
		705.3,-571.2 705.3,-659.1 733.6,-659.1 733.6,-747 705.3,-747 705.3,-834.9 733.6,-834.9 733.6,-922.7 705.3,-922.7 
		705.3,-1007.8 733.6,-1007.8 733.6,-1067.3 648.6,-1067.3 560.7,-1067.3 475.7,-1067.3 387.8,-1067.3 302.8,-1067.3 214.9,-1067.3 
		129.8,-1067.3 42,-1067.3 -43.1,-1067.3 -128.1,-1067.3 -216,-1067.3 -301,-1067.3 -388.9,-1067.3 -473.9,-1067.3 -559,-1067.3 
		-646.9,-1067.3 -731.9,-1067.3 -819.8,-1067.3 -904.8,-1067.3 -992.7,-1067.3 -1077.7,-1067.3 	"/>
</g>
<g id="LWPOLYLINE_24_">
	<rect x="214.9" y="-1007.8" class="st0" width="28.3" height="85"/>
</g>
<g id="LWPOLYLINE_25_">
	<rect x="-272.7" y="-1007.8" class="st0" width="28.3" height="85"/>
</g>
<g id="LWPOLYLINE_26_">
	<rect x="-763.1" y="-1007.8" class="st0" width="28.3" height="85"/>
</g>
<g id="LWPOLYLINE_27_">
	<rect x="214.9" y="-834.9" class="st0" width="28.3" height="87.9"/>
</g>
<g id="LWPOLYLINE_28_">
	<rect x="-272.7" y="-834.9" class="st0" width="28.3" height="87.9"/>
</g>
<g id="LWPOLYLINE_29_">
	<rect x="-763.1" y="-834.9" class="st0" width="28.3" height="87.9"/>
</g>
<g id="LWPOLYLINE_30_">
	<rect x="214.9" y="-659.1" class="st0" width="28.3" height="87.9"/>
</g>
<g id="LWPOLYLINE_31_">
	<rect x="-272.7" y="-659.1" class="st0" width="28.3" height="87.9"/>
</g>
<g id="LWPOLYLINE_32_">
	<rect x="-763.1" y="-659.1" class="st0" width="28.3" height="87.9"/>
</g>
<g id="LWPOLYLINE_33_">
	<rect x="214.9" y="-486.2" class="st0" width="28.3" height="87.9"/>
</g>
<g id="LWPOLYLINE_34_">
	<rect x="-272.7" y="-486.2" class="st0" width="28.3" height="87.9"/>
</g>
<g id="LWPOLYLINE_35_">
	<rect x="-763.1" y="-486.2" class="st0" width="28.3" height="87.9"/>
</g>
<g id="LWPOLYLINE_36_">
	<rect x="214.9" y="-310.4" class="st0" width="28.3" height="87.9"/>
</g>
<g id="LWPOLYLINE_37_">
	<rect x="-272.7" y="-310.4" class="st0" width="28.3" height="87.9"/>
</g>
<g id="LWPOLYLINE_38_">
	<rect x="-763.1" y="-310.4" class="st0" width="28.3" height="87.9"/>
</g>
<g id="LWPOLYLINE_39_">
	<rect x="214.9" y="-134.7" class="st0" width="28.3" height="85"/>
</g>
<g id="LWPOLYLINE_40_">
	<rect x="-272.7" y="-134.7" class="st0" width="28.3" height="85"/>
</g>
<g id="LWPOLYLINE_41_">
	<rect x="-763.1" y="-134.7" class="st0" width="28.3" height="85"/>
</g>
<g id="LWPOLYLINE_42_">
	<rect x="2941.8" y="103.4" class="st0" width="8.5" height="841.9"/>
</g>
<g id="CIRCLE">
	<line class="st0" x1="2853.9" y1="1044.5" x2="2853.9" y2="1044.5"/>
</g>
<g id="CIRCLE_1_">
	<line class="st0" x1="2853.9" y1="1138.1" x2="2853.9" y2="1138.1"/>
</g>
<g id="CIRCLE_2_">
	<line class="st0" x1="2768.9" y1="1138.1" x2="2768.9" y2="1138.1"/>
</g>
<g id="CIRCLE_3_">
	<line class="st0" x1="2768.9" y1="1044.5" x2="2768.9" y2="1044.5"/>
</g>
<g id="LWPOLYLINE_43_">
	<rect x="-771.6" y="123.3" class="st0" width="5.7" height="5.7"/>
</g>
<g id="LWPOLYLINE_44_">
	<rect x="-281.2" y="109.1" class="st0" width="5.7" height="5.7"/>
</g>
<g id="LWPOLYLINE_45_">
	<rect x="206.4" y="109.1" class="st0" width="5.7" height="5.7"/>
</g>
<g id="LWPOLYLINE_46_">
	<rect x="696.8" y="109.1" class="st0" width="5.7" height="5.7"/>
</g>
<rect x="1867.5" y="94.9" class="st0" width="13.5" height="651.6"/>
</svg>
