<?xml version="1.0" encoding="UTF-8" standalone="no"?>
<svg
   xmlns:dc="http://purl.org/dc/elements/1.1/"
   xmlns:cc="http://creativecommons.org/ns#"
   xmlns:rdf="http://www.w3.org/1999/02/22-rdf-syntax-ns#"
   xmlns:svg="http://www.w3.org/2000/svg"
   xmlns="http://www.w3.org/2000/svg"
   xmlns:sodipodi="http://sodipodi.sourceforge.net/DTD/sodipodi-0.dtd"
   xmlns:inkscape="http://www.inkscape.org/namespaces/inkscape"
   width="700.4646mm"
   height="1028.4646mm"
   version="1.1"
   id="svg1201"
   sodipodi:docname="GMO_C1H30E6.svg"
   inkscape:version="0.92.2 (5c3e80d, 2017-08-06)">
  <metadata
     id="metadata1205">
    <rdf:RDF>
      <cc:Work
         rdf:about="">
        <dc:format>image/svg+xml</dc:format>
        <dc:type
           rdf:resource="http://purl.org/dc/dcmitype/StillImage" />
        <dc:title></dc:title>
      </cc:Work>
    </rdf:RDF>
  </metadata>
  <sodipodi:namedview
     pagecolor="#ffffff"
     bordercolor="#666666"
     borderopacity="1"
     objecttolerance="10"
     gridtolerance="10"
     guidetolerance="10"
     inkscape:pageopacity="0"
     inkscape:pageshadow="2"
     inkscape:window-width="1920"
     inkscape:window-height="1017"
     id="namedview1203"
     showgrid="false"
     units="mm"
     inkscape:document-units="mm"
     fit-margin-top="0.1"
     fit-margin-left="0.1"
     fit-margin-right="0.1"
     fit-margin-bottom="0.1"
     inkscape:zoom="0.37861252"
     inkscape:cx="1371.4971"
     inkscape:cy="3186.8023"
     inkscape:window-x="-8"
     inkscape:window-y="-8"
     inkscape:window-maximized="1"
     inkscape:current-layer="g1199" />
  <desc
     id="desc815">C:\Users\pierre-emmanuel\Documents\ESEO\Scolaire\I3\PFE\GMO\project_gmo\Méca\Armoire\Ligne H30\GMO_C1H30E6.dxf - scale = 1.000000, origin = (0.000000, 0.000000), method = manual</desc>
  <defs
     id="defs829">
    <marker
       id="DistanceX"
       orient="auto"
       refX="0"
       refY="0"
       style="overflow:visible">
      <path
         d="M 3,-3 -3,3 M 0,-5 V 5"
         style="stroke:#000000;stroke-width:0.5"
         id="path817"
         inkscape:connector-curvature="0" />
    </marker>
    <pattern
       height="8"
       id="Hatch"
       patternUnits="userSpaceOnUse"
       width="8"
       x="0"
       y="0">
      <path
         d="M8 4 l-4,4"
         linecap="square"
         stroke="#000000"
         stroke-width="0.25"
         id="path820" />
      <path
         d="M6 2 l-4,4"
         linecap="square"
         stroke="#000000"
         stroke-width="0.25"
         id="path822" />
      <path
         d="M4 0 l-4,4"
         linecap="square"
         stroke="#000000"
         stroke-width="0.25"
         id="path824" />
    </pattern>
    <symbol
       id="*MODEL_SPACE" />
    <symbol
       id="*PAPER_SPACE" />
  </defs>
  <g
     inkscape:groupmode="layer"
     inkscape:label="0"
     id="g1199"
     transform="translate(-1435.3425,-59.594488)">
    <path
       d="m 1436.2205,285.01245 v 124.03379 h 22.6771 v 123.35347 h -22.6771 V 656.4335 h 22.6771 v 123.35347 h -22.6771 v 124.03379 h 22.6771 v 123.35344 h -22.6771 v 124.0338 h 22.6771 v 123.3535 h -22.6771 v 101.1865 h 114.859 v 22.6772 h 115.3693 v -22.6772 h 114.6889 v 22.6772 h 115.3692 v -22.6772 h 114.689 v 22.6772 h 115.3693 v -22.6772 h 114.6889 v 22.6772 h 115.3692 v -22.6772 h 114.689 v 22.6772 h 115.3692 v -22.6772 h 114.689 v 22.6772 h 115.3692 v -22.6772 h 114.689 v 22.6772 h 115.3692 v -22.6772 h 114.689 v 22.6772 h 115.3692 v -22.6772 h 114.689 v 22.6772 h 115.3692 v -22.6772 h 114.689 v 22.6772 h 115.3692 v -22.6772 h 114.689 v 22.6772 h 115.3692 v -22.6772 h 114.8591 v -101.1865 h -22.6772 V 1151.208 h 22.6772 v -124.0338 h -22.6772 V 903.82076 h 22.6772 V 779.78697 h -22.6772 V 656.4335 h 22.6772 V 532.39971 h -22.6772 V 409.04624 h 22.6772 V 285.01245 h -22.6772 V 161.65898 h 22.6772 V 60.472441 h -114.8591 -115.3692 -114.689 -115.3692 -114.689 -115.3692 -114.689 -115.3692 -114.689 -115.3692 -114.689 -115.3692 -114.689 -115.3692 -114.689 -115.3692 -114.6889 -115.3693 -114.689 -115.3692 -114.6889 -115.3693 -114.859 V 161.65898 h 22.6771 v 123.35347 z"
       style="fill:none;stroke:#ff0000;stroke-opacity:1;stroke-width:0.37795276;stroke-miterlimit:4;stroke-dasharray:none"
       id="path965"
       inkscape:connector-curvature="0" />
    <path
       d="m 2241.2541,2630.5512 h -114.6889 v -22.6772 h -115.3693 v 22.6772 h -114.689 v -22.6772 h -115.3692 v 22.6772 h -114.6889 v -22.6772 h -115.3693 v 22.6772 h -114.859 v 101.1865 h 22.6771 v 123.3535 h -22.6771 v 124.0338 h 22.6771 v 123.3535 h -22.6771 v 124.0337 h 22.6771 v 123.3535 h -22.6771 v 124.0338 h 22.6771 v 123.3535 h -22.6771 v 124.0338 h 22.6771 v 123.3534 h -22.6771 v 101.1866 h 114.859 115.3693 114.6889 115.3692 114.689 115.3693 114.6889 115.3692 114.689 115.3692 114.689 115.3692 114.689 115.3692 114.689 115.3692 114.689 115.3692 114.689 115.3692 114.689 115.3692 114.8591 v -101.1866 h -22.6772 v -123.3534 h 22.6772 V 3597.253 h -22.6772 v -123.3535 h 22.6772 v -124.0338 h -22.6772 v -123.3535 h 22.6772 v -124.0337 h -22.6772 V 2979.125 h 22.6772 v -124.0338 h -22.6772 v -123.3535 h 22.6772 v -101.1865 h -114.8591 v -22.6772 h -115.3692 v 22.6772 h -114.689 v -22.6772 h -115.3692 v 22.6772 h -114.689 v -22.6772 h -115.3692 v 22.6772 h -114.689 v -22.6772 h -115.3692 v 22.6772 h -114.689 v -22.6772 h -115.3692 v 22.6772 h -114.689 v -22.6772 h -115.3692 v 22.6772 h -114.689 v -22.6772 h -115.3692 v 22.6772 h -114.689 v -22.6772 h -115.3692 z"
       style="fill:none;stroke:#ff0000;stroke-opacity:1;stroke-width:0.37795276;stroke-miterlimit:4;stroke-dasharray:none"
       id="path1133"
       inkscape:connector-curvature="0" />
    <path
       d="m 3161.827,1458.8976 v -22.6771 h -115.3692 v 22.6771 h -114.689 v -22.6771 h -115.3692 v 22.6771 h -114.689 v -22.6771 h -115.3692 v 22.6771 h -114.689 v -22.6771 h -115.3692 v 22.6771 h -114.689 v -22.6771 H 2126.225 v 22.6771 h -114.689 v -22.6771 h -115.3692 v 22.6771 h -114.6889 v -22.6771 h -115.3693 v 22.6771 h -114.6889 v -22.6771 h -115.1992 v 126.1543 h 22.6771 v 125.6441 h -22.6771 v 126.3244 h 22.6771 v 125.6441 h -22.6771 v 126.3244 h 22.6771 v 125.6441 h -22.6771 v 126.3244 h 22.6771 v 125.6441 h -22.6771 v 126.1543 h 115.1992 v -22.6771 h 114.6889 v 22.6771 h 115.3693 v -22.6771 h 114.6889 v 22.6771 h 115.3692 v -22.6771 h 114.689 v 22.6771 h 115.3692 v -22.6771 h 114.689 v 22.6771 h 115.3692 v -22.6771 h 114.689 v 22.6771 h 115.3692 v -22.6771 h 114.689 v 22.6771 h 115.3692 v -22.6771 h 114.689 v 22.6771 h 115.3692 v -22.6771 h 114.689 v 22.6771 h 115.3692 v -22.6771 h 114.689 v 22.6771 h 115.3692 v -22.6771 h 114.689 v 22.6771 h 115.3692 v -22.6771 h 114.689 v 22.6771 h 115.1992 v -126.1543 h -22.6772 v -125.6441 h 22.6772 v -126.3244 h -22.6772 v -125.6441 h 22.6772 v -126.3244 h -22.6772 v -125.6441 h 22.6772 v -126.3244 h -22.6772 v -125.6441 h 22.6772 v -126.1543 h -115.1992 v 22.6771 h -114.689 v -22.6771 h -115.3692 v 22.6771 h -114.689 v -22.6771 h -115.3692 v 22.6771 h -114.689 v -22.6771 H 3276.516 v 22.6771 z"
       style="fill:none;stroke:#ff0000;stroke-opacity:1;stroke-width:0.37795276;stroke-miterlimit:4;stroke-dasharray:none"
       id="path1135"
       inkscape:connector-curvature="0" />
    <path
       d="m 4047.874,1478.1354 h 15.1181 v 22.6772 h -15.1181 z"
       style="fill:none;stroke:#ff0000;stroke-opacity:1;stroke-width:0.37795276;stroke-miterlimit:4;stroke-dasharray:none"
       id="path1197"
       inkscape:connector-curvature="0" />
  </g>
</svg>
