<?xml version="1.0" encoding="UTF-8" standalone="no"?>
<!-- Created with Inkscape (http://www.inkscape.org/) -->

<svg
   xmlns:dc="http://purl.org/dc/elements/1.1/"
   xmlns:cc="http://creativecommons.org/ns#"
   xmlns:rdf="http://www.w3.org/1999/02/22-rdf-syntax-ns#"
   xmlns:svg="http://www.w3.org/2000/svg"
   xmlns="http://www.w3.org/2000/svg"
   xmlns:sodipodi="http://sodipodi.sourceforge.net/DTD/sodipodi-0.dtd"
   xmlns:inkscape="http://www.inkscape.org/namespaces/inkscape"
   width="710mm"
   height="420mm"
   viewBox="0 0 710 420"
   version="1.1"
   id="svg1046"
   inkscape:version="0.92.2 (5c3e80d, 2017-08-06)"
   sodipodi:docname="GMO_C4H30E6_back_x1.svg">
  <defs
     id="defs1040" />
  <sodipodi:namedview
     id="base"
     pagecolor="#ffffff"
     bordercolor="#666666"
     borderopacity="1.0"
     inkscape:pageopacity="0.0"
     inkscape:pageshadow="2"
     inkscape:zoom="0.24748737"
     inkscape:cx="1219.8085"
     inkscape:cy="1521.6516"
     inkscape:document-units="mm"
     inkscape:current-layer="layer1"
     showgrid="false"
     inkscape:window-width="1920"
     inkscape:window-height="1017"
     inkscape:window-x="-8"
     inkscape:window-y="-8"
     inkscape:window-maximized="1" />
  <metadata
     id="metadata1043">
    <rdf:RDF>
      <cc:Work
         rdf:about="">
        <dc:format>image/svg+xml</dc:format>
        <dc:type
           rdf:resource="http://purl.org/dc/dcmitype/StillImage" />
        <dc:title />
      </cc:Work>
    </rdf:RDF>
  </metadata>
  <g
     inkscape:label="Calque 1"
     inkscape:groupmode="layer"
     id="layer1"
     transform="translate(0,123)">
    <g
       transform="matrix(0.26458333,0,0,0.26458333,4.9177081,304.08232)"
       id="g878">
      <path
         inkscape:connector-curvature="0"
         id="path831"
         style="fill:none;stroke:#ff0000;stroke-width:0.37795275;stroke-miterlimit:4;stroke-dasharray:none;stroke-opacity:1"
         d="m 1960.185,-1346.0119 h 15.1181 v 22.6772 h -15.1181 z" />
      <path
         inkscape:connector-curvature="0"
         id="path837"
         style="fill:none;stroke:#ff0000;stroke-width:0.37795275;stroke-miterlimit:4;stroke-dasharray:none;stroke-opacity:1"
         d="m 648.6889,-1346.0119 h 15.1182 v 22.6772 h -15.1182 z" />
      <path
         inkscape:connector-curvature="0"
         id="path843"
         style="fill:none;stroke:#ff0000;stroke-width:0.37795275;stroke-miterlimit:4;stroke-dasharray:none;stroke-opacity:1"
         d="m 1319.5551,-1323.3347 h -15.1181 v -22.6772 h 15.1181 z" />
      <path
         inkscape:connector-curvature="0"
         id="path845"
         style="fill:none;stroke:#ff0000;stroke-width:0.37795275;stroke-miterlimit:4;stroke-dasharray:none;stroke-opacity:1"
         d="m 2612.1535,-1346.0119 v 22.6772 h 15.1181 v -22.6772 z" />
      <path
         inkscape:connector-curvature="0"
         id="path857"
         style="fill:none;stroke:#ff0000;stroke-width:0.37795275;stroke-miterlimit:4;stroke-dasharray:none;stroke-opacity:1"
         d="m 1265.9901,-1364.9095 h 114.689 v -22.6771 h 115.3692 v 22.6771 h 114.689 v -22.6771 h 115.3692 v 22.6771 h 114.689 v -22.6771 h 115.3692 v 22.6771 h 114.689 v -22.6771 h 115.3692 v 22.6771 h 114.689 v -22.6771 h 115.3692 v 22.6771 h 114.689 v -22.6771 h 115.1992 v 126.1542 h -22.6772 v 125.6442 h 22.6772 v 126.3244 h -22.6772 v 125.64405 h 22.6772 v 126.3244 h -22.6772 v 125.6441 h 22.6772 v 126.3244 h -22.6772 v 125.6441 h 22.6772 v 126.1543 h -115.1992 v -22.6771 h -114.689 v 22.6771 h -115.3692 v -22.6771 h -114.689 v 22.6771 h -115.3692 v -22.6771 h -114.689 v 22.6771 h -115.3692 v -22.6771 h -114.689 v 22.6771 h -115.3692 v -22.6771 h -114.689 v 22.6771 h -115.3692 v -22.6771 h -114.689 v 22.6771 h -115.3692 v -22.6771 h -114.689 v 22.6771 H 920.5627 v -22.6771 h -114.689 v 22.6771 H 690.5045 v -22.6771 h -114.689 v 22.6771 H 460.4463 v -22.6771 H 345.7574 v 22.6771 H 230.3881 v -22.6771 H 115.6992 v 22.6771 H 0.500001 v -126.1543 h 22.677098 v -125.6441 H 0.500001 v -126.3244 h 22.677098 v -125.6441 H 0.500001 v -126.3244 H 23.177099 V -1009.4638 H 0.500001 v -126.3244 h 22.677098 v -125.6442 H 0.500001 v -126.1542 H 115.6992 v 22.6771 h 114.6889 v -22.6771 h 115.3693 v 22.6771 h 114.6889 v -22.6771 h 115.3692 v 22.6771 h 114.689 v -22.6771 h 115.3692 v 22.6771 h 114.689 v -22.6771 h 115.3692 v 22.6771 h 114.689 v -22.6771 h 115.3692 z" />
    </g>
  </g>
</svg>
