<?xml version="1.0" encoding="UTF-8" standalone="no"?>
<!-- Created with Inkscape (http://www.inkscape.org/) -->

<svg
   xmlns:dc="http://purl.org/dc/elements/1.1/"
   xmlns:cc="http://creativecommons.org/ns#"
   xmlns:rdf="http://www.w3.org/1999/02/22-rdf-syntax-ns#"
   xmlns:svg="http://www.w3.org/2000/svg"
   xmlns="http://www.w3.org/2000/svg"
   xmlns:sodipodi="http://sodipodi.sourceforge.net/DTD/sodipodi-0.dtd"
   xmlns:inkscape="http://www.inkscape.org/namespaces/inkscape"
   width="710mm"
   height="420mm"
   viewBox="0 0 710 420"
   version="1.1"
   id="svg1522"
   inkscape:version="0.92.2 (5c3e80d, 2017-08-06)"
   sodipodi:docname="GMO_C5H15E6_Back_Sides.svg">
  <defs
     id="defs1516" />
  <sodipodi:namedview
     id="base"
     pagecolor="#ffffff"
     bordercolor="#666666"
     borderopacity="1.0"
     inkscape:pageopacity="0.0"
     inkscape:pageshadow="2"
     inkscape:zoom="0.25"
     inkscape:cx="1729.7148"
     inkscape:cy="1741.6836"
     inkscape:document-units="mm"
     inkscape:current-layer="layer1"
     showgrid="false"
     inkscape:window-width="1920"
     inkscape:window-height="1017"
     inkscape:window-x="-8"
     inkscape:window-y="-8"
     inkscape:window-maximized="1" />
  <metadata
     id="metadata1519">
    <rdf:RDF>
      <cc:Work
         rdf:about="">
        <dc:format>image/svg+xml</dc:format>
        <dc:type
           rdf:resource="http://purl.org/dc/dcmitype/StillImage" />
        <dc:title />
      </cc:Work>
    </rdf:RDF>
  </metadata>
  <g
     inkscape:label="Calque 1"
     inkscape:groupmode="layer"
     id="layer1"
     transform="translate(0,123)">
    <path
       inkscape:connector-curvature="0"
       d="m 7.05,21.904984 h -6"
       style="fill:none;stroke:#ff0000;stroke-width:0.1;stroke-miterlimit:4;stroke-dasharray:none;stroke-opacity:1"
       id="path865" />
    <path
       inkscape:connector-curvature="0"
       d="M 1.05,21.904984 V 51.994983"
       style="fill:none;stroke:#ff0000;stroke-width:0.1;stroke-miterlimit:4;stroke-dasharray:none;stroke-opacity:1"
       id="path867" />
    <path
       inkscape:connector-curvature="0"
       d="m 1.05,51.994983 h 6"
       style="fill:none;stroke:#ff0000;stroke-width:0.1;stroke-miterlimit:4;stroke-dasharray:none;stroke-opacity:1"
       id="path869" />
    <path
       inkscape:connector-curvature="0"
       d="M 7.05,51.994983 V 81.904984"
       style="fill:none;stroke:#ff0000;stroke-width:0.1;stroke-miterlimit:4;stroke-dasharray:none;stroke-opacity:1"
       id="path871" />
    <path
       inkscape:connector-curvature="0"
       d="M 1.05,81.904984 V 111.99498"
       style="fill:none;stroke:#ff0000;stroke-width:0.1;stroke-miterlimit:4;stroke-dasharray:none;stroke-opacity:1"
       id="path873" />
    <path
       inkscape:connector-curvature="0"
       d="m 1.05,111.99498 h 6"
       style="fill:none;stroke:#ff0000;stroke-width:0.1;stroke-miterlimit:4;stroke-dasharray:none;stroke-opacity:1"
       id="path875" />
    <path
       inkscape:connector-curvature="0"
       d="m 1.05,81.904984 h 6"
       style="fill:none;stroke:#ff0000;stroke-width:0.1;stroke-miterlimit:4;stroke-dasharray:none;stroke-opacity:1"
       id="path877" />
    <path
       inkscape:connector-curvature="0"
       d="m 197.45864,-8.050016 v 5.999999"
       style="fill:none;stroke:#ff0000;stroke-width:0.1;stroke-miterlimit:4;stroke-dasharray:none;stroke-opacity:1"
       id="path885" />
    <path
       inkscape:connector-curvature="0"
       d="M 99.18682,-2.050017 V -8.050016"
       style="fill:none;stroke:#ff0000;stroke-width:0.1;stroke-miterlimit:4;stroke-dasharray:none;stroke-opacity:1"
       id="path887" />
    <path
       inkscape:connector-curvature="0"
       d="m 132.00409,-2.050017 h 32.63727"
       style="fill:none;stroke:#ff0000;stroke-width:0.1;stroke-miterlimit:4;stroke-dasharray:none;stroke-opacity:1"
       id="path889" />
    <path
       inkscape:connector-curvature="0"
       d="M 262.91317,141.95 H 230.09591"
       style="fill:none;stroke:#ff0000;stroke-width:0.1;stroke-miterlimit:4;stroke-dasharray:none;stroke-opacity:1"
       id="path891" />
    <path
       inkscape:connector-curvature="0"
       d="M 230.09591,-2.050017 V -8.050016"
       style="fill:none;stroke:#ff0000;stroke-width:0.1;stroke-miterlimit:4;stroke-dasharray:none;stroke-opacity:1"
       id="path893" />
    <path
       inkscape:connector-curvature="0"
       d="M 33.73227,-8.050016 H 66.54955"
       style="fill:none;stroke:#ff0000;stroke-width:0.1;stroke-miterlimit:4;stroke-dasharray:none;stroke-opacity:1"
       id="path897" />
    <path
       inkscape:connector-curvature="0"
       d="M 197.45863,135.94999 V 141.95"
       style="fill:none;stroke:#ff0000;stroke-width:0.1;stroke-miterlimit:4;stroke-dasharray:none;stroke-opacity:1"
       id="path899" />
    <path
       inkscape:connector-curvature="0"
       d="m 346.54999,65.949984 a 0.50000006,0.50000006 0 1 0 -1,0 0.50000006,0.50000006 0 1 0 1,0 z"
       style="fill:none;stroke:#ff0000;stroke-width:0.1;stroke-miterlimit:4;stroke-dasharray:none;stroke-opacity:1"
       id="path903" />
    <path
       inkscape:connector-curvature="0"
       d="m 99.18682,-8.050016 h 32.81727"
       style="fill:none;stroke:#ff0000;stroke-width:0.1;stroke-miterlimit:4;stroke-dasharray:none;stroke-opacity:1"
       id="path907" />
    <path
       inkscape:connector-curvature="0"
       d="m 33.73227,141.95 v -6.00001"
       style="fill:none;stroke:#ff0000;stroke-width:0.1;stroke-miterlimit:4;stroke-dasharray:none;stroke-opacity:1"
       id="path909" />
    <path
       inkscape:connector-curvature="0"
       d="m 197.45864,-2.050017 h 32.63727"
       style="fill:none;stroke:#ff0000;stroke-width:0.1;stroke-miterlimit:4;stroke-dasharray:none;stroke-opacity:1"
       id="path911" />
    <path
       inkscape:connector-curvature="0"
       d="m 314.54998,65.949984 a 0.50000006,0.50000006 0 1 0 -0.99999,0 0.50000006,0.50000006 0 1 0 0.99999,0 z"
       style="fill:none;stroke:#ff0000;stroke-width:0.1;stroke-miterlimit:4;stroke-dasharray:none;stroke-opacity:1"
       id="path913" />
    <path
       inkscape:connector-curvature="0"
       d="m 230.09591,141.95 v -6.00001"
       style="fill:none;stroke:#ff0000;stroke-width:0.1;stroke-miterlimit:4;stroke-dasharray:none;stroke-opacity:1"
       id="path915" />
    <path
       inkscape:connector-curvature="0"
       d="M 230.09591,135.94999 H 197.45863"
       style="fill:none;stroke:#ff0000;stroke-width:0.1;stroke-miterlimit:4;stroke-dasharray:none;stroke-opacity:1"
       id="path917" />
    <path
       inkscape:connector-curvature="0"
       d="m 262.91318,-2.050017 h 32.63726"
       style="fill:none;stroke:#ff0000;stroke-width:0.1;stroke-miterlimit:4;stroke-dasharray:none;stroke-opacity:1"
       id="path919" />
    <path
       inkscape:connector-curvature="0"
       d="m 132.00409,-8.050016 v 5.999999"
       style="fill:none;stroke:#ff0000;stroke-width:0.1;stroke-miterlimit:4;stroke-dasharray:none;stroke-opacity:1"
       id="path921" />
    <path
       inkscape:connector-curvature="0"
       d="M 66.54955,141.95 H 33.73227"
       style="fill:none;stroke:#ff0000;stroke-width:0.1;stroke-miterlimit:4;stroke-dasharray:none;stroke-opacity:1"
       id="path923" />
    <path
       inkscape:connector-curvature="0"
       d="M 132.00409,135.94999 V 141.95"
       style="fill:none;stroke:#ff0000;stroke-width:0.1;stroke-miterlimit:4;stroke-dasharray:none;stroke-opacity:1"
       id="path925" />
    <path
       inkscape:connector-curvature="0"
       d="m 164.64136,-8.050016 h 32.81728"
       style="fill:none;stroke:#ff0000;stroke-width:0.1;stroke-miterlimit:4;stroke-dasharray:none;stroke-opacity:1"
       id="path927" />
    <path
       inkscape:connector-curvature="0"
       d="m 230.09591,-8.050016 h 32.81727"
       style="fill:none;stroke:#ff0000;stroke-width:0.1;stroke-miterlimit:4;stroke-dasharray:none;stroke-opacity:1"
       id="path929" />
    <path
       inkscape:connector-curvature="0"
       d="M 164.64136,135.94999 H 132.00409"
       style="fill:none;stroke:#ff0000;stroke-width:0.1;stroke-miterlimit:4;stroke-dasharray:none;stroke-opacity:1"
       id="path933" />
    <path
       inkscape:connector-curvature="0"
       d="M 132.00409,141.95 H 99.18682"
       style="fill:none;stroke:#ff0000;stroke-width:0.1;stroke-miterlimit:4;stroke-dasharray:none;stroke-opacity:1"
       id="path935" />
    <path
       inkscape:connector-curvature="0"
       d="m 295.55044,141.95 v -6.00001"
       style="fill:none;stroke:#ff0000;stroke-width:0.1;stroke-miterlimit:4;stroke-dasharray:none;stroke-opacity:1"
       id="path937" />
    <path
       inkscape:connector-curvature="0"
       d="M 33.73227,135.94999 H 7.05"
       style="fill:none;stroke:#ff0000;stroke-width:0.1;stroke-miterlimit:4;stroke-dasharray:none;stroke-opacity:1"
       id="path943" />
    <path
       inkscape:connector-curvature="0"
       d="M 164.64136,-2.050017 V -8.050016"
       style="fill:none;stroke:#ff0000;stroke-width:0.1;stroke-miterlimit:4;stroke-dasharray:none;stroke-opacity:1"
       id="path953" />
    <path
       inkscape:connector-curvature="0"
       d="M 328.36771,141.95 H 295.55044"
       style="fill:none;stroke:#ff0000;stroke-width:0.1;stroke-miterlimit:4;stroke-dasharray:none;stroke-opacity:1"
       id="path955" />
    <path
       inkscape:connector-curvature="0"
       d="M 328.36771,135.94999 V 141.95"
       style="fill:none;stroke:#ff0000;stroke-width:0.1;stroke-miterlimit:4;stroke-dasharray:none;stroke-opacity:1"
       id="path961" />
    <path
       inkscape:connector-curvature="0"
       d="M 66.54955,135.94999 V 141.95"
       style="fill:none;stroke:#ff0000;stroke-width:0.1;stroke-miterlimit:4;stroke-dasharray:none;stroke-opacity:1"
       id="path963" />
    <path
       inkscape:connector-curvature="0"
       d="M 355.04999,-2.050017 V 135.94999"
       style="fill:none;stroke:#ff0000;stroke-width:0.1;stroke-miterlimit:4;stroke-dasharray:none;stroke-opacity:1"
       id="path965" />
    <path
       inkscape:connector-curvature="0"
       d="M 355.04999,135.94999 H 328.36771"
       style="fill:none;stroke:#ff0000;stroke-width:0.1;stroke-miterlimit:4;stroke-dasharray:none;stroke-opacity:1"
       id="path973" />
    <path
       inkscape:connector-curvature="0"
       d="M 7.05,-2.050017 H 33.73227"
       style="fill:none;stroke:#ff0000;stroke-width:0.1;stroke-miterlimit:4;stroke-dasharray:none;stroke-opacity:1"
       id="path977" />
    <path
       inkscape:connector-curvature="0"
       d="M 197.45863,141.95 H 164.64136"
       style="fill:none;stroke:#ff0000;stroke-width:0.1;stroke-miterlimit:4;stroke-dasharray:none;stroke-opacity:1"
       id="path979" />
    <path
       inkscape:connector-curvature="0"
       d="M 33.73227,-2.050017 V -8.050016"
       style="fill:none;stroke:#ff0000;stroke-width:0.1;stroke-miterlimit:4;stroke-dasharray:none;stroke-opacity:1"
       id="path981" />
    <path
       inkscape:connector-curvature="0"
       d="m 99.18682,141.95 v -6.00001"
       style="fill:none;stroke:#ff0000;stroke-width:0.1;stroke-miterlimit:4;stroke-dasharray:none;stroke-opacity:1"
       id="path983" />
    <path
       inkscape:connector-curvature="0"
       d="m 164.64136,141.95 v -6.00001"
       style="fill:none;stroke:#ff0000;stroke-width:0.1;stroke-miterlimit:4;stroke-dasharray:none;stroke-opacity:1"
       id="path985" />
    <path
       inkscape:connector-curvature="0"
       d="M 262.91317,135.94999 V 141.95"
       style="fill:none;stroke:#ff0000;stroke-width:0.1;stroke-miterlimit:4;stroke-dasharray:none;stroke-opacity:1"
       id="path987" />
    <path
       inkscape:connector-curvature="0"
       d="M 66.54955,-2.050017 H 99.18682"
       style="fill:none;stroke:#ff0000;stroke-width:0.1;stroke-miterlimit:4;stroke-dasharray:none;stroke-opacity:1"
       id="path989" />
    <path
       inkscape:connector-curvature="0"
       d="m 262.91318,-8.050016 v 5.999999"
       style="fill:none;stroke:#ff0000;stroke-width:0.1;stroke-miterlimit:4;stroke-dasharray:none;stroke-opacity:1"
       id="path991" />
    <path
       inkscape:connector-curvature="0"
       d="M 99.18682,135.94999 H 66.54955"
       style="fill:none;stroke:#ff0000;stroke-width:0.1;stroke-miterlimit:4;stroke-dasharray:none;stroke-opacity:1"
       id="path993" />
    <path
       inkscape:connector-curvature="0"
       d="m 66.54955,-8.050016 v 5.999999"
       style="fill:none;stroke:#ff0000;stroke-width:0.1;stroke-miterlimit:4;stroke-dasharray:none;stroke-opacity:1"
       id="path995" />
    <path
       inkscape:connector-curvature="0"
       d="M 295.55044,135.94999 H 262.91317"
       style="fill:none;stroke:#ff0000;stroke-width:0.1;stroke-miterlimit:4;stroke-dasharray:none;stroke-opacity:1"
       id="path999" />
    <path
       inkscape:connector-curvature="0"
       d="m 344.55,79.099982 a 0.50001,0.50001 0 1 0 -1.00002,0 0.50001,0.50001 0 1 0 1.00002,0 z"
       style="fill:none;stroke:#ff0000;stroke-width:0.1;stroke-miterlimit:4;stroke-dasharray:none;stroke-opacity:1"
       id="path1003" />
    <path
       inkscape:connector-curvature="0"
       d="m 314.54998,31.949983 a 0.50000006,0.50000006 0 1 0 -0.99999,0 0.50000006,0.50000006 0 1 0 0.99999,0 z"
       style="fill:none;stroke:#ff0000;stroke-width:0.1;stroke-miterlimit:4;stroke-dasharray:none;stroke-opacity:1"
       id="path1013" />
    <path
       inkscape:connector-curvature="0"
       d="m 342.54999,83.949983 v -3"
       style="fill:none;stroke:#ff0000;stroke-width:0.1;stroke-miterlimit:4;stroke-dasharray:none;stroke-opacity:1"
       id="path1023" />
    <path
       inkscape:connector-curvature="0"
       d="m 328.36771,-8.050016 v 5.999999"
       style="fill:none;stroke:#ff0000;stroke-width:0.1;stroke-miterlimit:4;stroke-dasharray:none;stroke-opacity:1"
       id="path1035" />
    <path
       inkscape:connector-curvature="0"
       d="m 344.55,85.599982 a 0.50001,0.50001 0 1 0 -1.00002,0 0.50001,0.50001 0 1 0 1.00002,0 z"
       style="fill:none;stroke:#ff0000;stroke-width:0.1;stroke-miterlimit:4;stroke-dasharray:none;stroke-opacity:1"
       id="path1051" />
    <path
       inkscape:connector-curvature="0"
       d="m 346.54999,31.949983 a 0.50000006,0.50000006 0 1 0 -1,0 0.50000006,0.50000006 0 1 0 1,0 z"
       style="fill:none;stroke:#ff0000;stroke-width:0.1;stroke-miterlimit:4;stroke-dasharray:none;stroke-opacity:1"
       id="path1055" />
    <path
       inkscape:connector-curvature="0"
       d="m 295.55044,-8.050016 h 32.81727"
       style="fill:none;stroke:#ff0000;stroke-width:0.1;stroke-miterlimit:4;stroke-dasharray:none;stroke-opacity:1"
       id="path1059" />
    <path
       inkscape:connector-curvature="0"
       d="m 328.36771,-2.050017 h 26.68228"
       style="fill:none;stroke:#ff0000;stroke-width:0.1;stroke-miterlimit:4;stroke-dasharray:none;stroke-opacity:1"
       id="path1061" />
    <path
       inkscape:connector-curvature="0"
       d="M 295.55044,-2.050017 V -8.050016"
       style="fill:none;stroke:#ff0000;stroke-width:0.1;stroke-miterlimit:4;stroke-dasharray:none;stroke-opacity:1"
       id="path1063" />
    <path
       inkscape:connector-curvature="0"
       d="m 7.05,111.99498 v 23.95501"
       style="fill:none;stroke:#ff0000;stroke-width:0.1;stroke-miterlimit:4;stroke-dasharray:none;stroke-opacity:1"
       id="path1067" />
    <path
       inkscape:connector-curvature="0"
       d="M 7.05,21.904984 V -2.050017"
       style="fill:none;stroke:#ff0000;stroke-width:0.1;stroke-miterlimit:4;stroke-dasharray:none;stroke-opacity:1"
       id="path1069" />
    <rect
       style="fill:#00ff00;fill-opacity:1;stroke:none;stroke-width:0.1;stroke-miterlimit:4;stroke-dasharray:none;stroke-opacity:1"
       id="rect1628"
       width="297"
       height="6"
       x="7.0500045"
       y="2.9499846" />
    <rect
       style="fill:#00ff00;fill-opacity:1;stroke:none;stroke-width:0.1;stroke-miterlimit:4;stroke-dasharray:none;stroke-opacity:1"
       id="rect1630"
       width="5.9999995"
       height="81"
       x="304.04999"
       y="2.9499846" />
    <rect
       style="fill:#00ff00;fill-opacity:1;stroke:none;stroke-width:0.1;stroke-miterlimit:4;stroke-dasharray:none;stroke-opacity:1"
       id="rect1632"
       width="32.5"
       height="3"
       x="310.04999"
       y="80.949982" />
    <path
       inkscape:connector-curvature="0"
       d="M 126.74412,285.94999 V 291.95 h 30.52477 v -6.00001 h 30.3448 V 291.95 h 30.52476 v -6.00001 h 30.3448 V 291.95 h 30.52477 v -6.00001 h 30.3448 V 291.95 h 30.52477 v -6.00001 h 30.34479 V 291.95 h 30.52477 v -6.00001 h 30.3448 V 291.95 h 30.52477 v -6.00001 h 30.34479 V 291.95 h 30.52477 v -6.00001 h 30.3448 V 291.95 h 30.52477 v -6.00001 h 30.34479 V 291.95 h 30.52477 v -6.00001 h 30.3448 V 291.95 H 705.05 v -30.045 h -6.00001 V 231.99499 H 705.05 v -30.09 h -6.00001 V 171.99501 H 705.05 v -30.045 h -30.47979 v 5.99998 h -30.3448 v -5.99998 h -30.52477 v 5.99998 h -30.34479 v -5.99998 h -30.52477 v 5.99998 h -30.3448 v -5.99998 h -30.52477 v 5.99998 h -30.34479 v -5.99998 h -30.52477 v 5.99998 h -30.3448 v -5.99998 h -30.52477 v 5.99998 h -30.34479 v -5.99998 h -30.52477 v 5.99998 h -30.3448 v -5.99998 h -30.52477 v 5.99998 h -30.3448 v -5.99998 h -30.52476 v 5.99998 h -30.3448 v -5.99998 h -30.52477 v 5.99998 H 96.399353 v -5.99998 H 65.874559 v 5.99998 H 35.529788 v -5.99998 H 5.05 v 30.045 h 5.999983 v 29.90998 H 5.05 v 30.09 h 5.999983 V 261.905 H 5.05 v 30.045 h 30.479788 v -6.00001 H 65.874559 V 291.95 h 30.524794 v -6.00001 z"
       style="fill:none;stroke:#ff0000;stroke-width:0.1;stroke-miterlimit:4;stroke-dasharray:none;stroke-opacity:1"
       id="path831" />
    <path
       inkscape:connector-curvature="0"
       d="m 280.65,158.94999 h 2.99998 v -5.99998 H 280.65 Z"
       style="fill:none;stroke:#ff0000;stroke-width:0.1;stroke-miterlimit:4;stroke-dasharray:none;stroke-opacity:1"
       id="path929-0" />
    <path
       inkscape:connector-curvature="0"
       d="m 697.04998,158.94999 h 3 v -5.99998 h -3 z"
       style="fill:none;stroke:#ff0000;stroke-width:0.1;stroke-miterlimit:4;stroke-dasharray:none;stroke-opacity:1"
       id="path931" />
    <path
       inkscape:connector-curvature="0"
       d="m 558.24998,158.94986 h 3.00001 v -5.99999 h -3.00001 z"
       style="fill:none;stroke:#ff0000;stroke-width:0.1;stroke-miterlimit:4;stroke-dasharray:none;stroke-opacity:1"
       id="path933-5" />
    <path
       inkscape:connector-curvature="0"
       d="M 419.44999,158.94999 H 422.45 v -5.99998 h -3.00001 z"
       style="fill:none;stroke:#ff0000;stroke-width:0.1;stroke-miterlimit:4;stroke-dasharray:none;stroke-opacity:1"
       id="path935-2" />
    <path
       inkscape:connector-curvature="0"
       d="m 141.84998,158.94999 h 3 v -5.99998 h -3 z"
       style="fill:none;stroke:#ff0000;stroke-width:0.1;stroke-miterlimit:4;stroke-dasharray:none;stroke-opacity:1"
       id="path937-6" />
    <path
       d="m 709.04999,111.99498 h -6 v 23.955 h -26.68227 v 6 h -32.81727 v -6 h -32.63728 v 6 H 578.0959 v -6 h -32.63727 v 6 h -32.81727 v -6 h -32.63728 v 6 h -32.81727 v -6 h -32.63727 v 6 h -32.81727 v -6 h -26.68228 c 0,-46 0,-92 0,-138.0000002 h 26.68228 v -6.0000091 h 32.81727 v 6.0000091 h 32.63728 v -5.9999826 h 32.81727 v 5.9999826 h 32.63727 v -5.9999826 h 32.81727 v 5.9999826 h 32.63727 v -5.9999826 h 32.81727 v 5.9999826 h 32.63728 v -5.9999826 h 32.81727 v 5.9999826 h 26.68227 V 21.904984 h 6 v 30.089999 h -6 v 29.909999 h 6 z"
       style="fill:none;stroke:#ff0000;stroke-width:0.1;stroke-miterlimit:4;stroke-dasharray:none;stroke-opacity:1"
       id="path2120"
       inkscape:connector-curvature="0"
       sodipodi:nodetypes="ccccccccccccccccccccccccccccccccccccccccccccccccccccc" />
    <path
       d="m 361.54998,96.949982 a 0.50001,0.50001 0 1 0 1.00002,0 0.50001,0.50001 0 1 0 -1.00002,0 z"
       style="fill:none;stroke:#ff0000;stroke-width:0.1;stroke-miterlimit:4;stroke-dasharray:none;stroke-opacity:1"
       id="path2122"
       inkscape:connector-curvature="0" />
    <path
       d="m 361.54998,36.949983 a 0.50001,0.50001 0 1 0 1.00002,0 0.50001,0.50001 0 1 0 -1.00002,0 z"
       style="fill:none;stroke:#ff0000;stroke-width:0.1;stroke-miterlimit:4;stroke-dasharray:none;stroke-opacity:1"
       id="path2124"
       inkscape:connector-curvature="0" />
  </g>
</svg>
