<?xml version="1.0" encoding="UTF-8" standalone="no"?>
<!-- Created with Inkscape (http://www.inkscape.org/) -->

<svg
   xmlns:dc="http://purl.org/dc/elements/1.1/"
   xmlns:cc="http://creativecommons.org/ns#"
   xmlns:rdf="http://www.w3.org/1999/02/22-rdf-syntax-ns#"
   xmlns:svg="http://www.w3.org/2000/svg"
   xmlns="http://www.w3.org/2000/svg"
   xmlns:sodipodi="http://sodipodi.sourceforge.net/DTD/sodipodi-0.dtd"
   xmlns:inkscape="http://www.inkscape.org/namespaces/inkscape"
   width="210mm"
   height="297mm"
   viewBox="0 0 210 297"
   version="1.1"
   id="svg8"
   inkscape:version="0.92.2 (5c3e80d, 2017-08-06)"
   sodipodi:docname="Ligne_C1H40E6.svg">
  <sodipodi:namedview
     id="base"
     pagecolor="#ffffff"
     bordercolor="#666666"
     borderopacity="1.0"
     inkscape:pageopacity="0.0"
     inkscape:pageshadow="2"
     inkscape:zoom="0.12374369"
     inkscape:cx="3686.9123"
     inkscape:cy="-910.08294"
     inkscape:document-units="mm"
     inkscape:current-layer="layer1"
     showgrid="false"
     inkscape:window-width="1920"
     inkscape:window-height="1017"
     inkscape:window-x="-8"
     inkscape:window-y="-8"
     inkscape:window-maximized="1" />
  <defs
     id="defs2" />
  <metadata
     id="metadata5">
    <rdf:RDF>
      <cc:Work
         rdf:about="">
        <dc:format>image/svg+xml</dc:format>
        <dc:type
           rdf:resource="http://purl.org/dc/dcmitype/StillImage" />
        <dc:title></dc:title>
      </cc:Work>
    </rdf:RDF>
  </metadata>
  <g
     id="layer1"
     inkscape:groupmode="layer"
     inkscape:label="Calque 1">
    <path
       id="path818"
       inkscape:label="part"
       style="stroke:#000000;stroke-width:1;fill:none"
       d="M 380.0,796.0 L 410.389782608,796.0 L 410.389782608,790.0 L 440.914565218,790.0 L 440.914565218,796.0 L 471.259347825,796.0 L 471.259347825,790.0 L 501.784130436,790.0 L 501.784130436,796.0 L 532.128913043,796.0 L 532.128913043,790.0 L 562.653695653,790.0 L 562.653695653,796.0 L 592.99847826,796.0 L 592.99847826,790.0 L 623.52326087,790.0 L 623.52326087,796.0 L 653.868043477,796.0 L 653.868043477,790.0 L 684.392826088,790.0 L 684.392826088,796.0 L 714.737608695,796.0 L 714.737608695,790.0 L 745.262391305,790.0 L 745.262391305,796.0 L 775.607173912,796.0 L 775.607173912,790.0 L 806.131956523,790.0 L 806.131956523,796.0 L 836.47673913,796.0 L 836.47673913,790.0 L 867.00152174,790.0 L 867.00152174,796.0 L 897.346304347,796.0 L 897.346304347,790.0 L 927.871086957,790.0 L 927.871086957,796.0 L 958.215869564,796.0 L 958.215869564,790.0 L 988.740652175,790.0 L 988.740652175,796.0 L 1019.08543478,796.0 L 1019.08543478,790.0 L 1049.61021739,790.0 L 1049.61021739,796.0 L 1080.0,796.0 " />
    <path
       id="path820"
       inkscape:label="part"
       style="stroke:#000000;stroke-width:1;fill:none"
       d="M 1080.0,796.0 L 1080.0,822.772272728 L 1074.0,822.772272728 L 1074.0,855.409545454 L 1080.0,855.409545454 L 1080.0,888.226818183 L 1074.0,888.226818183 L 1074.0,920.864090908 L 1080.0,920.864090908 L 1080.0,953.681363637 L 1074.0,953.681363637 L 1074.0,986.318636363 L 1080.0,986.318636363 L 1080.0,1019.13590909 L 1074.0,1019.13590909 L 1074.0,1051.77318182 L 1080.0,1051.77318182 L 1080.0,1084.59045455 L 1074.0,1084.59045455 L 1074.0,1117.22772727 L 1080.0,1117.22772727 L 1080.0,1144.0 " />
    <path
       id="path822"
       inkscape:label="part"
       style="stroke:#000000;stroke-width:1;fill:none"
       d="M 1080.0,1144.0 L 1049.61021739,1144.0 L 1049.61021739,1144.0 L 1019.08543478,1144.0 L 1019.08543478,1144.0 L 988.740652175,1144.0 L 988.740652175,1144.0 L 958.215869564,1144.0 L 958.215869564,1144.0 L 927.871086957,1144.0 L 927.871086957,1144.0 L 897.346304347,1144.0 L 897.346304347,1144.0 L 867.00152174,1144.0 L 867.00152174,1144.0 L 836.47673913,1144.0 L 836.47673913,1144.0 L 806.131956523,1144.0 L 806.131956523,1144.0 L 775.607173912,1144.0 L 775.607173912,1144.0 L 745.262391305,1144.0 L 745.262391305,1144.0 L 714.737608695,1144.0 L 714.737608695,1144.0 L 684.392826088,1144.0 L 684.392826088,1144.0 L 653.868043477,1144.0 L 653.868043477,1144.0 L 623.52326087,1144.0 L 623.52326087,1144.0 L 592.99847826,1144.0 L 592.99847826,1144.0 L 562.653695653,1144.0 L 562.653695653,1144.0 L 532.128913043,1144.0 L 532.128913043,1144.0 L 501.784130436,1144.0 L 501.784130436,1144.0 L 471.259347825,1144.0 L 471.259347825,1144.0 L 440.914565218,1144.0 L 440.914565218,1144.0 L 410.389782608,1144.0 L 410.389782608,1144.0 L 380.0,1144.0 " />
    <path
       id="path824"
       inkscape:label="part"
       style="stroke:#000000;stroke-width:1;fill:none"
       d="M 380.0,1144.0 L 380.0,1117.22772727 L 386.0,1117.22772727 L 386.0,1084.59045455 L 380.0,1084.59045455 L 380.0,1051.77318182 L 386.0,1051.77318182 L 386.0,1019.13590909 L 380.0,1019.13590909 L 380.0,986.318636363 L 386.0,986.318636363 L 386.0,953.681363637 L 380.0,953.681363637 L 380.0,920.864090908 L 386.0,920.864090908 L 386.0,888.226818183 L 380.0,888.226818183 L 380.0,855.409545454 L 386.0,855.409545454 L 386.0,822.772272728 L 380.0,822.772272728 L 380.0,796.0 " />
    <path
       id="path826"
       inkscape:label="part"
       style="stroke:#000000;stroke-width:1;fill:none"
       d="M 16.0,386.0 L 42.6822727264,386.0 L 42.6822727264,380.0 L 75.4995454554,380.0 L 75.4995454554,386.0 L 108.136818181,386.0 L 108.136818181,380.0 L 140.95409091,380.0 L 140.95409091,386.0 L 173.591363636,386.0 L 173.591363636,380.0 L 206.408636364,380.0 L 206.408636364,386.0 L 239.04590909,386.0 L 239.04590909,380.0 L 271.863181819,380.0 L 271.863181819,386.0 L 304.500454545,386.0 L 304.500454545,380.0 L 337.317727274,380.0 L 337.317727274,386.0 L 364.0,386.0 " />
    <path
       id="path828"
       inkscape:label="part"
       style="stroke:#000000;stroke-width:1;fill:none"
       d="M 364.0,386.0 L 364.0,410.724230768 L 370.0,410.724230768 L 370.0,441.583461539 L 364.0,441.583461539 L 364.0,472.262692307 L 370.0,472.262692307 L 370.0,503.121923078 L 364.0,503.121923078 L 364.0,533.801153845 L 370.0,533.801153845 L 370.0,564.660384616 L 364.0,564.660384616 L 364.0,595.339615384 L 370.0,595.339615384 L 370.0,626.198846155 L 364.0,626.198846155 L 364.0,656.878076922 L 370.0,656.878076922 L 370.0,687.737307693 L 364.0,687.737307693 L 364.0,718.416538461 L 370.0,718.416538461 L 370.0,749.275769232 L 364.0,749.275769232 L 364.0,774.0 " />
    <path
       id="path830"
       inkscape:label="part"
       style="stroke:#000000;stroke-width:1;fill:none"
       d="M 364.0,774.0 L 337.317727274,774.0 L 337.317727274,780.0 L 304.500454545,780.0 L 304.500454545,774.0 L 271.863181819,774.0 L 271.863181819,780.0 L 239.04590909,780.0 L 239.04590909,774.0 L 206.408636364,774.0 L 206.408636364,780.0 L 173.591363636,780.0 L 173.591363636,774.0 L 140.95409091,774.0 L 140.95409091,780.0 L 108.136818181,780.0 L 108.136818181,774.0 L 75.4995454554,774.0 L 75.4995454554,780.0 L 42.6822727264,780.0 L 42.6822727264,774.0 L 16.0,774.0 " />
    <path
       id="path832"
       inkscape:label="part"
       style="stroke:#000000;stroke-width:1;fill:none"
       d="M 16.0,774.0 L 16.0,749.275769232 L 16.0,749.275769232 L 16.0,718.416538461 L 16.0,718.416538461 L 16.0,687.737307693 L 16.0,687.737307693 L 16.0,656.878076922 L 16.0,656.878076922 L 16.0,626.198846155 L 16.0,626.198846155 L 16.0,595.339615384 L 16.0,595.339615384 L 16.0,564.660384616 L 16.0,564.660384616 L 16.0,533.801153845 L 16.0,533.801153845 L 16.0,503.121923078 L 16.0,503.121923078 L 16.0,472.262692307 L 16.0,472.262692307 L 16.0,441.583461539 L 16.0,441.583461539 L 16.0,410.724230768 L 16.0,410.724230768 L 16.0,386.0 " />
    <path
       id="path834"
       inkscape:label="part"
       style="stroke:#000000;stroke-width:1;fill:none"
       d="M 380.0,380.0 L 410.47978261,380.0 L 410.47978261,386.0 L 440.824565217,386.0 L 440.824565217,380.0 L 471.349347827,380.0 L 471.349347827,386.0 L 501.694130434,386.0 L 501.694130434,380.0 L 532.218913044,380.0 L 532.218913044,386.0 L 562.563695651,386.0 L 562.563695651,380.0 L 593.088478262,380.0 L 593.088478262,386.0 L 623.433260869,386.0 L 623.433260869,380.0 L 653.958043479,380.0 L 653.958043479,386.0 L 684.302826086,386.0 L 684.302826086,380.0 L 714.827608697,380.0 L 714.827608697,386.0 L 745.172391303,386.0 L 745.172391303,380.0 L 775.697173914,380.0 L 775.697173914,386.0 L 806.041956521,386.0 L 806.041956521,380.0 L 836.566739131,380.0 L 836.566739131,386.0 L 866.911521738,386.0 L 866.911521738,380.0 L 897.436304349,380.0 L 897.436304349,386.0 L 927.781086956,386.0 L 927.781086956,380.0 L 958.305869566,380.0 L 958.305869566,386.0 L 988.650652173,386.0 L 988.650652173,380.0 L 1019.17543478,380.0 L 1019.17543478,386.0 L 1049.52021739,386.0 L 1049.52021739,380.0 L 1080.0,380.0 " />
    <path
       id="path836"
       inkscape:label="part"
       style="stroke:#000000;stroke-width:1;fill:none"
       d="M 1080.0,380.0 L 1080.0,410.81423077 L 1074.0,410.81423077 L 1074.0,441.493461538 L 1080.0,441.493461538 L 1080.0,472.352692309 L 1074.0,472.352692309 L 1074.0,503.031923076 L 1080.0,503.031923076 L 1080.0,533.891153847 L 1074.0,533.891153847 L 1074.0,564.570384615 L 1080.0,564.570384615 L 1080.0,595.429615385 L 1074.0,595.429615385 L 1074.0,626.108846153 L 1080.0,626.108846153 L 1080.0,656.968076924 L 1074.0,656.968076924 L 1074.0,687.647307691 L 1080.0,687.647307691 L 1080.0,718.506538462 L 1074.0,718.506538462 L 1074.0,749.18576923 L 1080.0,749.18576923 L 1080.0,780.0 " />
    <path
       id="path838"
       inkscape:label="part"
       style="stroke:#000000;stroke-width:1;fill:none"
       d="M 1080.0,780.0 L 1049.52021739,780.0 L 1049.52021739,774.0 L 1019.17543478,774.0 L 1019.17543478,780.0 L 988.650652173,780.0 L 988.650652173,774.0 L 958.305869566,774.0 L 958.305869566,780.0 L 927.781086956,780.0 L 927.781086956,774.0 L 897.436304349,774.0 L 897.436304349,780.0 L 866.911521738,780.0 L 866.911521738,774.0 L 836.566739131,774.0 L 836.566739131,780.0 L 806.041956521,780.0 L 806.041956521,774.0 L 775.697173914,774.0 L 775.697173914,780.0 L 745.172391303,780.0 L 745.172391303,774.0 L 714.827608697,774.0 L 714.827608697,780.0 L 684.302826086,780.0 L 684.302826086,774.0 L 653.958043479,774.0 L 653.958043479,780.0 L 623.433260869,780.0 L 623.433260869,774.0 L 593.088478262,774.0 L 593.088478262,780.0 L 562.563695651,780.0 L 562.563695651,774.0 L 532.218913044,774.0 L 532.218913044,780.0 L 501.694130434,780.0 L 501.694130434,774.0 L 471.349347827,774.0 L 471.349347827,780.0 L 440.824565217,780.0 L 440.824565217,774.0 L 410.47978261,774.0 L 410.47978261,780.0 L 380.0,780.0 " />
    <path
       id="path840"
       inkscape:label="part"
       style="stroke:#000000;stroke-width:1;fill:none"
       d="M 380.0,780.0 L 380.0,749.18576923 L 386.0,749.18576923 L 386.0,718.506538462 L 380.0,718.506538462 L 380.0,687.647307691 L 386.0,687.647307691 L 386.0,656.968076924 L 380.0,656.968076924 L 380.0,626.108846153 L 386.0,626.108846153 L 386.0,595.429615385 L 380.0,595.429615385 L 380.0,564.570384615 L 386.0,564.570384615 L 386.0,533.891153847 L 380.0,533.891153847 L 380.0,503.031923076 L 386.0,503.031923076 L 386.0,472.352692309 L 380.0,472.352692309 L 380.0,441.493461538 L 386.0,441.493461538 L 386.0,410.81423077 L 380.0,410.81423077 L 380.0,380.0 " />
    <path
       id="path842"
       inkscape:label="part"
       style="stroke:#000000;stroke-width:1;fill:none"
       d="M 1096.0,386.0 L 1122.68227273,386.0 L 1122.68227273,380.0 L 1155.49954546,380.0 L 1155.49954546,386.0 L 1188.13681818,386.0 L 1188.13681818,380.0 L 1220.95409091,380.0 L 1220.95409091,386.0 L 1253.59136364,386.0 L 1253.59136364,380.0 L 1286.40863636,380.0 L 1286.40863636,386.0 L 1319.04590909,386.0 L 1319.04590909,380.0 L 1351.86318182,380.0 L 1351.86318182,386.0 L 1384.50045454,386.0 L 1384.50045454,380.0 L 1417.31772727,380.0 L 1417.31772727,386.0 L 1444.0,386.0 " />
    <path
       id="path844"
       inkscape:label="part"
       style="stroke:#000000;stroke-width:1;fill:none"
       d="M 1444.0,386.0 L 1444.0,410.724230768 L 1444.0,410.724230768 L 1444.0,441.583461539 L 1444.0,441.583461539 L 1444.0,472.262692307 L 1444.0,472.262692307 L 1444.0,503.121923078 L 1444.0,503.121923078 L 1444.0,533.801153845 L 1444.0,533.801153845 L 1444.0,564.660384616 L 1444.0,564.660384616 L 1444.0,595.339615384 L 1444.0,595.339615384 L 1444.0,626.198846155 L 1444.0,626.198846155 L 1444.0,656.878076922 L 1444.0,656.878076922 L 1444.0,687.737307693 L 1444.0,687.737307693 L 1444.0,718.416538461 L 1444.0,718.416538461 L 1444.0,749.275769232 L 1444.0,749.275769232 L 1444.0,774.0 " />
    <path
       id="path846"
       inkscape:label="part"
       style="stroke:#000000;stroke-width:1;fill:none"
       d="M 1444.0,774.0 L 1417.31772727,774.0 L 1417.31772727,780.0 L 1384.50045454,780.0 L 1384.50045454,774.0 L 1351.86318182,774.0 L 1351.86318182,780.0 L 1319.04590909,780.0 L 1319.04590909,774.0 L 1286.40863636,774.0 L 1286.40863636,780.0 L 1253.59136364,780.0 L 1253.59136364,774.0 L 1220.95409091,774.0 L 1220.95409091,780.0 L 1188.13681818,780.0 L 1188.13681818,774.0 L 1155.49954546,774.0 L 1155.49954546,780.0 L 1122.68227273,780.0 L 1122.68227273,774.0 L 1096.0,774.0 " />
    <path
       id="path848"
       inkscape:label="part"
       style="stroke:#000000;stroke-width:1;fill:none"
       d="M 1096.0,774.0 L 1096.0,749.275769232 L 1090.0,749.275769232 L 1090.0,718.416538461 L 1096.0,718.416538461 L 1096.0,687.737307693 L 1090.0,687.737307693 L 1090.0,656.878076922 L 1096.0,656.878076922 L 1096.0,626.198846155 L 1090.0,626.198846155 L 1090.0,595.339615384 L 1096.0,595.339615384 L 1096.0,564.660384616 L 1090.0,564.660384616 L 1090.0,533.801153845 L 1096.0,533.801153845 L 1096.0,503.121923078 L 1090.0,503.121923078 L 1090.0,472.262692307 L 1096.0,472.262692307 L 1096.0,441.583461539 L 1090.0,441.583461539 L 1090.0,410.724230768 L 1096.0,410.724230768 L 1096.0,386.0 " />
    <path
       id="path858"
       inkscape:label="part"
       style="stroke:#000000;stroke-width:1;fill:none"
       d="M 380.0,16.0 L 410.389782608,16.0 L 410.389782608,16.0 L 440.914565218,16.0 L 440.914565218,16.0 L 471.259347825,16.0 L 471.259347825,16.0 L 501.784130436,16.0 L 501.784130436,16.0 L 532.128913043,16.0 L 532.128913043,16.0 L 562.653695653,16.0 L 562.653695653,16.0 L 592.99847826,16.0 L 592.99847826,16.0 L 623.52326087,16.0 L 623.52326087,16.0 L 653.868043477,16.0 L 653.868043477,16.0 L 684.392826088,16.0 L 684.392826088,16.0 L 714.737608695,16.0 L 714.737608695,16.0 L 745.262391305,16.0 L 745.262391305,16.0 L 775.607173912,16.0 L 775.607173912,16.0 L 806.131956523,16.0 L 806.131956523,16.0 L 836.47673913,16.0 L 836.47673913,16.0 L 867.00152174,16.0 L 867.00152174,16.0 L 897.346304347,16.0 L 897.346304347,16.0 L 927.871086957,16.0 L 927.871086957,16.0 L 958.215869564,16.0 L 958.215869564,16.0 L 988.740652175,16.0 L 988.740652175,16.0 L 1019.08543478,16.0 L 1019.08543478,16.0 L 1049.61021739,16.0 L 1049.61021739,16.0 L 1080.0,16.0 " />
    <path
       id="path860"
       inkscape:label="part"
       style="stroke:#000000;stroke-width:1;fill:none"
       d="M 1080.0,16.0 L 1080.0,42.7722727281 L 1074.0,42.7722727281 L 1074.0,75.4095454537 L 1080.0,75.4095454537 L 1080.0,108.226818183 L 1074.0,108.226818183 L 1074.0,140.864090908 L 1080.0,140.864090908 L 1080.0,173.681363637 L 1074.0,173.681363637 L 1074.0,206.318636363 L 1080.0,206.318636363 L 1080.0,239.135909092 L 1074.0,239.135909092 L 1074.0,271.773181817 L 1080.0,271.773181817 L 1080.0,304.590454546 L 1074.0,304.590454546 L 1074.0,337.227727272 L 1080.0,337.227727272 L 1080.0,364.0 " />
    <path
       id="path862"
       inkscape:label="part"
       style="stroke:#000000;stroke-width:1;fill:none"
       d="M 1080.0,364.0 L 1049.61021739,364.0 L 1049.61021739,370.0 L 1019.08543478,370.0 L 1019.08543478,364.0 L 988.740652175,364.0 L 988.740652175,370.0 L 958.215869564,370.0 L 958.215869564,364.0 L 927.871086957,364.0 L 927.871086957,370.0 L 897.346304347,370.0 L 897.346304347,364.0 L 867.00152174,364.0 L 867.00152174,370.0 L 836.47673913,370.0 L 836.47673913,364.0 L 806.131956523,364.0 L 806.131956523,370.0 L 775.607173912,370.0 L 775.607173912,364.0 L 745.262391305,364.0 L 745.262391305,370.0 L 714.737608695,370.0 L 714.737608695,364.0 L 684.392826088,364.0 L 684.392826088,370.0 L 653.868043477,370.0 L 653.868043477,364.0 L 623.52326087,364.0 L 623.52326087,370.0 L 592.99847826,370.0 L 592.99847826,364.0 L 562.653695653,364.0 L 562.653695653,370.0 L 532.128913043,370.0 L 532.128913043,364.0 L 501.784130436,364.0 L 501.784130436,370.0 L 471.259347825,370.0 L 471.259347825,364.0 L 440.914565218,364.0 L 440.914565218,370.0 L 410.389782608,370.0 L 410.389782608,364.0 L 380.0,364.0 " />
    <path
       id="path864"
       inkscape:label="part"
       style="stroke:#000000;stroke-width:1;fill:none"
       d="M 380.0,364.0 L 380.0,337.227727272 L 386.0,337.227727272 L 386.0,304.590454546 L 380.0,304.590454546 L 380.0,271.773181817 L 386.0,271.773181817 L 386.0,239.135909092 L 380.0,239.135909092 L 380.0,206.318636363 L 386.0,206.318636363 L 386.0,173.681363637 L 380.0,173.681363637 L 380.0,140.864090908 L 386.0,140.864090908 L 386.0,108.226818183 L 380.0,108.226818183 L 380.0,75.4095454537 L 386.0,75.4095454537 L 386.0,42.7722727281 L 380.0,42.7722727281 L 380.0,16.0 " />
  </g>
  <g
     id="g867"
     inkscape:groupmode="layer"
     inkscape:label="newlayer" />
</svg>
