0
SECTION
2
HEADER
9
$INSUNITS
70
4
9
$ACADVER
1
AC1014
9
$HANDSEED
5
FFFF
0
ENDSEC
0
SECTION
2
TABLES
0
TABLE
2
VPORT
5
8
100
AcDbSymbolTable
0
ENDTAB
0
TABLE
2
LTYPE
5
5
100
AcDbSymbolTable
0
LTYPE
5
14
100
AcDbSymbolTableRecord
100
AcDbLinetypeTableRecord
2
BYBLOCK
70
0
0
LTYPE
5
15
100
AcDbSymbolTableRecord
100
AcDbLinetypeTableRecord
2
BYLAYER
70
0
0
ENDTAB
0
TABLE
2
LAYER
5
2
100
AcDbSymbolTable
70
2
0
LAYER
5
50
100
AcDbSymbolTableRecord
100
AcDbLayerTableRecord
2
0
70
0
6
CONTINUOUS
0
ENDTAB
0
TABLE
2
STYLE
5
3
100
AcDbSymbolTable
70
1
0
STYLE
5
11
100
AcDbSymbolTableRecord
100
AcDbTextStyleTableRecord
2
STANDARD
70
0
0
ENDTAB
0
TABLE
2
VIEW
5
6
100
AcDbSymbolTable
70
0
0
ENDTAB
0
TABLE
2
UCS
5
7
100
AcDbSymbolTable
70
0
0
ENDTAB
0
TABLE
2
APPID
5
9
100
AcDbSymbolTable
70
2
0
APPID
5
12
100
AcDbSymbolTableRecord
100
AcDbRegAppTableRecord
2
ACAD
70
0
0
ENDTAB
0
TABLE
2
DIMSTYLE
5
A
100
AcDbSymbolTable
70
1
0
ENDTAB
0
TABLE
2
BLOCK_RECORD
5
1
100
AcDbSymbolTable
70
1
0
BLOCK_RECORD
5
1F
100
AcDbSymbolTableRecord
100
AcDbBlockTableRecord
2
*MODEL_SPACE
0
BLOCK_RECORD
5
1B
100
AcDbSymbolTableRecord
100
AcDbBlockTableRecord
2
*PAPER_SPACE
0
ENDTAB
0
ENDSEC
0
SECTION
2
BLOCKS
0
BLOCK
5
20
100
AcDbEntity
100
AcDbBlockBegin
2
*MODEL_SPACE
0
ENDBLK
5
21
100
AcDbEntity
100
AcDbBlockEnd
0
BLOCK
5
1C
100
AcDbEntity
100
AcDbBlockBegin
2
*PAPER_SPACE
0
ENDBLK
5
1D
100
AcDbEntity
100
AcDbBlockEnd
0
ENDSEC
0
SECTION
2
ENTITIES
0
LWPOLYLINE
5
100
100
AcDbEntity
8
0
100
AcDbPolyline
90
52
70
1
43
0.0
10
-6.0000000000000009
20
114.045
10
0
20
114.045
10
-1.3322676295501878e-14
20
137.99999999999997
10
26.682272999999981
20
137.99999999999997
10
26.682272999999981
20
143.99999999999991
10
59.499544999999983
20
143.99999999999991
10
59.499544999999983
20
137.99999999999997
10
92.136818000000005
20
137.99999999999997
10
92.136818000000005
20
143.99999999999991
10
124.95409100000001
20
143.99999999999991
10
124.95409100000001
20
137.99999999999997
10
157.591364
20
137.99999999999997
10
157.591364
20
143.99999999999991
10
190.408636
20
143.99999999999991
10
190.408636
20
137.99999999999997
10
223.04590899999999
20
137.99999999999997
10
223.04590899999999
20
143.99999999999991
10
255.86318199999999
20
143.99999999999991
10
255.86318199999999
20
137.99999999999997
10
288.50045499999999
20
137.99999999999997
10
288.50045499999999
20
143.99999999999991
10
321.31772699999999
20
143.99999999999991
10
321.31772699999999
20
137.99999999999997
10
348
20
137.99999999999997
10
347.99999964549789
20
0
10
321.31771964549415
20
6.8543357656380977e-08
10
321.31771963008066
20
-5.9999999314541697
10
288.50044863008094
20
-5.9999998471528215
10
288.50044864549659
20
1.5284356891243078e-07
10
255.86317564549685
20
2.3668278004151944e-07
10
255.86317563008404
20
-5.9999997633143209
10
223.04590463008469
20
-5.9999996790115517
10
223.04590464549793
20
3.2098611768560659e-07
10
190.40863164549793
20
4.0482589724888385e-07
10
190.40863163008464
20
-5.9999995951712037
10
157.59136063008452
20
-5.9999995108688609
10
157.59136064549736
20
4.8912866645878239e-07
10
124.9540876454972
20
5.729685881306068e-07
10
124.95408763008412
20
-5.9999994270285129
10
92.136816630084027
20
-5.9999993427237541
10
92.136816645497177
20
6.5727334686016547e-07
10
59.499543645497155
20
7.4111369485763134e-07
10
59.499543630083338
20
-5.9999992588831219
10
26.682272630083336
20
-5.9999991745804948
10
26.682272645496457
20
8.2541944834702008e-07
10
-3.5450354207711143e-07
20
8.939626638948539e-07
10
0
20
23.955000000000002
10
-6.0000000000000009
20
23.955000000000005
10
-6.0000000000000089
20
54.045000000000002
10
0
20
54.045000000000002
10
0
20
83.954999999999998
10
-6.0000000000000018
20
83.954999999999998
0
CIRCLE
5
101
100
AcDbEntity
8
0
100
AcDbCircle
10
340.9999998998278
20
99.000000008992259
30
0
40
0.49999999999996514
0
CIRCLE
5
102
100
AcDbEntity
8
0
100
AcDbCircle
10
340.99999974569823
20
39.000000008992259
30
0
40
0.4999999999999572
0
LINE
5
103
100
AcDbEntity
8
0
100
AcDbLine
10
340.99999964551222
20
1.7984405076276744e-08
30
0
11
340.99999974569823
21
39.000000008992259
31
0
0
LINE
5
104
100
AcDbEntity
8
0
100
AcDbLine
10
340.99999999999994
20
137.99999999999997
30
0
11
340.9999998998278
21
99.000000008992259
31
0
0
ENDSEC
0
SECTION
2
OBJECTS
0
DICTIONARY
5
C
100
AcDbDictionary
3
ACAD_GROUP
350
D
3
ACAD_MLINESTYLE
350
17
0
DICTIONARY
5
D
100
AcDbDictionary
0
DICTIONARY
5
1A
330
C
100
AcDbDictionary
0
DICTIONARY
5
17
100
AcDbDictionary
0
ENDSEC
0
EOF
