0
SECTION
2
HEADER
9
$INSUNITS
70
4
9
$ACADVER
1
AC1014
9
$HANDSEED
5
FFFF
0
ENDSEC
0
SECTION
2
TABLES
0
TABLE
2
VPORT
5
8
100
AcDbSymbolTable
0
ENDTAB
0
TABLE
2
LTYPE
5
5
100
AcDbSymbolTable
0
LTYPE
5
14
100
AcDbSymbolTableRecord
100
AcDbLinetypeTableRecord
2
BYBLOCK
70
0
0
LTYPE
5
15
100
AcDbSymbolTableRecord
100
AcDbLinetypeTableRecord
2
BYLAYER
70
0
0
ENDTAB
0
TABLE
2
LAYER
5
2
100
AcDbSymbolTable
70
2
0
LAYER
5
50
100
AcDbSymbolTableRecord
100
AcDbLayerTableRecord
2
0
70
0
6
CONTINUOUS
0
ENDTAB
0
TABLE
2
STYLE
5
3
100
AcDbSymbolTable
70
1
0
STYLE
5
11
100
AcDbSymbolTableRecord
100
AcDbTextStyleTableRecord
2
STANDARD
70
0
0
ENDTAB
0
TABLE
2
VIEW
5
6
100
AcDbSymbolTable
70
0
0
ENDTAB
0
TABLE
2
UCS
5
7
100
AcDbSymbolTable
70
0
0
ENDTAB
0
TABLE
2
APPID
5
9
100
AcDbSymbolTable
70
2
0
APPID
5
12
100
AcDbSymbolTableRecord
100
AcDbRegAppTableRecord
2
ACAD
70
0
0
ENDTAB
0
TABLE
2
DIMSTYLE
5
A
100
AcDbSymbolTable
70
1
0
ENDTAB
0
TABLE
2
BLOCK_RECORD
5
1
100
AcDbSymbolTable
70
1
0
BLOCK_RECORD
5
1F
100
AcDbSymbolTableRecord
100
AcDbBlockTableRecord
2
*MODEL_SPACE
0
BLOCK_RECORD
5
1B
100
AcDbSymbolTableRecord
100
AcDbBlockTableRecord
2
*PAPER_SPACE
0
ENDTAB
0
ENDSEC
0
SECTION
2
BLOCKS
0
BLOCK
5
20
100
AcDbEntity
100
AcDbBlockBegin
2
*MODEL_SPACE
0
ENDBLK
5
21
100
AcDbEntity
100
AcDbBlockEnd
0
BLOCK
5
1C
100
AcDbEntity
100
AcDbBlockBegin
2
*PAPER_SPACE
0
ENDBLK
5
1D
100
AcDbEntity
100
AcDbBlockEnd
0
ENDSEC
0
SECTION
2
ENTITIES
0
LWPOLYLINE
5
100
100
AcDbEntity
8
0
100
AcDbPolyline
90
44
70
1
43
0.0
10
6.0000000000000009
20
-1126.9999999999995
10
32.682273000000002
20
-1126.9999999999995
10
32.682273000000023
20
-1132.9999999999995
10
65.499544000000029
20
-1132.9999999999995
10
65.499544000000029
20
-1127.0000000000007
10
98.136817000000036
20
-1127.0000000000007
10
98.13681700000005
20
-1132.9999999999995
10
130.95408800000004
20
-1133.0000000000016
10
130.95408800000004
20
-1127.0000000000045
10
163.59136100000003
20
-1127.0000000000045
10
163.59136100000006
20
-1133.0000000000016
10
196.4086320000001
20
-1133.0000000000014
10
196.40863200000001
20
-1127.0000000000041
10
229.04590500000006
20
-1127.0000000000036
10
229.04590500000009
20
-1133.0000000000009
10
261.86317600000012
20
-1133.0000000000005
10
261.86317600000018
20
-1127.0000000000034
10
294.50044900000017
20
-1127.0000000000018
10
294.50044900000017
20
-1132.9999999999991
10
327.31772000000024
20
-1132.999999999997
10
327.31772000000029
20
-1127
10
354
20
-1127
10
354
20
-989
10
327.31772699999999
20
-989
10
327.31772699999999
20
-983.00000000000011
10
294.50045499999999
20
-983.00000000000011
10
294.50045499999999
20
-989
10
261.86318200000005
20
-989
10
261.86318200000005
20
-983.00000000000011
10
229.04590900000002
20
-983.00000000000011
10
229.04590900000002
20
-989
10
196.40863600000003
20
-989
10
196.40863600000003
20
-983.00000000000011
10
163.591364
20
-983.00000000000011
10
163.591364
20
-989
10
130.95409100000001
20
-989
10
130.95409100000001
20
-983.00000000000011
10
98.136818000000005
20
-983.00000000000011
10
98.136818000000005
20
-989
10
65.499544999999998
20
-989
10
65.499544999999998
20
-983.00000000000011
10
32.682272999999995
20
-983.00000000000011
10
32.682272999999995
20
-989
10
6.0000000000000009
20
-989
0
LINE
5
101
100
AcDbEntity
8
0
100
AcDbLine
10
349.00000000016189
20
-989
30
0
11
349.00000000018343
21
-1127
31
0
0
LINE
5
102
100
AcDbEntity
8
0
100
AcDbLine
10
349.00000000016189
20
-989
30
0
11
349.00000000013858
21
-1013.0000000000001
31
0
0
LINE
5
103
100
AcDbEntity
8
0
100
AcDbLine
10
349.00000000013858
20
-1013.0000000000001
30
0
11
309.00000000013858
21
-1013.0000000000001
31
0
0
LINE
5
104
100
AcDbEntity
8
0
100
AcDbLine
10
341.00000000016195
20
-1013.0000000000001
30
0
11
341.00000000016195
21
-1067.0000000000002
31
0
0
LINE
5
105
100
AcDbEntity
8
0
100
AcDbLine
10
349.00000000013858
20
-1013.0000000000001
30
0
11
349.00000000013858
21
-1021.5
31
0
0
LINE
5
106
100
AcDbEntity
8
0
100
AcDbLine
10
349.00000000013858
20
-1021.5
30
0
11
341.00000000016195
21
-1021.5
31
0
0
LINE
5
107
100
AcDbEntity
8
0
100
AcDbLine
10
349.00000000017269
20
-1058.5000000000002
30
0
11
341.00000000016195
21
-1058.5000000000002
31
0
0
LINE
5
108
100
AcDbEntity
8
0
100
AcDbLine
10
309.00000000013858
20
-1013.0000000000001
30
0
11
309.00000000013858
21
-1067.0000000000002
31
0
0
LINE
5
109
100
AcDbEntity
8
0
100
AcDbLine
10
317.00000000013864
20
-1013.0000000000001
30
0
11
317.00000000013864
21
-1067.000015899539
31
0
0
LINE
5
110
100
AcDbEntity
8
0
100
AcDbLine
10
309.00000000013858
20
-1021.5
30
0
11
317.00000000013864
21
-1021.5
31
0
0
LINE
5
111
100
AcDbEntity
8
0
100
AcDbLine
10
309.00000000013858
20
-1058.5000000000002
30
0
11
317.00000000013864
21
-1058.5000000000002
31
0
0
LINE
5
112
100
AcDbEntity
8
0
100
AcDbLine
10
303.00003725483174
20
-1000.0000001954401
30
0
11
303.00003966790155
21
-1075.0000002039844
31
0
0
LINE
5
113
100
AcDbEntity
8
0
100
AcDbLine
10
303.00003725483174
20
-1000.0000001954401
30
0
11
6.0000000000000009
21
-1000.00000019544
31
0
0
LINE
5
114
100
AcDbEntity
8
0
100
AcDbLine
10
309.00000000013858
20
-994.00000157932141
30
0
11
5.999999999999992
21
-994.00000003066657
31
0
0
LINE
5
115
100
AcDbEntity
8
0
100
AcDbLine
10
341.00000000016195
20
-1067.0000000000002
30
0
11
349.00000000017405
21
-1067.0000000000002
31
0
0
LINE
5
116
100
AcDbEntity
8
0
100
AcDbLine
10
349.00000000017604
20
-1079.8000000000002
30
0
11
342.50000000016195
21
-1079.8000000000002
31
0
0
LINE
5
117
100
AcDbEntity
8
0
100
AcDbLine
10
342.50000000016195
20
-1079.8000000000002
30
0
11
342.50000000016195
21
-1067.0000041840894
31
0
0
LINE
5
118
100
AcDbEntity
8
0
100
AcDbLine
10
341.00000000016195
20
-1067.0000000000002
30
0
11
342.50000000016195
21
-1067.0000041840894
31
0
0
CIRCLE
5
119
100
AcDbEntity
8
0
100
AcDbCircle
10
344.00000000016189
20
-1070.1500000000001
30
0
40
1
0
CIRCLE
5
120
100
AcDbEntity
8
0
100
AcDbCircle
10
344.00000000016189
20
-1076.6500000000001
30
0
40
1
0
CIRCLE
5
121
100
AcDbEntity
8
0
100
AcDbCircle
10
344.00000000016189
20
-1070.1500000000001
30
0
40
0.4999999999999894
0
CIRCLE
5
122
100
AcDbEntity
8
0
100
AcDbCircle
10
344.00000000016189
20
-1076.6500000000001
30
0
40
0.49999999999997302
0
LINE
5
123
100
AcDbEntity
8
0
100
AcDbLine
10
342.49999998482872
20
-1075.0000004058707
30
0
11
342.50000000016195
21
-1072.0000004058707
31
0
0
LINE
5
124
100
AcDbEntity
8
0
100
AcDbLine
10
342.50000000016195
20
-1072.0000004058707
30
0
11
308.99999960149825
21
-1072.0000002346508
31
0
0
LINE
5
125
100
AcDbEntity
8
0
100
AcDbLine
10
308.99999960149825
20
-1072.0000002346508
30
0
11
309.00000000013858
21
-994.00000157932141
31
0
0
LINE
5
126
100
AcDbEntity
8
0
100
AcDbLine
10
334.00000000016189
20
-1013.0000000000001
30
0
11
334.00000000016189
21
-1000.0000000000001
31
0
0
LINE
5
127
100
AcDbEntity
8
0
100
AcDbLine
10
334.00000000016189
20
-1000.0000000000001
30
0
11
324.00000000016189
21
-1000.0000000000001
31
0
0
LINE
5
128
100
AcDbEntity
8
0
100
AcDbLine
10
324.00000000016189
20
-1000.0000000000001
30
0
11
324.00000000016189
21
-1013.0000000000001
31
0
0
LINE
5
129
100
AcDbEntity
8
0
100
AcDbLine
10
354
20
-992
30
0
11
324.00000000000006
21
-992
31
0
0
LINE
5
130
100
AcDbEntity
8
0
100
AcDbLine
10
354
20
-1008
30
0
11
324
21
-1008
31
0
0
LINE
5
131
100
AcDbEntity
8
0
100
AcDbLine
10
354
20
-1003.9999999999999
30
0
11
324
21
-1003.9999999999999
31
0
0
LINE
5
132
100
AcDbEntity
8
0
100
AcDbLine
10
354
20
-1012
30
0
11
324
21
-1012
31
0
0
LINE
5
133
100
AcDbEntity
8
0
100
AcDbLine
10
354
20
-999.99999999999989
30
0
11
324.00000000000006
21
-999.99999999999989
31
0
0
LINE
5
134
100
AcDbEntity
8
0
100
AcDbLine
10
346.99999999999966
20
-1127
30
0
11
346.99999999999977
21
-1088
31
0
0
LINE
5
135
100
AcDbEntity
8
0
100
AcDbLine
10
346.99999999999994
20
-989
30
0
11
346.99999999999989
21
-1028
31
0
0
CIRCLE
5
136
100
AcDbEntity
8
0
100
AcDbCircle
10
346.99999999999977
20
-1088
30
0
40
0.4999999999999572
0
CIRCLE
5
137
100
AcDbEntity
8
0
100
AcDbCircle
10
346.99999999999989
20
-1028
30
0
40
0.49999999999996514
0
LINE
5
138
100
AcDbEntity
8
0
100
AcDbLine
10
344.00000000016189
20
-1070.1500000000001
30
0
11
344.00000000016212
21
-1067.0000000000002
31
0
0
LINE
5
139
100
AcDbEntity
8
0
100
AcDbLine
10
344.00000000016189
20
-1070.1500000000001
30
0
11
344.00000000016189
21
-1076.6500000000001
31
0
0
LINE
5
140
100
AcDbEntity
8
0
100
AcDbLine
10
344.00000000016189
20
-1076.6500000000001
30
0
11
344.00000000016206
21
-1079.8000000000002
31
0
0
LINE
5
141
100
AcDbEntity
8
0
100
AcDbLine
10
349.00000000016189
20
-1067.0000000000002
30
0
11
349.00000000016189
21
-1079.8000000000002
31
0
0
LINE
5
142
100
AcDbEntity
8
0
100
AcDbLine
10
342.49999998482872
20
-1075.0000004058707
30
0
11
303.00003966790155
21
-1075.0000002039844
31
0
0
LINE
5
143
100
AcDbEntity
8
0
100
AcDbLine
10
309.00000000013858
20
-1067.0000000000002
30
0
11
349.00000000017405
21
-1067.0000000000002
31
0
0
LWPOLYLINE
5
144
100
AcDbEntity
8
0
100
AcDbPolyline
90
4
70
1
43
0.0
10
314.49999999247279
20
-1023.0000000076634
10
314.49999997202889
20
-1027.0000000076604
42
-0.99999999999999989
10
311.49999997202929
20
-1026.9999999923273
10
311.49999999247393
20
-1022.9999999923243
42
-0.99999999999999989
0
LINE
5
145
100
AcDbEntity
8
0
100
AcDbLine
10
312.99999997202912
20
-1026.9999999999939
30
0
11
312.99999999247336
21
-1022.9999999999939
31
0
0
LWPOLYLINE
5
146
100
AcDbEntity
8
0
100
AcDbPolyline
90
4
70
1
43
0.0
10
346.50000000013875
20
-1023.0000000000001
10
346.50000000013875
20
-1027.0000000000002
42
-0.99999999999999989
10
343.50000000013864
20
-1027.0000000000002
10
343.50000000013864
20
-1023.0000000000001
42
-0.99999999999999989
0
LINE
5
147
100
AcDbEntity
8
0
100
AcDbLine
10
345.0000000001387
20
-1027.0000000000002
30
0
11
345.0000000001387
21
-1023.0000000000001
31
0
0
LWPOLYLINE
5
148
100
AcDbEntity
8
0
100
AcDbPolyline
90
4
70
1
43
0.0
10
314.50000000013858
20
-1053
10
314.50000000013858
20
-1057.0000000000002
42
-0.99999999999999989
10
311.50000000013858
20
-1057.0000000000002
10
311.50000000013858
20
-1053
42
-0.99999999999999989
0
LINE
5
149
100
AcDbEntity
8
0
100
AcDbLine
10
313.00000000013858
20
-1057.0000000000002
30
0
11
313.00000000013858
21
-1053
31
0
0
LWPOLYLINE
5
150
100
AcDbEntity
8
0
100
AcDbPolyline
90
4
70
1
43
0.0
10
346.50000000014415
20
-1053.0000000000002
10
346.5000000001441
20
-1057.0000000000002
42
-0.99999999999999989
10
343.50000000014427
20
-1057.0000000000002
10
343.50000000014433
20
-1053.0000000000002
42
-0.99999999999999989
0
LINE
5
151
100
AcDbEntity
8
0
100
AcDbLine
10
345.00000000014415
20
-1057.0000000000002
30
0
11
345.00000000014427
21
-1053.0000000000002
31
0
0
CIRCLE
5
152
100
AcDbEntity
8
0
100
AcDbCircle
10
312.99999999247336
20
-1022.9999999999939
30
0
40
0.50000000000000711
0
CIRCLE
5
153
100
AcDbEntity
8
0
100
AcDbCircle
10
313.00000000013858
20
-1057.0000000000002
30
0
40
0.50000000000000844
0
CIRCLE
5
154
100
AcDbEntity
8
0
100
AcDbCircle
10
345.00000000014415
20
-1057.0000000000002
30
0
40
0.50000000000001021
0
CIRCLE
5
155
100
AcDbEntity
8
0
100
AcDbCircle
10
345.0000000001387
20
-1023.0000000000001
30
0
40
0.50000000000002309
0
ENDSEC
0
SECTION
2
OBJECTS
0
DICTIONARY
5
C
100
AcDbDictionary
3
ACAD_GROUP
350
D
3
ACAD_MLINESTYLE
350
17
0
DICTIONARY
5
D
100
AcDbDictionary
0
DICTIONARY
5
1A
330
C
100
AcDbDictionary
0
DICTIONARY
5
17
100
AcDbDictionary
0
ENDSEC
0
EOF
