<?xml version="1.0" encoding="UTF-8" standalone="no"?>
<svg
   xmlns:dc="http://purl.org/dc/elements/1.1/"
   xmlns:cc="http://creativecommons.org/ns#"
   xmlns:rdf="http://www.w3.org/1999/02/22-rdf-syntax-ns#"
   xmlns:svg="http://www.w3.org/2000/svg"
   xmlns="http://www.w3.org/2000/svg"
   xmlns:sodipodi="http://sodipodi.sourceforge.net/DTD/sodipodi-0.dtd"
   xmlns:inkscape="http://www.inkscape.org/namespaces/inkscape"
   width="270.70001mm"
   height="66.699997mm"
   version="1.1"
   id="svg2548"
   sodipodi:docname="card_holder_v3_part2.svg"
   inkscape:version="0.92.2 (5c3e80d, 2017-08-06)">
  <metadata
     id="metadata2552">
    <rdf:RDF>
      <cc:Work
         rdf:about="">
        <dc:format>image/svg+xml</dc:format>
        <dc:type
           rdf:resource="http://purl.org/dc/dcmitype/StillImage" />
        <dc:title></dc:title>
      </cc:Work>
    </rdf:RDF>
  </metadata>
  <sodipodi:namedview
     pagecolor="#ffffff"
     bordercolor="#666666"
     borderopacity="1"
     objecttolerance="10"
     gridtolerance="10"
     guidetolerance="10"
     inkscape:pageopacity="0"
     inkscape:pageshadow="2"
     inkscape:window-width="1920"
     inkscape:window-height="1017"
     id="namedview2550"
     showgrid="false"
     inkscape:measure-start="40.0829,606.614"
     inkscape:measure-end="40.0829,379.842"
     fit-margin-top="0.3"
     fit-margin-left="0.3"
     fit-margin-right="0.3"
     fit-margin-bottom="0.3"
     units="mm"
     inkscape:document-units="mm"
     inkscape:zoom="1.0683582"
     inkscape:cx="386.35712"
     inkscape:cy="39.026299"
     inkscape:window-x="-8"
     inkscape:window-y="-8"
     inkscape:window-maximized="1"
     inkscape:current-layer="g2546" />
  <desc
     id="desc2282">C:\Users\maxen\OneDrive\ESEO\2017-2018 (I3)\PFE\Depot_GIT\Méca\Card_holder\card_holder_v3.dxf - scale = 1.000000, origin = (0.000000, 0.000000), method = manual</desc>
  <defs
     id="defs2296">
    <marker
       id="DistanceX"
       orient="auto"
       refX="0"
       refY="0"
       style="overflow:visible">
      <path
         d="M 3,-3 -3,3 M 0,-5 V 5"
         style="stroke:#000000;stroke-width:0.5"
         id="path2284"
         inkscape:connector-curvature="0" />
    </marker>
    <pattern
       height="8"
       id="Hatch"
       patternUnits="userSpaceOnUse"
       width="8"
       x="0"
       y="0">
      <path
         d="M8 4 l-4,4"
         linecap="square"
         stroke="#000000"
         stroke-width="0.25"
         id="path2287" />
      <path
         d="M6 2 l-4,4"
         linecap="square"
         stroke="#000000"
         stroke-width="0.25"
         id="path2289" />
      <path
         d="M4 0 l-4,4"
         linecap="square"
         stroke="#000000"
         stroke-width="0.25"
         id="path2291" />
    </pattern>
    <symbol
       id="*MODEL_SPACE" />
    <symbol
       id="*PAPER_SPACE" />
  </defs>
  <g
     inkscape:groupmode="layer"
     inkscape:label="0"
     id="g2546"
     transform="translate(-0.56692936,-503.2441)">
    <path
       d="m 364.72441,562.13204 h -11.33858 v -19.18836 h 11.33858 v -19.18839 h -11.33858 v -7.84978 h -7.75798 v -11.33858 h -19.09656 v 11.33858 h -19.09656 v -11.33858 h -19.09656 v 11.33858 h -19.09656 v -11.33858 h -19.09656 v 11.33858 h -19.09656 v -11.33858 h -19.09656 v 11.33858 h -19.09656 v -11.33858 h -19.09656 v 11.33858 h -19.09656 v -11.33858 h -19.09656 v 11.33858 H 116.46912 V 504.56693 H 97.372566 v 11.33858 H 78.276004 V 504.56693 H 59.179446 v 11.33858 H 40.082884 V 504.56693 H 20.986326 v 11.33858 h -7.75798 v 7.84978 H 1.889764 v 19.18839 h 11.338582 v 19.18836 H 1.889764 v 19.18836 h 11.338582 v 19.1884 H 1.889764 v 19.18836 h 11.338582 v 19.18836 H 1.889764 v 19.18836 h 11.338582 v 19.18839 H 1.889764 v 19.18836 h 11.338582 v 19.18836 H 1.889764 v 19.1884 h 11.338582 v 7.84977 h 7.75798 v 11.33859 h 19.096558 v -11.33859 h 19.096562 v 11.33859 h 19.096558 v -11.33859 h 19.096562 v 11.33859 h 19.096554 v -11.33859 h 19.09657 v 11.33859 h 19.09656 v -11.33859 h 19.09656 v 11.33859 h 19.09656 v -11.33859 h 19.09656 v 11.33859 h 19.09656 v -11.33859 h 19.09656 v 11.33859 h 19.09656 v -11.33859 h 19.09656 v 11.33859 h 19.09656 v -11.33859 h 19.09656 v 11.33859 h 19.09656 v -11.33859 h 7.75798 v -7.84977 h 11.33858 v -19.1884 h -11.33858 v -19.18836 h 11.33858 v -19.18836 h -11.33858 v -19.18839 h 11.33858 v -19.18836 h -11.33858 v -19.18836 h 11.33858 V 600.5088 h -11.33858 v -19.1884 h 11.33858 z"
       style="fill:none;stroke:#ff0000;stroke-width:0.37795275;stroke-miterlimit:4;stroke-dasharray:none;stroke-opacity:1"
       id="path2300"
       inkscape:connector-curvature="0" />
    <path
       d="m 579.14959,504.56693 h -19.14958 v 11.33858 h -19.14962 v -11.33858 h -19.14961 v 11.33858 h -19.14959 v -11.33858 h -19.14962 v 11.33858 h -19.14961 v -11.33858 h -19.14959 v 11.33858 h -19.14961 v -11.33858 h -19.14962 v 11.33858 h -19.14958 v -11.33858 h -19.14962 v 19.18836 h 11.33858 v 19.18839 h -11.33858 v 19.18836 h 11.33858 v 19.18836 h -11.33858 v 19.1884 h 11.33858 v 19.18836 h -11.33858 v 19.18836 h 11.33858 v 19.18836 h -11.33858 v 19.18839 h 11.33858 v 19.18836 h -11.33858 v 19.18836 h 11.33858 v 19.1884 h -11.33858 v 19.18836 h 19.14962 v -11.33859 h 19.14958 v 11.33859 h 19.14962 v -11.33859 h 19.14961 v 11.33859 h 19.14959 v -11.33859 h 19.14961 v 11.33859 h 19.14962 v -11.33859 h 19.14959 v 11.33859 h 19.14961 v -11.33859 h 19.14962 v 11.33859 h 19.14958 v -11.33859 h 19.14962 v 11.33859 h 19.14962 v -11.33859 h 19.14958 v 11.33859 h 19.14962 v -19.18836 h -11.33858 v -19.1884 h 11.33858 v -19.18836 h -11.33858 v -19.18836 h 11.33858 v -19.18839 h -11.33858 v -19.18836 h 11.33858 V 619.69716 H 644.40945 V 600.5088 h 11.33858 v -19.1884 h -11.33858 v -19.18836 h 11.33858 v -19.18836 h -11.33858 v -19.18839 h 11.33858 v -19.18836 h -19.14962 v 11.33858 h -19.14958 v -11.33858 h -19.14962 v 11.33858 h -19.14962 z"
       style="fill:none;stroke:#ff0000;stroke-width:0.37795275;stroke-miterlimit:4;stroke-dasharray:none;stroke-opacity:1"
       id="path2302"
       inkscape:connector-curvature="0" />
    <path
       d="m 812.30003,515.90551 v -11.33858 h -19.09655 v 11.33858 h -19.09656 v -11.33858 h -19.09655 v 11.33858 h -19.09656 v -11.33858 h -19.09659 v 11.33858 h -19.09655 v -11.33858 h -19.09656 v 11.33858 h -7.75797 v 7.84978 h -11.33858 v 19.18839 h 11.33858 v 19.18836 h -11.33858 v 19.18836 h 11.33858 v 19.1884 h -11.33858 v 19.18836 h 11.33858 v 19.18836 h -11.33858 v 19.18836 h 11.33858 v 19.18839 h -11.33858 v 19.18836 h 11.33858 v 19.18836 h -5.20508 v 19.1884 h 5.20508 v 7.84977 h 7.75797 v 11.33859 h 19.09656 v -11.33859 h 19.09655 v 11.33859 h 19.09659 v -11.33859 h 19.09656 v 11.33859 h 19.09655 v -11.33859 h 19.09656 v 11.33859 h 19.09655 v -11.33859 h 19.09656 v 11.33859 h 19.09659 v -11.33859 h 19.09655 v 11.33859 h 19.09656 v -11.33859 h 19.09655 v 11.33859 h 19.09656 v -11.33859 h 19.09655 v 11.33859 h 19.09659 v -11.33859 h 19.09656 v 11.33859 h 19.0966 v -11.33859 h 7.7579 v -7.84977 h 11.3386 v -19.1884 h -11.3386 v -19.18836 h 11.3386 v -19.18836 h -11.3386 v -19.18839 h 11.3386 v -19.18836 h -11.3386 v -19.18836 h 11.3386 V 600.5088 h -11.3386 v -19.1884 h 11.3386 v -19.18836 h -11.3386 v -19.18836 h 11.3386 v -19.18839 h -11.3386 v -7.84978 h -7.7579 v -11.33858 h -19.0966 v 11.33858 h -19.09656 v -11.33858 h -19.09659 v 11.33858 H 926.8794 v -11.33858 h -19.09656 v 11.33858 h -19.09655 v -11.33858 h -19.09656 v 11.33858 h -19.09655 v -11.33858 h -19.09659 v 11.33858 z"
       style="fill:none;stroke:#ff0000;stroke-width:0.37795275;stroke-miterlimit:4;stroke-dasharray:none;stroke-opacity:1"
       id="path2304"
       inkscape:connector-curvature="0" />
    <path
       d="m 701.10236,523.46457 h -11.33858 v 211.65354 h 11.33858 z"
       style="fill:none;stroke:#ff0000;stroke-width:0.37795275;stroke-miterlimit:4;stroke-dasharray:none;stroke-opacity:1"
       id="path2540"
       inkscape:connector-curvature="0" />
  </g>
</svg>
