<?xml version="1.0" encoding="UTF-8" standalone="no"?>
<svg
   xmlns:dc="http://purl.org/dc/elements/1.1/"
   xmlns:cc="http://creativecommons.org/ns#"
   xmlns:rdf="http://www.w3.org/1999/02/22-rdf-syntax-ns#"
   xmlns:svg="http://www.w3.org/2000/svg"
   xmlns="http://www.w3.org/2000/svg"
   xmlns:sodipodi="http://sodipodi.sourceforge.net/DTD/sodipodi-0.dtd"
   xmlns:inkscape="http://www.inkscape.org/namespaces/inkscape"
   width="347.26459mm"
   height="255.26459mm"
   version="1.1"
   id="svg4800"
   sodipodi:docname="card_holder_v2.svg"
   inkscape:version="0.92.2 (5c3e80d, 2017-08-06)">
  <metadata
     id="metadata4804">
    <rdf:RDF>
      <cc:Work
         rdf:about="">
        <dc:format>image/svg+xml</dc:format>
        <dc:type
           rdf:resource="http://purl.org/dc/dcmitype/StillImage" />
        <dc:title></dc:title>
      </cc:Work>
    </rdf:RDF>
  </metadata>
  <sodipodi:namedview
     pagecolor="#ffffff"
     bordercolor="#666666"
     borderopacity="1"
     objecttolerance="10"
     gridtolerance="10"
     guidetolerance="10"
     inkscape:pageopacity="0"
     inkscape:pageshadow="2"
     inkscape:window-width="1920"
     inkscape:window-height="1017"
     id="namedview4802"
     showgrid="false"
     inkscape:measure-start="391.263,154.961"
     inkscape:measure-end="636.769,154.961"
     fit-margin-top="0"
     fit-margin-left="0"
     fit-margin-right="0"
     fit-margin-bottom="0"
     units="mm"
     inkscape:document-units="mm"
     inkscape:zoom="0.75544334"
     inkscape:cx="872.04347"
     inkscape:cy="481.81637"
     inkscape:window-x="-8"
     inkscape:window-y="-8"
     inkscape:window-maximized="1"
     inkscape:current-layer="g4798" />
  <desc
     id="desc4534">C:\Users\maxen\OneDrive\ESEO\2017-2018 (I3)\PFE\Depot_GIT\Méca\Card_holder\card_holder_v2.dxf - scale = 1.000000, origin = (0.000000, 0.000000), method = manual</desc>
  <defs
     id="defs4548">
    <marker
       id="DistanceX"
       orient="auto"
       refX="0"
       refY="0"
       style="overflow:visible">
      <path
         d="M 3,-3 -3,3 M 0,-5 V 5"
         style="stroke:#000000;stroke-width:0.5"
         id="path4536"
         inkscape:connector-curvature="0" />
    </marker>
    <pattern
       height="8"
       id="Hatch"
       patternUnits="userSpaceOnUse"
       width="8"
       x="0"
       y="0">
      <path
         d="M8 4 l-4,4"
         linecap="square"
         stroke="#000000"
         stroke-width="0.25"
         id="path4539" />
      <path
         d="M6 2 l-4,4"
         linecap="square"
         stroke="#000000"
         stroke-width="0.25"
         id="path4541" />
      <path
         d="M4 0 l-4,4"
         linecap="square"
         stroke="#000000"
         stroke-width="0.25"
         id="path4543" />
    </pattern>
    <symbol
       id="*MODEL_SPACE" />
    <symbol
       id="*PAPER_SPACE" />
  </defs>
  <g
     inkscape:groupmode="layer"
     inkscape:label="0"
     id="g4798"
     transform="translate(-3.279528,-3.279528)">
    <path
       d="m 506.16063,604.72441 v 11.33858 h -22.58898 v -11.33858 h -15.71023 v 11.33858 H 445.27244 V 604.72441 H 429.5622 v 11.33858 h -22.58897 v -11.33858 h -15.71024 v 11.33858 H 370.3937 v 6.0383 h 11.33858 v 22.53592 H 370.3937 v 15.6572 h 11.33858 v 22.53592 H 370.3937 v 15.6572 h 11.33858 v 22.53592 H 370.3937 v 15.6572 h 11.33858 v 22.53593 H 370.3937 v 15.65719 h 11.33858 V 797.4097 H 370.3937 v 15.65719 h 11.33858 v 22.53593 H 370.3937 v 15.65719 h 11.33858 v 22.53593 H 370.3937 v 15.65719 h 11.33858 v 22.53593 H 370.3937 v 15.65719 h 11.33858 v 22.53593 H 370.3937 v 6.03829 h 20.86929 v 11.33858 h 15.71024 v -11.33858 h 22.58897 v 11.33858 h 15.71024 v -11.33858 h 22.58898 v 11.33858 h 15.71023 v -11.33858 h 22.58898 v 11.33858 h 15.71023 v -11.33858 h 22.58898 v 11.33858 h 15.71024 v -11.33858 h 22.58897 v 11.33858 h 15.71024 v -11.33858 h 22.58898 v 11.33858 h 15.71023 v -11.33858 h 20.86929 v -6.03829 h -11.33858 v -22.53593 h 11.33858 v -15.65719 h -11.33858 v -22.53593 h 11.33858 v -15.65719 h -11.33858 v -22.53593 h 11.33858 v -15.65719 h -11.33858 v -22.53593 h 11.33858 V 797.4097 h -11.33858 v -22.53593 h 11.33858 v -15.65719 h -11.33858 v -22.53593 h 11.33858 v -15.6572 h -11.33858 v -22.53592 h 11.33858 v -15.6572 h -11.33858 v -22.53592 h 11.33858 v -15.6572 h -11.33858 v -22.53592 h 11.33858 v -6.0383 H 636.7685 v -11.33858 h -15.71023 v 11.33858 h -22.58898 v -11.33858 h -15.71024 v 11.33858 h -22.58897 v -11.33858 h -15.71024 v 11.33858 h -22.58898 v -11.33858 z"
       style="fill:none;stroke:#ff0000;stroke-opacity:1;stroke-width:0.37795276;stroke-miterlimit:4;stroke-dasharray:none"
       id="path4550"
       inkscape:connector-curvature="0" />
    <path
       d="M 40.252963,370.3937 H 24.595774 v 11.33858 H 15.11811 v 11.34031 H 3.779528 v 17.51982 H 15.11811 v 24.39857 H 3.779528 v 17.51983 H 15.11811 v 24.39857 H 3.779528 V 494.4292 H 15.11811 v 24.39857 H 3.779528 V 536.3476 H 15.11811 v 24.39857 H 3.779528 V 578.266 H 15.11811 v 11.3403 h 9.477664 v 11.33858 H 40.252963 V 589.6063 h 22.535931 v 11.33858 H 78.446083 V 589.6063 h 22.535927 v 11.33858 H 116.6392 V 589.6063 h 22.53593 v 11.33858 h 15.6572 V 589.6063 h 22.53592 v 11.33858 h 15.6572 V 589.6063 h 22.53592 v 11.33858 h 15.6572 V 589.6063 h 22.53593 v 11.33858 h 15.65719 V 589.6063 h 22.53593 v 11.33858 h 15.65719 V 589.6063 h 22.53593 v 11.33858 h 15.65719 V 589.6063 h 9.47766 V 578.266 h 11.33858 V 560.74617 H 355.27559 V 536.3476 h 11.33858 V 518.82777 H 355.27559 V 494.4292 h 11.33858 v -17.51982 h -11.33858 v -24.39857 h 11.33858 v -17.51983 h -11.33858 v -24.39857 h 11.33858 v -17.51982 h -11.33858 v -11.34031 h -9.47766 V 370.3937 h -15.65719 v 11.33858 H 307.60481 V 370.3937 h -15.65719 v 11.33858 H 269.41169 V 370.3937 H 253.7545 v 11.33858 H 231.21857 V 370.3937 h -15.6572 v 11.33858 H 193.02545 V 370.3937 h -15.6572 v 11.33858 H 154.83233 V 370.3937 h -15.6572 v 11.33858 H 116.6392 V 370.3937 h -15.65719 v 11.33858 H 78.446083 V 370.3937 H 62.788894 v 11.33858 H 40.252963 Z"
       style="fill:none;stroke:#ff0000;stroke-opacity:1;stroke-width:0.37795276;stroke-miterlimit:4;stroke-dasharray:none"
       id="path4552"
       inkscape:connector-curvature="0" />
    <path
       d="M 563.60945,381.73228 H 541.02047 V 370.3937 h -15.71023 v 11.33858 H 502.72126 V 370.3937 h -15.71024 v 11.33858 H 464.42205 V 370.3937 h -15.71024 v 11.33858 H 426.12283 V 370.3937 H 410.4126 v 11.33858 H 387.82362 V 370.3937 H 370.3937 v 19.23952 h 11.33858 v 24.39856 H 370.3937 v 17.51983 h 11.33858 v 24.39857 H 370.3937 v 17.51983 h 11.33858 v 24.39856 H 370.3937 v 17.51983 h 11.33858 v 24.39857 H 370.3937 v 17.51983 h 11.33858 v 24.39857 H 370.3937 v 19.23951 h 17.42992 V 589.6063 h 22.58898 v 11.33858 h 15.71023 V 589.6063 h 22.58898 v 11.33858 h 15.71024 V 589.6063 h 22.58897 v 11.33858 h 15.71024 V 589.6063 h 22.58898 v 11.33858 h 15.71023 V 589.6063 h 22.58898 v 11.33858 h 15.71023 V 589.6063 h 22.58898 v 11.33858 H 617.6189 V 589.6063 h 22.58897 v 11.33858 h 17.42992 V 581.70537 H 646.29921 V 557.3068 h 11.33858 V 539.78697 H 646.29921 V 515.3884 h 11.33858 v -17.51983 h -11.33858 v -24.39856 h 11.33858 v -17.51983 h -11.33858 v -24.39857 h 11.33858 v -17.51983 h -11.33858 v -24.39856 h 11.33858 V 370.3937 h -17.42992 v 11.33858 H 617.6189 V 370.3937 h -15.71024 v 11.33858 H 579.31968 V 370.3937 h -15.71023 z"
       style="fill:none;stroke:#ff0000;stroke-opacity:1;stroke-width:0.37795276;stroke-miterlimit:4;stroke-dasharray:none"
       id="path4554"
       inkscape:connector-curvature="0" />
    <path
       d="M 835.00605,381.73228 H 812.47012 V 370.3937 h -15.65719 v 11.33858 H 774.277 V 370.3937 h -15.65719 v 11.33858 H 736.08388 V 370.3937 h -15.65719 v 11.33858 H 697.89076 V 370.3937 h -15.65719 v 11.33858 h -9.47766 v 11.34031 h -11.33859 v 17.51982 h 11.33859 v 24.39857 h -11.33859 v 17.51983 h 11.33859 v 24.39857 h -11.33859 v 17.51982 h 11.33859 v 24.39857 h -11.33859 v 17.51983 h 11.33859 v 24.39857 H 661.41732 V 578.266 h 11.33859 v 11.3403 h 9.47766 v 11.33858 h 15.65719 V 589.6063 h 22.53593 v 11.33858 h 15.65719 V 589.6063 h 22.53593 v 11.33858 H 774.277 V 589.6063 h 22.53593 v 11.33858 h 15.65719 V 589.6063 h 22.53593 v 11.33858 h 15.65719 V 589.6063 h 22.53593 v 11.33858 h 15.65719 V 589.6063 h 22.53593 v 11.33858 h 15.65719 V 589.6063 h 22.53593 v 11.33858 H 965.2426 V 589.6063 h 22.53593 v 11.33858 h 15.65717 V 589.6063 h 9.4777 V 578.266 h 11.3386 v -17.51983 h -11.3386 V 536.3476 h 11.3386 v -17.51983 h -11.3386 V 494.4292 h 11.3386 v -17.51982 h -11.3386 v -24.39857 h 11.3386 v -17.51983 h -11.3386 v -24.39857 h 11.3386 v -17.51982 h -11.3386 v -11.34031 h -9.4777 V 370.3937 h -15.65717 v 11.33858 H 965.2426 V 370.3937 h -15.65719 v 11.33858 H 927.04948 V 370.3937 h -15.65719 v 11.33858 H 888.85636 V 370.3937 h -15.65719 v 11.33858 H 850.66324 V 370.3937 h -15.65719 z"
       style="fill:none;stroke:#ff0000;stroke-opacity:1;stroke-width:0.37795276;stroke-miterlimit:4;stroke-dasharray:none"
       id="path4556"
       inkscape:connector-curvature="0" />
    <path
       d="m 1303.937,539.44337 h 11.3386"
       style="fill:none;stroke:#ff0000;stroke-opacity:1;stroke-width:0.37795276;stroke-miterlimit:4;stroke-dasharray:none"
       id="path4558"
       inkscape:connector-curvature="0" />
    <path
       d="m 1236.9575,631.18109 v 11.33859"
       style="fill:none;stroke:#ff0000;stroke-opacity:1;stroke-width:0.37795276;stroke-miterlimit:4;stroke-dasharray:none"
       id="path4560"
       inkscape:connector-curvature="0" />
    <path
       d="m 1236.9575,642.51968 h -15.7103"
       style="fill:none;stroke:#ff0000;stroke-opacity:1;stroke-width:0.37795276;stroke-miterlimit:4;stroke-dasharray:none"
       id="path4562"
       inkscape:connector-curvature="0" />
    <path
       d="m 1315.2756,581.36176 v 17.51983"
       style="fill:none;stroke:#ff0000;stroke-opacity:1;stroke-width:0.37795276;stroke-miterlimit:4;stroke-dasharray:none"
       id="path4564"
       inkscape:connector-curvature="0" />
    <path
       d="m 1275.2567,631.18109 v 11.33859"
       style="fill:none;stroke:#ff0000;stroke-opacity:1;stroke-width:0.37795276;stroke-miterlimit:4;stroke-dasharray:none"
       id="path4566"
       inkscape:connector-curvature="0" />
    <path
       d="m 1302.0473,598.88159 v 24.39857"
       style="fill:none;stroke:#ff0000;stroke-opacity:1;stroke-width:0.37795276;stroke-miterlimit:4;stroke-dasharray:none"
       id="path4568"
       inkscape:connector-curvature="0" />
    <path
       d="m 1083.7606,631.18109 v 11.33859"
       style="fill:none;stroke:#ff0000;stroke-opacity:1;stroke-width:0.37795276;stroke-miterlimit:4;stroke-dasharray:none"
       id="path4570"
       inkscape:connector-curvature="0" />
    <path
       d="m 1236.9575,423.30708 h 22.589"
       style="fill:none;stroke:#ff0000;stroke-opacity:1;stroke-width:0.37795276;stroke-miterlimit:4;stroke-dasharray:none"
       id="path4572"
       inkscape:connector-curvature="0" />
    <path
       d="M 1297.8457,642.51968 V 631.18109"
       style="fill:none;stroke:#ff0000;stroke-opacity:1;stroke-width:0.37795276;stroke-miterlimit:4;stroke-dasharray:none"
       id="path4574"
       inkscape:connector-curvature="0" />
    <path
       d="M 1106.3496,423.30708 V 411.9685"
       style="fill:none;stroke:#ff0000;stroke-opacity:1;stroke-width:0.37795276;stroke-miterlimit:4;stroke-dasharray:none"
       id="path4576"
       inkscape:connector-curvature="0" />
    <path
       d="m 1221.2472,411.9685 h 15.7103"
       style="fill:none;stroke:#ff0000;stroke-opacity:1;stroke-width:0.37795276;stroke-miterlimit:4;stroke-dasharray:none"
       id="path4578"
       inkscape:connector-curvature="0" />
    <path
       d="M 1315.2756,473.12641 H 1303.937"
       style="fill:none;stroke:#ff0000;stroke-opacity:1;stroke-width:0.37795276;stroke-miterlimit:4;stroke-dasharray:none"
       id="path4580"
       inkscape:connector-curvature="0" />
    <path
       d="m 1315.2756,455.60658 v 17.51983"
       style="fill:none;stroke:#ff0000;stroke-opacity:1;stroke-width:0.37795276;stroke-miterlimit:4;stroke-dasharray:none"
       id="path4582"
       inkscape:connector-curvature="0" />
    <path
       d="m 1315.2756,598.88159 h -13.2283"
       style="fill:none;stroke:#ff0000;stroke-opacity:1;stroke-width:0.37795276;stroke-miterlimit:4;stroke-dasharray:none"
       id="path4584"
       inkscape:connector-curvature="0" />
    <path
       d="m 1106.3496,411.9685 h 15.7102"
       style="fill:none;stroke:#ff0000;stroke-opacity:1;stroke-width:0.37795276;stroke-miterlimit:4;stroke-dasharray:none"
       id="path4586"
       inkscape:connector-curvature="0" />
    <path
       d="m 1275.2567,423.30708 h 22.589"
       style="fill:none;stroke:#ff0000;stroke-opacity:1;stroke-width:0.37795276;stroke-miterlimit:4;stroke-dasharray:none"
       id="path4588"
       inkscape:connector-curvature="0" />
    <path
       d="m 1028.0315,411.9685 h 17.4299"
       style="fill:none;stroke:#ff0000;stroke-opacity:1;stroke-width:0.37795276;stroke-miterlimit:4;stroke-dasharray:none"
       id="path4590"
       inkscape:connector-curvature="0" />
    <path
       d="M 1315.2756,556.9632 H 1303.937"
       style="fill:none;stroke:#ff0000;stroke-opacity:1;stroke-width:0.37795276;stroke-miterlimit:4;stroke-dasharray:none"
       id="path4592"
       inkscape:connector-curvature="0" />
    <path
       d="m 1315.2756,642.51968 h -17.4299"
       style="fill:none;stroke:#ff0000;stroke-opacity:1;stroke-width:0.37795276;stroke-miterlimit:4;stroke-dasharray:none"
       id="path4594"
       inkscape:connector-curvature="0" />
    <path
       d="M 1182.948,423.30708 V 411.9685"
       style="fill:none;stroke:#ff0000;stroke-opacity:1;stroke-width:0.37795276;stroke-miterlimit:4;stroke-dasharray:none"
       id="path4596"
       inkscape:connector-curvature="0" />
    <path
       d="m 1198.6583,423.30708 h 22.5889"
       style="fill:none;stroke:#ff0000;stroke-opacity:1;stroke-width:0.37795276;stroke-miterlimit:4;stroke-dasharray:none"
       id="path4598"
       inkscape:connector-curvature="0" />
    <path
       d="M 1315.2756,497.52497 V 515.0448"
       style="fill:none;stroke:#ff0000;stroke-opacity:1;stroke-width:0.37795276;stroke-miterlimit:4;stroke-dasharray:none"
       id="path4600"
       inkscape:connector-curvature="0" />
    <path
       d="m 1198.6583,411.9685 v 11.33858"
       style="fill:none;stroke:#ff0000;stroke-opacity:1;stroke-width:0.37795276;stroke-miterlimit:4;stroke-dasharray:none"
       id="path4602"
       inkscape:connector-curvature="0" />
    <path
       d="m 1160.3591,411.9685 v 11.33858"
       style="fill:none;stroke:#ff0000;stroke-opacity:1;stroke-width:0.37795276;stroke-miterlimit:4;stroke-dasharray:none"
       id="path4604"
       inkscape:connector-curvature="0" />
    <path
       d="m 1297.8457,411.9685 h 17.4299"
       style="fill:none;stroke:#ff0000;stroke-opacity:1;stroke-width:0.37795276;stroke-miterlimit:4;stroke-dasharray:none"
       id="path4606"
       inkscape:connector-curvature="0" />
    <path
       d="m 1122.0598,423.30708 h 22.589"
       style="fill:none;stroke:#ff0000;stroke-opacity:1;stroke-width:0.37795276;stroke-miterlimit:4;stroke-dasharray:none"
       id="path4608"
       inkscape:connector-curvature="0" />
    <path
       d="m 1302.0473,623.28016 h 13.2283"
       style="fill:none;stroke:#ff0000;stroke-opacity:1;stroke-width:0.37795276;stroke-miterlimit:4;stroke-dasharray:none"
       id="path4610"
       inkscape:connector-curvature="0" />
    <path
       d="M 1297.8457,423.30708 V 411.9685"
       style="fill:none;stroke:#ff0000;stroke-opacity:1;stroke-width:0.37795276;stroke-miterlimit:4;stroke-dasharray:none"
       id="path4612"
       inkscape:connector-curvature="0" />
    <path
       d="M 1068.0504,423.30708 V 411.9685"
       style="fill:none;stroke:#ff0000;stroke-opacity:1;stroke-width:0.37795276;stroke-miterlimit:4;stroke-dasharray:none"
       id="path4614"
       inkscape:connector-curvature="0" />
    <path
       d="M 1144.6488,423.30708 V 411.9685"
       style="fill:none;stroke:#ff0000;stroke-opacity:1;stroke-width:0.37795276;stroke-miterlimit:4;stroke-dasharray:none"
       id="path4616"
       inkscape:connector-curvature="0" />
    <path
       d="M 1144.6488,642.51968 V 631.18109"
       style="fill:none;stroke:#ff0000;stroke-opacity:1;stroke-width:0.37795276;stroke-miterlimit:4;stroke-dasharray:none"
       id="path4618"
       inkscape:connector-curvature="0" />
    <path
       d="m 1106.3496,631.18109 h -22.589"
       style="fill:none;stroke:#ff0000;stroke-opacity:1;stroke-width:0.37795276;stroke-miterlimit:4;stroke-dasharray:none"
       id="path4620"
       inkscape:connector-curvature="0" />
    <path
       d="m 1303.937,581.36176 h 11.3386"
       style="fill:none;stroke:#ff0000;stroke-opacity:1;stroke-width:0.37795276;stroke-miterlimit:4;stroke-dasharray:none"
       id="path4622"
       inkscape:connector-curvature="0" />
    <path
       d="m 1275.2567,642.51968 h -15.7102"
       style="fill:none;stroke:#ff0000;stroke-opacity:1;stroke-width:0.37795276;stroke-miterlimit:4;stroke-dasharray:none"
       id="path4624"
       inkscape:connector-curvature="0" />
    <path
       d="m 1083.7606,423.30708 h 22.589"
       style="fill:none;stroke:#ff0000;stroke-opacity:1;stroke-width:0.37795276;stroke-miterlimit:4;stroke-dasharray:none"
       id="path4626"
       inkscape:connector-curvature="0" />
    <path
       d="M 560.17008,3.779528 H 544.45984 V 15.11811 H 521.87086 V 3.779528 H 506.16063 V 15.11811 H 483.57165 V 3.779528 H 467.86142 V 15.11811 H 445.27244 V 3.779528 H 429.5622 V 15.11811 H 406.97323 V 3.779528 H 391.26299 V 15.11811 H 370.3937 v 6.038294 h 11.33858 V 43.692333 H 370.3937 v 15.657191 h 11.33858 V 81.885453 H 370.3937 v 15.657191 h 11.33858 V 120.07857 H 370.3937 v 15.65719 h 11.33858 V 158.2717 H 370.3937 v 15.65718 h 11.33858 v 22.53594 H 370.3937 V 212.122 h 11.33858 v 22.53594 H 370.3937 v 15.65719 h 11.33858 v 22.53593 H 370.3937 v 15.65719 h 11.33858 v 22.53593 H 370.3937 v 15.65719 h 11.33858 V 349.2373 H 370.3937 v 6.03829 h 20.86929 v 11.33858 h 15.71024 v -11.33858 h 22.58897 v 11.33858 h 15.71024 v -11.33858 h 22.58898 v 11.33858 h 15.71023 v -11.33858 h 22.58898 v 11.33858 h 15.71023 v -11.33858 h 22.58898 v 11.33858 h 15.71024 v -11.33858 h 22.58897 v 11.33858 h 15.71024 v -11.33858 h 22.58898 v 11.33858 h 15.71023 v -11.33858 h 20.86929 v -11.4092 h -11.33858 v -22.53593 h 11.33858 v -10.28628 h -11.33858 v -22.53593 h 11.33858 v -15.65719 h -11.33858 v -22.53593 h 11.33858 V 234.65794 H 646.29921 V 212.122 h 11.33858 v -15.65718 h -11.33858 v -22.53594 h 11.33858 V 158.2717 h -11.33858 v -22.53594 h 11.33858 V 120.07857 H 646.29921 V 97.542644 h 11.33858 V 81.885453 H 646.29921 V 59.349524 h 11.33858 V 43.692333 H 646.29921 V 21.156404 h 11.33858 V 15.11811 H 636.7685 V 3.779528 H 621.05827 V 15.11811 H 598.46929 V 3.779528 H 582.75905 V 15.11811 h -22.58897 z"
       style="fill:none;stroke:#ff0000;stroke-opacity:1;stroke-width:0.37795276;stroke-miterlimit:4;stroke-dasharray:none"
       id="path4628"
       inkscape:connector-curvature="0" />
    <path
       d="m 1315.2756,411.9685 v 19.23951"
       style="fill:none;stroke:#ff0000;stroke-opacity:1;stroke-width:0.37795276;stroke-miterlimit:4;stroke-dasharray:none"
       id="path4630"
       inkscape:connector-curvature="0" />
    <path
       d="m 1315.2756,623.28016 v 19.23952"
       style="fill:none;stroke:#ff0000;stroke-opacity:1;stroke-width:0.37795276;stroke-miterlimit:4;stroke-dasharray:none"
       id="path4632"
       inkscape:connector-curvature="0" />
    <path
       d="m 1122.0598,411.9685 v 11.33858"
       style="fill:none;stroke:#ff0000;stroke-opacity:1;stroke-width:0.37795276;stroke-miterlimit:4;stroke-dasharray:none"
       id="path4634"
       inkscape:connector-curvature="0" />
    <path
       d="M 1221.2472,423.30708 V 411.9685"
       style="fill:none;stroke:#ff0000;stroke-opacity:1;stroke-width:0.37795276;stroke-miterlimit:4;stroke-dasharray:none"
       id="path4636"
       inkscape:connector-curvature="0" />
    <path
       d="m 1259.5465,411.9685 h 15.7102"
       style="fill:none;stroke:#ff0000;stroke-opacity:1;stroke-width:0.37795276;stroke-miterlimit:4;stroke-dasharray:none"
       id="path4638"
       inkscape:connector-curvature="0" />
    <path
       d="M 1315.2756,539.44337 V 556.9632"
       style="fill:none;stroke:#ff0000;stroke-opacity:1;stroke-width:0.37795276;stroke-miterlimit:4;stroke-dasharray:none"
       id="path4640"
       inkscape:connector-curvature="0" />
    <path
       d="m 1045.4614,411.9685 v 11.33858"
       style="fill:none;stroke:#ff0000;stroke-opacity:1;stroke-width:0.37795276;stroke-miterlimit:4;stroke-dasharray:none"
       id="path4642"
       inkscape:connector-curvature="0" />
    <path
       d="m 1303.937,473.12641 v 24.39856"
       style="fill:none;stroke:#ff0000;stroke-opacity:1;stroke-width:0.37795276;stroke-miterlimit:4;stroke-dasharray:none"
       id="path4644"
       inkscape:connector-curvature="0" />
    <path
       d="m 1275.2567,411.9685 v 11.33858"
       style="fill:none;stroke:#ff0000;stroke-opacity:1;stroke-width:0.37795276;stroke-miterlimit:4;stroke-dasharray:none"
       id="path4646"
       inkscape:connector-curvature="0" />
    <path
       d="m 1303.937,455.60658 h 11.3386"
       style="fill:none;stroke:#ff0000;stroke-opacity:1;stroke-width:0.37795276;stroke-miterlimit:4;stroke-dasharray:none"
       id="path4648"
       inkscape:connector-curvature="0" />
    <path
       d="m 1303.937,515.0448 v 24.39857"
       style="fill:none;stroke:#ff0000;stroke-opacity:1;stroke-width:0.37795276;stroke-miterlimit:4;stroke-dasharray:none"
       id="path4650"
       inkscape:connector-curvature="0" />
    <path
       d="m 1303.937,497.52497 h 11.3386"
       style="fill:none;stroke:#ff0000;stroke-opacity:1;stroke-width:0.37795276;stroke-miterlimit:4;stroke-dasharray:none"
       id="path4652"
       inkscape:connector-curvature="0" />
    <path
       d="M 1315.2756,431.20801 H 1303.937"
       style="fill:none;stroke:#ff0000;stroke-opacity:1;stroke-width:0.37795276;stroke-miterlimit:4;stroke-dasharray:none"
       id="path4654"
       inkscape:connector-curvature="0" />
    <path
       d="m 1236.9575,411.9685 v 11.33858"
       style="fill:none;stroke:#ff0000;stroke-opacity:1;stroke-width:0.37795276;stroke-miterlimit:4;stroke-dasharray:none"
       id="path4656"
       inkscape:connector-curvature="0" />
    <path
       d="M 1259.5465,423.30708 V 411.9685"
       style="fill:none;stroke:#ff0000;stroke-opacity:1;stroke-width:0.37795276;stroke-miterlimit:4;stroke-dasharray:none"
       id="path4658"
       inkscape:connector-curvature="0" />
    <path
       d="m 1039.3701,473.12641 h -11.3386"
       style="fill:none;stroke:#ff0000;stroke-opacity:1;stroke-width:0.37795276;stroke-miterlimit:4;stroke-dasharray:none"
       id="path4660"
       inkscape:connector-curvature="0" />
    <path
       d="m 1160.3591,423.30708 h 22.5889"
       style="fill:none;stroke:#ff0000;stroke-opacity:1;stroke-width:0.37795276;stroke-miterlimit:4;stroke-dasharray:none"
       id="path4662"
       inkscape:connector-curvature="0" />
    <path
       d="m 1303.937,556.9632 v 24.39856"
       style="fill:none;stroke:#ff0000;stroke-opacity:1;stroke-width:0.37795276;stroke-miterlimit:4;stroke-dasharray:none"
       id="path4664"
       inkscape:connector-curvature="0" />
    <path
       d="m 1303.937,431.20801 v 24.39857"
       style="fill:none;stroke:#ff0000;stroke-opacity:1;stroke-width:0.37795276;stroke-miterlimit:4;stroke-dasharray:none"
       id="path4666"
       inkscape:connector-curvature="0" />
    <path
       d="m 1045.4614,423.30708 h 22.589"
       style="fill:none;stroke:#ff0000;stroke-opacity:1;stroke-width:0.37795276;stroke-miterlimit:4;stroke-dasharray:none"
       id="path4668"
       inkscape:connector-curvature="0" />
    <path
       d="M 1315.2756,515.0448 H 1303.937"
       style="fill:none;stroke:#ff0000;stroke-opacity:1;stroke-width:0.37795276;stroke-miterlimit:4;stroke-dasharray:none"
       id="path4670"
       inkscape:connector-curvature="0" />
    <path
       d="m 1083.7606,411.9685 v 11.33858"
       style="fill:none;stroke:#ff0000;stroke-opacity:1;stroke-width:0.37795276;stroke-miterlimit:4;stroke-dasharray:none"
       id="path4672"
       inkscape:connector-curvature="0" />
    <path
       d="m 1068.0504,411.9685 h 15.7102"
       style="fill:none;stroke:#ff0000;stroke-opacity:1;stroke-width:0.37795276;stroke-miterlimit:4;stroke-dasharray:none"
       id="path4674"
       inkscape:connector-curvature="0" />
    <path
       d="M 1259.5465,642.51968 V 631.18109"
       style="fill:none;stroke:#ff0000;stroke-opacity:1;stroke-width:0.37795276;stroke-miterlimit:4;stroke-dasharray:none"
       id="path4676"
       inkscape:connector-curvature="0" />
    <path
       d="m 1259.5465,631.18109 h -22.589"
       style="fill:none;stroke:#ff0000;stroke-opacity:1;stroke-width:0.37795276;stroke-miterlimit:4;stroke-dasharray:none"
       id="path4678"
       inkscape:connector-curvature="0" />
    <path
       d="m 1297.8457,631.18109 h -22.589"
       style="fill:none;stroke:#ff0000;stroke-opacity:1;stroke-width:0.37795276;stroke-miterlimit:4;stroke-dasharray:none"
       id="path4680"
       inkscape:connector-curvature="0" />
    <path
       d="m 1182.948,411.9685 h 15.7103"
       style="fill:none;stroke:#ff0000;stroke-opacity:1;stroke-width:0.37795276;stroke-miterlimit:4;stroke-dasharray:none"
       id="path4682"
       inkscape:connector-curvature="0" />
    <path
       d="m 1144.6488,411.9685 h 15.7103"
       style="fill:none;stroke:#ff0000;stroke-opacity:1;stroke-width:0.37795276;stroke-miterlimit:4;stroke-dasharray:none"
       id="path4684"
       inkscape:connector-curvature="0" />
    <path
       d="m 1039.3701,431.20801 h -11.3386"
       style="fill:none;stroke:#ff0000;stroke-opacity:1;stroke-width:0.37795276;stroke-miterlimit:4;stroke-dasharray:none"
       id="path4686"
       inkscape:connector-curvature="0" />
    <path
       d="m 1198.6583,631.18109 v 11.33859"
       style="fill:none;stroke:#ff0000;stroke-opacity:1;stroke-width:0.37795276;stroke-miterlimit:4;stroke-dasharray:none"
       id="path4688"
       inkscape:connector-curvature="0" />
    <path
       d="m 1045.4614,631.18109 v 11.33859"
       style="fill:none;stroke:#ff0000;stroke-opacity:1;stroke-width:0.37795276;stroke-miterlimit:4;stroke-dasharray:none"
       id="path4690"
       inkscape:connector-curvature="0" />
    <path
       d="m 1144.6488,631.18109 h -22.589"
       style="fill:none;stroke:#ff0000;stroke-opacity:1;stroke-width:0.37795276;stroke-miterlimit:4;stroke-dasharray:none"
       id="path4692"
       inkscape:connector-curvature="0" />
    <path
       d="m 1122.0598,631.18109 v 11.33859"
       style="fill:none;stroke:#ff0000;stroke-opacity:1;stroke-width:0.37795276;stroke-miterlimit:4;stroke-dasharray:none"
       id="path4694"
       inkscape:connector-curvature="0" />
    <path
       d="m 1068.0504,631.18109 h -22.589"
       style="fill:none;stroke:#ff0000;stroke-opacity:1;stroke-width:0.37795276;stroke-miterlimit:4;stroke-dasharray:none"
       id="path4696"
       inkscape:connector-curvature="0" />
    <path
       d="M 1039.3701,581.36176 V 556.9632"
       style="fill:none;stroke:#ff0000;stroke-opacity:1;stroke-width:0.37795276;stroke-miterlimit:4;stroke-dasharray:none"
       id="path4698"
       inkscape:connector-curvature="0" />
    <path
       d="M 1028.0315,642.51968 V 623.28016"
       style="fill:none;stroke:#ff0000;stroke-opacity:1;stroke-width:0.37795276;stroke-miterlimit:4;stroke-dasharray:none"
       id="path4700"
       inkscape:connector-curvature="0" />
    <path
       d="M 1182.948,642.51968 V 631.18109"
       style="fill:none;stroke:#ff0000;stroke-opacity:1;stroke-width:0.37795276;stroke-miterlimit:4;stroke-dasharray:none"
       id="path4702"
       inkscape:connector-curvature="0" />
    <path
       d="M 1028.0315,473.12641 V 455.60658"
       style="fill:none;stroke:#ff0000;stroke-opacity:1;stroke-width:0.37795276;stroke-miterlimit:4;stroke-dasharray:none"
       id="path4704"
       inkscape:connector-curvature="0" />
    <path
       d="m 1160.3591,631.18109 v 11.33859"
       style="fill:none;stroke:#ff0000;stroke-opacity:1;stroke-width:0.37795276;stroke-miterlimit:4;stroke-dasharray:none"
       id="path4706"
       inkscape:connector-curvature="0" />
    <path
       d="M 1039.3701,539.44337 V 515.0448"
       style="fill:none;stroke:#ff0000;stroke-opacity:1;stroke-width:0.37795276;stroke-miterlimit:4;stroke-dasharray:none"
       id="path4708"
       inkscape:connector-curvature="0" />
    <path
       d="m 1028.0315,455.60658 h 11.3386"
       style="fill:none;stroke:#ff0000;stroke-opacity:1;stroke-width:0.37795276;stroke-miterlimit:4;stroke-dasharray:none"
       id="path4710"
       inkscape:connector-curvature="0" />
    <path
       d="m 1045.4614,642.51968 h -17.4299"
       style="fill:none;stroke:#ff0000;stroke-opacity:1;stroke-width:0.37795276;stroke-miterlimit:4;stroke-dasharray:none"
       id="path4712"
       inkscape:connector-curvature="0" />
    <path
       d="m 1160.3591,642.51968 h -15.7103"
       style="fill:none;stroke:#ff0000;stroke-opacity:1;stroke-width:0.37795276;stroke-miterlimit:4;stroke-dasharray:none"
       id="path4714"
       inkscape:connector-curvature="0" />
    <path
       d="M 1028.0315,598.88159 V 581.36176"
       style="fill:none;stroke:#ff0000;stroke-opacity:1;stroke-width:0.37795276;stroke-miterlimit:4;stroke-dasharray:none"
       id="path4716"
       inkscape:connector-curvature="0" />
    <path
       d="m 1221.2472,631.18109 h -22.5889"
       style="fill:none;stroke:#ff0000;stroke-opacity:1;stroke-width:0.37795276;stroke-miterlimit:4;stroke-dasharray:none"
       id="path4718"
       inkscape:connector-curvature="0" />
    <path
       d="m 1028.0315,581.36176 h 11.3386"
       style="fill:none;stroke:#ff0000;stroke-opacity:1;stroke-width:0.37795276;stroke-miterlimit:4;stroke-dasharray:none"
       id="path4720"
       inkscape:connector-curvature="0" />
    <path
       d="M 1221.2472,642.51968 V 631.18109"
       style="fill:none;stroke:#ff0000;stroke-opacity:1;stroke-width:0.37795276;stroke-miterlimit:4;stroke-dasharray:none"
       id="path4722"
       inkscape:connector-curvature="0" />
    <path
       d="m 1028.0315,497.52497 h 11.3386"
       style="fill:none;stroke:#ff0000;stroke-opacity:1;stroke-width:0.37795276;stroke-miterlimit:4;stroke-dasharray:none"
       id="path4724"
       inkscape:connector-curvature="0" />
    <path
       d="m 1039.3701,556.9632 h -11.3386"
       style="fill:none;stroke:#ff0000;stroke-opacity:1;stroke-width:0.37795276;stroke-miterlimit:4;stroke-dasharray:none"
       id="path4726"
       inkscape:connector-curvature="0" />
    <path
       d="m 1028.0315,539.44337 h 11.3386"
       style="fill:none;stroke:#ff0000;stroke-opacity:1;stroke-width:0.37795276;stroke-miterlimit:4;stroke-dasharray:none"
       id="path4728"
       inkscape:connector-curvature="0" />
    <path
       d="m 1182.948,631.18109 h -22.5889"
       style="fill:none;stroke:#ff0000;stroke-opacity:1;stroke-width:0.37795276;stroke-miterlimit:4;stroke-dasharray:none"
       id="path4730"
       inkscape:connector-curvature="0" />
    <path
       d="m 1028.0315,623.28016 h 9.4488"
       style="fill:none;stroke:#ff0000;stroke-opacity:1;stroke-width:0.37795276;stroke-miterlimit:4;stroke-dasharray:none"
       id="path4732"
       inkscape:connector-curvature="0" />
    <path
       d="M 1106.3496,642.51968 V 631.18109"
       style="fill:none;stroke:#ff0000;stroke-opacity:1;stroke-width:0.37795276;stroke-miterlimit:4;stroke-dasharray:none"
       id="path4734"
       inkscape:connector-curvature="0" />
    <path
       d="M 1028.0315,431.20801 V 411.9685"
       style="fill:none;stroke:#ff0000;stroke-opacity:1;stroke-width:0.37795276;stroke-miterlimit:4;stroke-dasharray:none"
       id="path4736"
       inkscape:connector-curvature="0" />
    <path
       d="M 1039.3701,497.52497 V 473.12641"
       style="fill:none;stroke:#ff0000;stroke-opacity:1;stroke-width:0.37795276;stroke-miterlimit:4;stroke-dasharray:none"
       id="path4738"
       inkscape:connector-curvature="0" />
    <path
       d="m 1122.0598,642.51968 h -15.7102"
       style="fill:none;stroke:#ff0000;stroke-opacity:1;stroke-width:0.37795276;stroke-miterlimit:4;stroke-dasharray:none"
       id="path4740"
       inkscape:connector-curvature="0" />
    <path
       d="M 1198.6583,642.51968 H 1182.948"
       style="fill:none;stroke:#ff0000;stroke-opacity:1;stroke-width:0.37795276;stroke-miterlimit:4;stroke-dasharray:none"
       id="path4742"
       inkscape:connector-curvature="0" />
    <path
       d="M 1068.0504,642.51968 V 631.18109"
       style="fill:none;stroke:#ff0000;stroke-opacity:1;stroke-width:0.37795276;stroke-miterlimit:4;stroke-dasharray:none"
       id="path4744"
       inkscape:connector-curvature="0" />
    <path
       d="m 1037.4803,598.88159 h -9.4488"
       style="fill:none;stroke:#ff0000;stroke-opacity:1;stroke-width:0.37795276;stroke-miterlimit:4;stroke-dasharray:none"
       id="path4746"
       inkscape:connector-curvature="0" />
    <path
       d="M 1028.0315,515.0448 V 497.52497"
       style="fill:none;stroke:#ff0000;stroke-opacity:1;stroke-width:0.37795276;stroke-miterlimit:4;stroke-dasharray:none"
       id="path4748"
       inkscape:connector-curvature="0" />
    <path
       d="M 1037.4803,623.28016 V 598.88159"
       style="fill:none;stroke:#ff0000;stroke-opacity:1;stroke-width:0.37795276;stroke-miterlimit:4;stroke-dasharray:none"
       id="path4750"
       inkscape:connector-curvature="0" />
    <path
       d="m 1039.3701,515.0448 h -11.3386"
       style="fill:none;stroke:#ff0000;stroke-opacity:1;stroke-width:0.37795276;stroke-miterlimit:4;stroke-dasharray:none"
       id="path4752"
       inkscape:connector-curvature="0" />
    <path
       d="M 1028.0315,556.9632 V 539.44337"
       style="fill:none;stroke:#ff0000;stroke-opacity:1;stroke-width:0.37795276;stroke-miterlimit:4;stroke-dasharray:none"
       id="path4754"
       inkscape:connector-curvature="0" />
    <path
       d="M 1039.3701,455.60658 V 431.20801"
       style="fill:none;stroke:#ff0000;stroke-opacity:1;stroke-width:0.37795276;stroke-miterlimit:4;stroke-dasharray:none"
       id="path4756"
       inkscape:connector-curvature="0" />
    <path
       d="m 1083.7606,642.51968 h -15.7102"
       style="fill:none;stroke:#ff0000;stroke-opacity:1;stroke-width:0.37795276;stroke-miterlimit:4;stroke-dasharray:none"
       id="path4758"
       inkscape:connector-curvature="0" />
    <path
       d="M 646.33519,634.96063 H 381.7497 v 3.77953 h 264.58549 z"
       style="fill:none;stroke:#ff0000;stroke-opacity:1;stroke-width:0.37795276;stroke-miterlimit:4;stroke-dasharray:none"
       id="path4760"
       inkscape:connector-curvature="0" />
    <path
       d="m 381.7497,638.74016 v -3.77953"
       style="fill:none;stroke:#ff0000;stroke-opacity:1;stroke-width:0.37795276;stroke-miterlimit:4;stroke-dasharray:none"
       id="path4762"
       inkscape:connector-curvature="0" />
    <path
       d="m 646.33519,634.96063 v 3.77953"
       style="fill:none;stroke:#ff0000;stroke-opacity:1;stroke-width:0.37795276;stroke-miterlimit:4;stroke-dasharray:none"
       id="path4764"
       inkscape:connector-curvature="0" />
    <path
       d="M 381.7497,634.96063 H 646.33519"
       style="fill:none;stroke:#ff0000;stroke-opacity:1;stroke-width:0.37795276;stroke-miterlimit:4;stroke-dasharray:none"
       id="path4766"
       inkscape:connector-curvature="0" />
    <path
       d="M 646.29921,336.37795 H 381.73228 v -3.77952 h 264.56693 z"
       style="fill:none;stroke:#ff0000;stroke-opacity:1;stroke-width:0.37795276;stroke-miterlimit:4;stroke-dasharray:none"
       id="path4768"
       inkscape:connector-curvature="0" />
    <path
       d="M 702.99213,585.82677 H 691.65354 V 385.51181 h 11.33859 z"
       style="fill:none;stroke:#ff0000;stroke-opacity:1;stroke-width:0.37795276;stroke-miterlimit:4;stroke-dasharray:none"
       id="path4770"
       inkscape:connector-curvature="0" />
    <path
       d="m 1124.4094,572.59842 h 94.4882"
       style="fill:none;stroke:#ff0000;stroke-opacity:1;stroke-width:0.37795276;stroke-miterlimit:4;stroke-dasharray:none"
       id="path4772"
       inkscape:connector-curvature="0" />
    <path
       d="M 1218.8976,572.59842 V 481.88975"
       style="fill:none;stroke:#ff0000;stroke-opacity:1;stroke-width:0.37795276;stroke-miterlimit:4;stroke-dasharray:none"
       id="path4774"
       inkscape:connector-curvature="0" />
    <path
       d="m 1218.8976,481.88975 h -94.4882"
       style="fill:none;stroke:#ff0000;stroke-opacity:1;stroke-width:0.37795276;stroke-miterlimit:4;stroke-dasharray:none"
       id="path4776"
       inkscape:connector-curvature="0" />
    <path
       d="m 1124.4094,481.88975 v 90.70867"
       style="fill:none;stroke:#ff0000;stroke-opacity:1;stroke-width:0.37795276;stroke-miterlimit:4;stroke-dasharray:none"
       id="path4778"
       inkscape:connector-curvature="0" />
    <path
       d="m 1215.1181,517.79527 a 3.779528,3.779528 0 1 0 -7.559,0 3.779528,3.779528 0 1 0 7.559,0 z"
       style="fill:none;stroke:#ff0000;stroke-opacity:1;stroke-width:0.37795276;stroke-miterlimit:4;stroke-dasharray:none"
       id="path4784"
       inkscape:connector-curvature="0" />
    <path
       d="m 1215.1181,566.92912 a 3.779528,3.779528 0 1 0 -7.559,0 3.779528,3.779528 0 1 0 7.559,0 z"
       style="fill:none;stroke:#ff0000;stroke-opacity:1;stroke-width:0.37795276;stroke-miterlimit:4;stroke-dasharray:none"
       id="path4786"
       inkscape:connector-curvature="0" />
    <path
       d="m 1135.748,517.79527 a 3.779528,3.779528 0 1 0 -7.559,0 3.779528,3.779528 0 1 0 7.559,0 z"
       style="fill:none;stroke:#ff0000;stroke-opacity:1;stroke-width:0.37795276;stroke-miterlimit:4;stroke-dasharray:none"
       id="path4788"
       inkscape:connector-curvature="0" />
    <path
       d="m 1135.748,566.92912 a 3.779528,3.779528 0 1 0 -7.559,0 3.779528,3.779528 0 1 0 7.559,0 z"
       style="fill:none;stroke:#ff0000;stroke-opacity:1;stroke-width:0.37795276;stroke-miterlimit:4;stroke-dasharray:none"
       id="path4790"
       inkscape:connector-curvature="0" />
    <path
       d="m 1205.5057,568.81889 h -68.0315 v -64.25197 h 68.0315 z"
       style="fill:none;stroke:#ff0000;stroke-opacity:1;stroke-width:0.37795276;stroke-miterlimit:4;stroke-dasharray:none"
       id="path4796"
       inkscape:connector-curvature="0" />
  </g>
</svg>
