0
SECTION
2
HEADER
9
$INSUNITS
70
4
9
$ACADVER
1
AC1014
9
$HANDSEED
5
FFFF
0
ENDSEC
0
SECTION
2
TABLES
0
TABLE
2
VPORT
5
8
100
AcDbSymbolTable
0
ENDTAB
0
TABLE
2
LTYPE
5
5
100
AcDbSymbolTable
0
LTYPE
5
14
100
AcDbSymbolTableRecord
100
AcDbLinetypeTableRecord
2
BYBLOCK
70
0
0
LTYPE
5
15
100
AcDbSymbolTableRecord
100
AcDbLinetypeTableRecord
2
BYLAYER
70
0
0
ENDTAB
0
TABLE
2
LAYER
5
2
100
AcDbSymbolTable
70
2
0
LAYER
5
50
100
AcDbSymbolTableRecord
100
AcDbLayerTableRecord
2
0
70
0
6
CONTINUOUS
0
ENDTAB
0
TABLE
2
STYLE
5
3
100
AcDbSymbolTable
70
1
0
STYLE
5
11
100
AcDbSymbolTableRecord
100
AcDbTextStyleTableRecord
2
STANDARD
70
0
0
ENDTAB
0
TABLE
2
VIEW
5
6
100
AcDbSymbolTable
70
0
0
ENDTAB
0
TABLE
2
UCS
5
7
100
AcDbSymbolTable
70
0
0
ENDTAB
0
TABLE
2
APPID
5
9
100
AcDbSymbolTable
70
2
0
APPID
5
12
100
AcDbSymbolTableRecord
100
AcDbRegAppTableRecord
2
ACAD
70
0
0
ENDTAB
0
TABLE
2
DIMSTYLE
5
A
100
AcDbSymbolTable
70
1
0
ENDTAB
0
TABLE
2
BLOCK_RECORD
5
1
100
AcDbSymbolTable
70
1
0
BLOCK_RECORD
5
1F
100
AcDbSymbolTableRecord
100
AcDbBlockTableRecord
2
*MODEL_SPACE
0
BLOCK_RECORD
5
1B
100
AcDbSymbolTableRecord
100
AcDbBlockTableRecord
2
*PAPER_SPACE
0
ENDTAB
0
ENDSEC
0
SECTION
2
BLOCKS
0
BLOCK
5
20
100
AcDbEntity
100
AcDbBlockBegin
2
*MODEL_SPACE
0
ENDBLK
5
21
100
AcDbEntity
100
AcDbBlockEnd
0
BLOCK
5
1C
100
AcDbEntity
100
AcDbBlockBegin
2
*PAPER_SPACE
0
ENDBLK
5
1D
100
AcDbEntity
100
AcDbBlockEnd
0
ENDSEC
0
SECTION
2
ENTITIES
0
LWPOLYLINE
5
100
100
AcDbEntity
8
0
100
AcDbPolyline
90
132
70
1
43
0.0
10
133.92166699999999
20
137
10
133.92166699999999
20
134
10
127.94499999999999
20
134
10
127.94499999999999
20
137
10
123.78833300000002
20
137
10
123.78833300000002
20
134
10
117.811667
20
134
10
117.811667
20
137
10
113.655
20
137
10
113.655
20
134
10
107.67833300000001
20
134
10
107.67833300000001
20
137
10
103.52166700000001
20
137
10
103.52166700000001
20
134
10
98
20
134
10
98
20
132.402368
10
101.00000000000001
20
132.402368
10
101.00000000000001
20
126.43973700000002
10
98
20
126.43973700000002
10
98
20
122.29710500000002
10
101.00000000000001
20
122.29710500000002
10
101.00000000000001
20
116.33447400000001
10
98
20
116.33447400000001
10
98
20
112.19184200000001
10
101.00000000000001
20
112.19184200000001
10
101.00000000000001
20
106.22921100000001
10
98
20
106.22921100000001
10
98
20
102.086579
10
101.00000000000001
20
102.086579
10
101.00000000000001
20
96.123947000000015
10
98
20
96.123947000000015
10
98
20
91.981316000000021
10
101.00000000000001
20
91.981316000000021
10
101.00000000000001
20
86.018683999999993
10
98
20
86.018683999999993
10
98
20
81.876052999999999
10
101.00000000000001
20
81.876052999999999
10
101.00000000000001
20
75.913421
10
98
20
75.913421
10
98
20
71.770789000000008
10
101.00000000000001
20
71.770789000000008
10
101.00000000000001
20
65.808157999999992
10
98
20
65.808157999999992
10
98
20
61.665526
10
101.00000000000001
20
61.665526
10
101.00000000000001
20
55.702895000000005
10
98
20
55.702895000000005
10
98
20
51.560263000000006
10
101.00000000000001
20
51.560263000000006
10
101.00000000000001
20
45.597631999999997
10
98
20
45.597631999999997
10
98
20
44
10
103.52166700000001
20
44
10
103.52166700000001
20
41.000000000000007
10
107.67833300000001
20
41.000000000000007
10
107.67833300000001
20
44
10
113.655
20
44
10
113.655
20
41.000000000000007
10
117.811667
20
41.000000000000007
10
117.811667
20
44
10
123.78833300000002
20
44
10
123.78833300000002
20
41.000000000000007
10
127.94499999999999
20
41.000000000000007
10
127.94499999999999
20
44
10
133.92166699999999
20
44
10
133.92166699999999
20
41.000000000000007
10
138.07833300000001
20
41.000000000000007
10
138.07833300000001
20
44
10
144.05500000000001
20
44
10
144.05500000000001
20
41.000000000000007
10
148.21166700000001
20
41.000000000000007
10
148.21166700000001
20
44
10
154.188333
20
44
10
154.188333
20
41.000000000000007
10
158.345
20
41.000000000000007
10
158.345
20
44
10
164.32166699999999
20
44
10
164.32166699999999
20
41.000000000000007
10
168.47833300000002
20
41.000000000000007
10
168.47833300000002
20
44
10
174.00000000000003
20
44
10
174.00000000000003
20
45.597631999999997
10
171
20
45.597631999999997
10
171
20
51.560263000000006
10
174.00000000000003
20
51.560263000000006
10
174.00000000000003
20
55.702895000000005
10
171
20
55.702895000000005
10
171
20
61.665526
10
174.00000000000003
20
61.665526
10
174.00000000000003
20
65.808157999999992
10
171
20
65.808157999999992
10
171
20
71.770789000000008
10
174.00000000000003
20
71.770789000000008
10
174.00000000000003
20
75.913421
10
171
20
75.913421
10
171
20
81.876052999999999
10
174.00000000000003
20
81.876052999999999
10
174.00000000000003
20
86.018683999999993
10
171
20
86.018683999999993
10
171
20
91.981316000000021
10
174.00000000000003
20
91.981316000000021
10
174.00000000000003
20
96.123947000000015
10
171
20
96.123947000000015
10
171
20
102.086579
10
174.00000000000003
20
102.086579
10
174.00000000000003
20
106.22921100000001
10
171
20
106.22921100000001
10
171
20
112.19184200000001
10
174.00000000000003
20
112.19184200000001
10
174.00000000000003
20
116.33447400000001
10
171
20
116.33447400000001
10
171
20
122.29710500000002
10
174.00000000000003
20
122.29710500000002
10
174.00000000000003
20
126.43973700000002
10
171
20
126.43973700000002
10
171
20
132.402368
10
174.00000000000003
20
132.402368
10
174.00000000000003
20
134
10
168.47833300000002
20
134
10
168.47833300000002
20
137
10
164.32166699999999
20
137
10
164.32166699999999
20
134
10
158.345
20
134
10
158.345
20
137
10
154.188333
20
137
10
154.188333
20
134
10
148.21166700000001
20
134
10
148.21166700000001
20
137
10
144.05500000000001
20
137
10
144.05500000000001
20
134
10
138.07833300000001
20
134
10
138.07833300000001
20
137
0
LWPOLYLINE
5
101
100
AcDbEntity
8
0
100
AcDbPolyline
90
116
70
1
43
0.0
10
10.650263000000002
20
199.00000000000003
10
6.507632000000001
20
199.00000000000003
10
6.507632000000001
20
196
10
4
20
196
10
4
20
192.99954499999998
10
1
20
192.99954499999998
10
0.99999999999999978
20
188.364091
10
4
20
188.364091
10
4
20
181.908636
10
1
20
181.908636
10
0.99999999999999978
20
177.27318200000002
10
4
20
177.27318200000002
10
4
20
170.81772699999999
10
1
20
170.81772699999999
10
0.99999999999999978
20
166.18227300000001
10
4
20
166.18227300000001
10
4
20
159.72681799999998
10
1
20
159.72681799999998
10
0.99999999999999978
20
155.091364
10
4
20
155.091364
10
4
20
148.635909
10
1
20
148.635909
10
0.99999999999999978
20
144.00045500000002
10
4
20
144.00045500000002
10
4
20
141
10
6.507632000000001
20
141
10
6.507632000000001
20
138
10
10.650263000000002
20
138
10
10.650263000000002
20
141
10
16.612895000000002
20
141
10
16.612895000000002
20
138
10
20.755526
20
138
10
20.755526
20
141
10
26.718158000000006
20
141
10
26.718158000000006
20
138
10
30.860789000000004
20
138
10
30.860789000000004
20
141
10
36.823421000000003
20
141
10
36.823421000000003
20
138
10
40.966053000000002
20
138
10
40.966053000000002
20
141
10
46.928684000000011
20
141
10
46.928684000000011
20
138
10
51.071315999999996
20
138
10
51.071315999999996
20
141
10
57.033947000000005
20
141
10
57.033947000000005
20
138
10
61.176579000000011
20
138
10
61.176579000000011
20
141
10
67.139211000000003
20
141
10
67.139211000000003
20
138
10
71.281841999999997
20
138
10
71.281841999999997
20
141
10
77.244473999999997
20
141
10
77.244473999999997
20
138
10
81.387105000000005
20
138
10
81.387105000000005
20
141
10
87.349737000000005
20
141
10
87.349737000000005
20
138
10
91.492367999999999
20
138
10
91.492367999999999
20
141
10
94
20
141
10
94
20
144.00045500000002
10
97.000000000000014
20
144.00045500000002
10
97.000000000000014
20
148.635909
10
94
20
148.635909
10
94
20
155.091364
10
97.000000000000014
20
155.091364
10
97.000000000000014
20
159.72681799999998
10
94
20
159.72681799999998
10
94
20
166.18227300000001
10
97.000000000000014
20
166.18227300000001
10
97.000000000000014
20
170.81772699999999
10
94
20
170.81772699999999
10
94
20
177.27318200000002
10
97.000000000000014
20
177.27318200000002
10
97.000000000000014
20
181.908636
10
94
20
181.908636
10
94
20
188.364091
10
97.000000000000014
20
188.364091
10
97.000000000000014
20
192.99954499999998
10
94
20
192.99954499999998
10
94
20
196
10
91.492367999999999
20
196
10
91.492367999999999
20
199.00000000000003
10
87.349737000000005
20
199.00000000000003
10
87.349737000000005
20
196
10
81.387105000000005
20
196
10
81.387105000000005
20
199.00000000000003
10
77.244473999999997
20
199.00000000000003
10
77.244473999999997
20
196
10
71.281841999999997
20
196
10
71.281841999999997
20
199.00000000000003
10
67.139211000000003
20
199.00000000000003
10
67.139211000000003
20
196
10
61.176579000000011
20
196
10
61.176579000000011
20
199.00000000000003
10
57.033947000000005
20
199.00000000000003
10
57.033947000000005
20
196
10
51.071315999999996
20
196
10
51.071315999999996
20
199.00000000000003
10
46.928684000000011
20
199.00000000000003
10
46.928684000000011
20
196
10
40.966053000000002
20
196
10
40.966053000000002
20
199.00000000000003
10
36.823421000000003
20
199.00000000000003
10
36.823421000000003
20
196
10
30.860789000000004
20
196
10
30.860789000000004
20
199.00000000000003
10
26.718158000000006
20
199.00000000000003
10
26.718158000000006
20
196
10
20.755526
20
196
10
20.755526
20
199.00000000000003
10
16.612895000000002
20
199.00000000000003
10
16.612895000000002
20
196
10
10.650263000000002
20
196
0
LWPOLYLINE
5
102
100
AcDbEntity
8
0
100
AcDbPolyline
90
100
70
1
43
0.0
10
149.121667
20
196
10
143.14500000000004
20
196
10
143.14500000000004
20
199.00000000000003
10
138.98833300000001
20
199.00000000000003
10
138.98833300000001
20
196
10
133.01166699999999
20
196
10
133.01166699999999
20
199.00000000000003
10
128.85500000000002
20
199.00000000000003
10
128.85500000000002
20
196
10
122.87833300000003
20
196
10
122.87833300000003
20
199.00000000000003
10
118.72166700000001
20
199.00000000000003
10
118.72166700000001
20
196
10
112.74500000000002
20
196
10
112.74500000000002
20
199.00000000000003
10
108.58833300000001
20
199.00000000000003
10
108.58833300000001
20
196
10
102.61166700000003
20
196
10
102.61166700000003
20
199.00000000000003
10
98
20
199.00000000000003
10
98
20
193.90954500000004
10
101.00000000000001
20
193.90954500000004
10
101.00000000000001
20
187.45409100000001
10
98
20
187.45409100000001
10
98
20
182.81863600000003
10
101.00000000000001
20
182.81863600000003
10
101.00000000000001
20
176.36318200000002
10
98
20
176.36318200000002
10
98
20
171.72772700000002
10
101.00000000000001
20
171.72772700000002
10
101.00000000000001
20
165.27227299999998
10
98
20
165.27227299999998
10
98
20
160.63681800000001
10
101.00000000000001
20
160.63681800000001
10
101.00000000000001
20
154.18136400000003
10
98
20
154.18136400000003
10
98
20
149.54590899999999
10
101.00000000000001
20
149.54590899999999
10
101.00000000000001
20
143.09045499999999
10
98
20
143.09045499999999
10
98
20
138
10
102.61166700000003
20
138
10
102.61166700000003
20
141
10
108.58833300000001
20
141
10
108.58833300000001
20
138
10
112.74500000000002
20
138
10
112.74500000000002
20
141
10
118.72166700000001
20
141
10
118.72166700000001
20
138
10
122.87833300000003
20
138
10
122.87833300000003
20
141
10
128.85500000000002
20
141
10
128.85500000000002
20
138
10
133.01166699999999
20
138
10
133.01166699999999
20
141
10
138.98833300000001
20
141
10
138.98833300000001
20
138
10
143.14500000000004
20
138
10
143.14500000000004
20
141
10
149.121667
20
141
10
149.121667
20
138
10
153.27833300000003
20
138
10
153.27833300000003
20
141
10
159.255
20
141
10
159.255
20
138
10
163.41166699999999
20
138
10
163.41166699999999
20
141
10
169.38833300000002
20
141
10
169.38833300000002
20
138
10
174.00000000000003
20
138
10
174.00000000000003
20
143.09045499999999
10
171
20
143.09045499999999
10
171
20
149.54590899999999
10
174.00000000000003
20
149.54590899999999
10
174.00000000000003
20
154.18136400000003
10
171
20
154.18136400000003
10
171
20
160.63681800000001
10
174.00000000000003
20
160.63681800000001
10
174.00000000000003
20
165.27227299999998
10
171
20
165.27227299999998
10
171
20
171.72772700000002
10
174.00000000000003
20
171.72772700000002
10
174.00000000000003
20
176.36318200000002
10
171
20
176.36318200000002
10
171
20
182.81863600000003
10
174.00000000000003
20
182.81863600000003
10
174.00000000000003
20
187.45409100000001
10
171
20
187.45409100000001
10
171
20
193.90954500000004
10
174.00000000000003
20
193.90954500000004
10
174.00000000000003
20
199.00000000000003
10
169.38833300000002
20
199.00000000000003
10
169.38833300000002
20
196
10
163.41166699999999
20
196
10
163.41166699999999
20
199.00000000000003
10
159.255
20
199.00000000000003
10
159.255
20
196
10
153.27833300000003
20
196
10
153.27833300000003
20
199.00000000000003
10
149.121667
20
199.00000000000003
0
LWPOLYLINE
5
103
100
AcDbEntity
8
0
100
AcDbPolyline
90
116
70
1
43
0.0
10
220.928684
20
196
10
214.96605299999999
20
196
10
214.96605299999999
20
199.00000000000003
10
210.82342100000002
20
199.00000000000003
10
210.82342100000002
20
196
10
204.86078899999998
20
196
10
204.86078899999998
20
199.00000000000003
10
200.71815800000002
20
199.00000000000003
10
200.71815800000002
20
196
10
194.755526
20
196
10
194.755526
20
199.00000000000003
10
190.61289500000001
20
199.00000000000003
10
190.61289500000001
20
196
10
184.65026300000002
20
196
10
184.65026300000002
20
199.00000000000003
10
180.50763200000003
20
199.00000000000003
10
180.50763200000003
20
196
10
178
20
196
10
178
20
192.99954499999998
10
175
20
192.99954499999998
10
175
20
188.364091
10
178
20
188.364091
10
178
20
181.908636
10
175
20
181.908636
10
175
20
177.27318200000002
10
178
20
177.27318200000002
10
178
20
170.81772699999999
10
175
20
170.81772699999999
10
175
20
166.18227300000001
10
178
20
166.18227300000001
10
178
20
159.72681799999998
10
175
20
159.72681799999998
10
175
20
155.091364
10
178
20
155.091364
10
178
20
148.635909
10
175
20
148.635909
10
175
20
144.00045500000002
10
178
20
144.00045500000002
10
178
20
141
10
180.50763200000003
20
141
10
180.50763200000003
20
138
10
184.65026300000002
20
138
10
184.65026300000002
20
141
10
190.61289500000001
20
141
10
190.61289500000001
20
138
10
194.755526
20
138
10
194.755526
20
141
10
200.71815800000002
20
141
10
200.71815800000002
20
138
10
204.86078899999998
20
138
10
204.86078899999998
20
141
10
210.82342100000002
20
141
10
210.82342100000002
20
138
10
214.96605299999999
20
138
10
214.96605299999999
20
141
10
220.928684
20
141
10
220.928684
20
138
10
225.07131600000005
20
138
10
225.07131600000005
20
141
10
231.03394700000001
20
141
10
231.03394700000001
20
138
10
235.17657900000003
20
138
10
235.17657900000003
20
141
10
241.13921099999999
20
141
10
241.13921099999999
20
138
10
245.28184199999998
20
138
10
245.28184199999998
20
141
10
251.24447400000005
20
141
10
251.24447400000005
20
138
10
255.38710500000002
20
138
10
255.38710500000002
20
141
10
261.349737
20
141
10
261.349737
20
138
10
265.49236800000006
20
138
10
265.49236800000006
20
141
10
268
20
141
10
268
20
144.00045500000002
10
271
20
144.00045500000002
10
271
20
148.635909
10
268
20
148.635909
10
268
20
155.091364
10
271
20
155.091364
10
271
20
159.72681799999998
10
268
20
159.72681799999998
10
268
20
166.18227300000001
10
271
20
166.18227300000001
10
271
20
170.81772699999999
10
268
20
170.81772699999999
10
268
20
177.27318200000002
10
271
20
177.27318200000002
10
271
20
181.908636
10
268
20
181.908636
10
268
20
188.364091
10
271
20
188.364091
10
271
20
192.99954499999998
10
268
20
192.99954499999998
10
268
20
196
10
265.49236800000006
20
196
10
265.49236800000006
20
199.00000000000003
10
261.349737
20
199.00000000000003
10
261.349737
20
196
10
255.38710500000002
20
196
10
255.38710500000002
20
199.00000000000003
10
251.24447400000005
20
199.00000000000003
10
251.24447400000005
20
196
10
245.28184199999998
20
196
10
245.28184199999998
20
199.00000000000003
10
241.13921099999999
20
199.00000000000003
10
241.13921099999999
20
196
10
235.17657900000003
20
196
10
235.17657900000003
20
199.00000000000003
10
231.03394700000001
20
199.00000000000003
10
231.03394700000001
20
196
10
225.07131600000005
20
196
10
225.07131600000005
20
199.00000000000003
10
220.928684
20
199.00000000000003
0
LINE
5
104
100
AcDbEntity
8
0
100
AcDbLine
10
345
20
154.27227542888926
30
0
11
348.00000000000006
21
154.27227542888926
31
0
0
LINE
5
105
100
AcDbEntity
8
0
100
AcDbLine
10
327.27833300000009
20
130.00000242888927
30
0
11
327.27833300000009
21
127.00000242888926
31
0
0
LINE
5
106
100
AcDbEntity
8
0
100
AcDbLine
10
327.27833300000009
20
127.00000242888926
30
0
11
323.121667
21
127.00000242888926
31
0
0
LINE
5
107
100
AcDbEntity
8
0
100
AcDbLine
10
348.00000000000006
20
143.18136642888928
30
0
11
348.00000000000006
21
138.54591142888924
31
0
0
LINE
5
108
100
AcDbEntity
8
0
100
AcDbLine
10
337.41166700000002
20
130.00000242888927
30
0
11
337.41166700000002
21
127.00000242888926
31
0
0
LINE
5
109
100
AcDbEntity
8
0
100
AcDbLine
10
344.50000476837158
20
138.54591142888924
30
0
11
344.50000476837158
21
132.09045742888924
31
0
0
LINE
5
110
100
AcDbEntity
8
0
100
AcDbLine
10
286.745
20
130.00000242888927
30
0
11
286.745
21
127.00000242888926
31
0
0
LINE
5
111
100
AcDbEntity
8
0
100
AcDbLine
10
327.27833300000009
20
185.00000242888927
30
0
11
333.255
21
185.00000242888927
31
0
0
LINE
5
112
100
AcDbEntity
8
0
100
AcDbLine
10
343.38833299999999
20
127.00000242888926
30
0
11
343.38833299999999
21
130.00000242888927
31
0
0
LINE
5
113
100
AcDbEntity
8
0
100
AcDbLine
10
292.72166700000002
20
185.00000242888927
30
0
11
292.72166700000002
21
188.00000242888927
31
0
0
LINE
5
114
100
AcDbEntity
8
0
100
AcDbLine
10
323.121667
20
188.00000242888927
30
0
11
327.27833300000009
21
188.00000242888927
31
0
0
LINE
5
115
100
AcDbEntity
8
0
100
AcDbLine
10
348.00000000000006
20
171.81863842888927
30
0
11
345
21
171.81863842888927
31
0
0
LINE
5
116
100
AcDbEntity
8
0
100
AcDbLine
10
348.00000000000006
20
176.45409342888925
30
0
11
348.00000000000006
21
171.81863842888927
31
0
0
LINE
5
117
100
AcDbEntity
8
0
100
AcDbLine
10
348.00000000000006
20
138.54591142888924
30
0
11
344.50000476837158
21
138.54591142888924
31
0
0
LINE
5
118
100
AcDbEntity
8
0
100
AcDbLine
10
292.72166700000002
20
188.00000242888927
30
0
11
296.878333
21
188.00000242888927
31
0
0
LINE
5
119
100
AcDbEntity
8
0
100
AcDbLine
10
337.41166700000002
20
185.00000242888927
30
0
11
343.38833299999999
21
185.00000242888927
31
0
0
LINE
5
120
100
AcDbEntity
8
0
100
AcDbLine
10
272
20
188.00000242888927
30
0
11
276.61166700000001
21
188.00000242888927
31
0
0
LINE
5
121
100
AcDbEntity
8
0
100
AcDbLine
10
348.00000000000006
20
149.63682042888928
30
0
11
345
21
149.63682042888928
31
0
0
LINE
5
122
100
AcDbEntity
8
0
100
AcDbLine
10
348.00000000000006
20
127.00000242888926
30
0
11
343.38833299999999
21
127.00000242888926
31
0
0
LINE
5
123
100
AcDbEntity
8
0
100
AcDbLine
10
312.98833300000001
20
185.00000242888927
30
0
11
312.98833300000001
21
188.00000242888927
31
0
0
LINE
5
124
100
AcDbEntity
8
0
100
AcDbLine
10
317.14499999999998
20
185.00000242888927
30
0
11
323.121667
21
185.00000242888927
31
0
0
LINE
5
125
100
AcDbEntity
8
0
100
AcDbLine
10
348.00000000000006
20
165.36318442888927
30
0
11
348.00000000000006
21
160.72772942888929
31
0
0
LINE
5
126
100
AcDbEntity
8
0
100
AcDbLine
10
317.14499999999998
20
188.00000242888927
30
0
11
317.14499999999998
21
185.00000242888927
31
0
0
LINE
5
127
100
AcDbEntity
8
0
100
AcDbLine
10
307.01166699999999
20
188.00000242888927
30
0
11
307.01166699999999
21
185.00000242888927
31
0
0
LINE
5
128
100
AcDbEntity
8
0
100
AcDbLine
10
343.38833299999999
20
188.00000242888927
30
0
11
348.00000000000006
21
188.00000242888927
31
0
0
LINE
5
129
100
AcDbEntity
8
0
100
AcDbLine
10
296.878333
20
185.00000242888927
30
0
11
302.85500000000002
21
185.00000242888927
31
0
0
LINE
5
130
100
AcDbEntity
8
0
100
AcDbLine
10
344.50000476837158
20
132.09045742888924
30
0
11
348.00000000000006
21
132.09045742888924
31
0
0
LINE
5
131
100
AcDbEntity
8
0
100
AcDbLine
10
343.38833299999999
20
185.00000242888927
30
0
11
343.38833299999999
21
188.00000242888927
31
0
0
LINE
5
132
100
AcDbEntity
8
0
100
AcDbLine
10
282.58833300000003
20
185.00000242888927
30
0
11
282.58833300000003
21
188.00000242888927
31
0
0
LINE
5
133
100
AcDbEntity
8
0
100
AcDbLine
10
302.85500000000002
20
185.00000242888927
30
0
11
302.85500000000002
21
188.00000242888927
31
0
0
LINE
5
134
100
AcDbEntity
8
0
100
AcDbLine
10
302.85500000000002
20
127.00000242888926
30
0
11
302.85500000000002
21
130.00000242888927
31
0
0
LINE
5
135
100
AcDbEntity
8
0
100
AcDbLine
10
292.72166700000002
20
130.00000242888927
30
0
11
286.745
21
130.00000242888927
31
0
0
LINE
5
136
100
AcDbEntity
8
0
100
AcDbLine
10
345
20
143.18136642888928
30
0
11
348.00000000000006
21
143.18136642888928
31
0
0
LINE
5
137
100
AcDbEntity
8
0
100
AcDbLine
10
337.41166700000002
20
127.00000242888926
30
0
11
333.255
21
127.00000242888926
31
0
0
LINE
5
138
100
AcDbEntity
8
0
100
AcDbLine
10
286.745
20
185.00000242888927
30
0
11
292.72166700000002
21
185.00000242888927
31
0
0
LWPOLYLINE
5
139
100
AcDbEntity
8
0
100
AcDbPolyline
90
132
70
1
43
0.0
10
148.21166700000001
20
296
10
144.05500000000001
20
296
10
144.05500000000001
20
293
10
138.07833300000001
20
293
10
138.07833300000001
20
296
10
133.92166699999999
20
296
10
133.92166699999999
20
293
10
127.94499999999999
20
293
10
127.94499999999999
20
296
10
123.78833300000002
20
296
10
123.78833300000002
20
293
10
117.811667
20
293
10
117.811667
20
296
10
113.655
20
296
10
113.655
20
293
10
107.67833300000001
20
293
10
107.67833300000001
20
296
10
103.52166700000001
20
296
10
103.52166700000001
20
293
10
98
20
293
10
98
20
291.40236800000002
10
101.00000000000001
20
291.40236800000002
10
101.00000000000001
20
285.43973700000004
10
98
20
285.43973700000004
10
98
20
281.29710499999999
10
101.00000000000001
20
281.29710499999999
10
101.00000000000001
20
275.334474
10
98
20
275.334474
10
98
20
271.19184200000001
10
101.00000000000001
20
271.19184200000001
10
101.00000000000001
20
265.22921099999996
10
98
20
265.22921099999996
10
98
20
261.08657900000003
10
101.00000000000001
20
261.08657900000003
10
101.00000000000001
20
255.12394700000002
10
98
20
255.12394700000002
10
98
20
250.98131600000002
10
101.00000000000001
20
250.98131600000002
10
101.00000000000001
20
245.01868400000001
10
98
20
245.01868400000001
10
98
20
240.87605300000001
10
101.00000000000001
20
240.87605300000001
10
101.00000000000001
20
234.913421
10
98
20
234.913421
10
98
20
230.77078900000004
10
101.00000000000001
20
230.77078900000004
10
101.00000000000001
20
224.80815800000002
10
98
20
224.80815800000002
10
98
20
220.66552599999997
10
101.00000000000001
20
220.66552599999997
10
101.00000000000001
20
214.70289500000004
10
98
20
214.70289500000004
10
98
20
210.56026299999999
10
101.00000000000001
20
210.56026299999999
10
101.00000000000001
20
204.597632
10
98
20
204.597632
10
98
20
203
10
103.52166700000001
20
203
10
103.52166700000001
20
200
10
107.67833300000001
20
200
10
107.67833300000001
20
203
10
113.655
20
203
10
113.655
20
200
10
117.811667
20
200
10
117.811667
20
203
10
123.78833300000002
20
203
10
123.78833300000002
20
200
10
127.94499999999999
20
200
10
127.94499999999999
20
203
10
133.92166699999999
20
203
10
133.92166699999999
20
200
10
138.07833300000001
20
200
10
138.07833300000001
20
203
10
144.05500000000001
20
203
10
144.05500000000001
20
200
10
148.21166700000001
20
200
10
148.21166700000001
20
203
10
154.188333
20
203
10
154.188333
20
200
10
158.345
20
200
10
158.345
20
203
10
164.32166699999999
20
203
10
164.32166699999999
20
200
10
168.47833300000002
20
200
10
168.47833300000002
20
203
10
174.00000000000003
20
203
10
174.00000000000003
20
206.01868450000006
10
171
20
206.01868450000006
10
171
20
211.98131549999999
10
174.00000000000003
20
211.98131549999999
10
174.00000000000003
20
214.70289500000004
10
171
20
214.70289500000004
10
171
20
220.66552599999997
10
174.00000000000003
20
220.66552599999997
10
174.00000000000003
20
224.80815800000002
10
171
20
224.80815800000002
10
171
20
230.77078900000004
10
174.00000000000003
20
230.77078900000004
10
174.00000000000003
20
234.913421
10
171
20
234.913421
10
171
20
240.87605300000001
10
174.00000000000003
20
240.87605300000001
10
174.00000000000003
20
245.01868400000001
10
171
20
245.01868400000001
10
171
20
250.98131600000002
10
174.00000000000003
20
250.98131600000002
10
174.00000000000003
20
255.12394700000002
10
171
20
255.12394700000002
10
171
20
261.08657900000003
10
174.00000000000003
20
261.08657900000003
10
174.00000000000003
20
265.22921099999996
10
171
20
265.22921099999996
10
171
20
271.19184200000001
10
174.00000000000003
20
271.19184200000001
10
174.00000000000003
20
275.334474
10
171
20
275.334474
10
171
20
281.29710499999999
10
174.00000000000003
20
281.29710499999999
10
174.00000000000003
20
285.43973700000004
10
171
20
285.43973700000004
10
171
20
291.40236800000002
10
174.00000000000003
20
291.40236800000002
10
174.00000000000003
20
293
10
168.47833300000002
20
293
10
168.47833300000002
20
296
10
164.32166699999999
20
296
10
164.32166699999999
20
293
10
158.345
20
293
10
158.345
20
296
10
154.188333
20
296
10
154.188333
20
293
10
148.21166700000001
20
293
0
LINE
5
140
100
AcDbEntity
8
0
100
AcDbLine
10
348.00000000000006
20
188.00000242888927
30
0
11
348.00000000000006
21
182.90954742888928
31
0
0
LINE
5
141
100
AcDbEntity
8
0
100
AcDbLine
10
348.00000000000006
20
132.09045742888924
30
0
11
348.00000000000006
21
127.00000242888926
31
0
0
LINE
5
142
100
AcDbEntity
8
0
100
AcDbLine
10
296.878333
20
188.00000242888927
30
0
11
296.878333
21
185.00000242888927
31
0
0
LINE
5
143
100
AcDbEntity
8
0
100
AcDbLine
10
323.121667
20
185.00000242888927
30
0
11
323.121667
21
188.00000242888927
31
0
0
LINE
5
144
100
AcDbEntity
8
0
100
AcDbLine
10
333.255
20
188.00000242888927
30
0
11
337.41166700000002
21
188.00000242888927
31
0
0
LINE
5
145
100
AcDbEntity
8
0
100
AcDbLine
10
348.00000000000006
20
154.27227542888926
30
0
11
348.00000000000006
21
149.63682042888928
31
0
0
LINE
5
146
100
AcDbEntity
8
0
100
AcDbLine
10
276.61166700000001
20
188.00000242888927
30
0
11
276.61166700000001
21
185.00000242888927
31
0
0
LINE
5
147
100
AcDbEntity
8
0
100
AcDbLine
10
345
20
171.81863842888927
30
0
11
345
21
165.36318442888927
31
0
0
LINE
5
148
100
AcDbEntity
8
0
100
AcDbLine
10
337.41166700000002
20
188.00000242888927
30
0
11
337.41166700000002
21
185.00000242888927
31
0
0
LINE
5
149
100
AcDbEntity
8
0
100
AcDbLine
10
345
20
176.45409342888925
30
0
11
348.00000000000006
21
176.45409342888925
31
0
0
LINE
5
150
100
AcDbEntity
8
0
100
AcDbLine
10
345
20
160.72772942888929
30
0
11
345
21
154.27227542888926
31
0
0
LINE
5
151
100
AcDbEntity
8
0
100
AcDbLine
10
345
20
165.36318442888927
30
0
11
348.00000000000006
21
165.36318442888927
31
0
0
LINE
5
152
100
AcDbEntity
8
0
100
AcDbLine
10
348.00000000000006
20
182.90954742888928
30
0
11
345
21
182.90954742888928
31
0
0
LINE
5
153
100
AcDbEntity
8
0
100
AcDbLine
10
327.27833300000009
20
188.00000242888927
30
0
11
327.27833300000009
21
185.00000242888927
31
0
0
LINE
5
154
100
AcDbEntity
8
0
100
AcDbLine
10
333.255
20
185.00000242888927
30
0
11
333.255
21
188.00000242888927
31
0
0
LINE
5
155
100
AcDbEntity
8
0
100
AcDbLine
10
275
20
171.81863842888927
30
0
11
272
21
171.81863842888927
31
0
0
LINE
5
156
100
AcDbEntity
8
0
100
AcDbLine
10
307.01166699999999
20
185.00000242888927
30
0
11
312.98833300000001
21
185.00000242888927
31
0
0
LINE
5
157
100
AcDbEntity
8
0
100
AcDbLine
10
345
20
149.63682042888928
30
0
11
345
21
143.18136642888928
31
0
0
LINE
5
158
100
AcDbEntity
8
0
100
AcDbLine
10
345
20
182.90954742888928
30
0
11
345
21
176.45409342888925
31
0
0
LINE
5
159
100
AcDbEntity
8
0
100
AcDbLine
10
276.61166700000001
20
185.00000242888927
30
0
11
282.58833300000003
21
185.00000242888927
31
0
0
LINE
5
160
100
AcDbEntity
8
0
100
AcDbLine
10
348.00000000000006
20
160.72772942888929
30
0
11
345
21
160.72772942888929
31
0
0
LINE
5
161
100
AcDbEntity
8
0
100
AcDbLine
10
286.745
20
188.00000242888927
30
0
11
286.745
21
185.00000242888927
31
0
0
LINE
5
162
100
AcDbEntity
8
0
100
AcDbLine
10
282.58833300000003
20
188.00000242888927
30
0
11
286.745
21
188.00000242888927
31
0
0
LINE
5
163
100
AcDbEntity
8
0
100
AcDbLine
10
333.255
20
127.00000242888926
30
0
11
333.255
21
130.00000242888927
31
0
0
LINE
5
164
100
AcDbEntity
8
0
100
AcDbLine
10
333.255
20
130.00000242888927
30
0
11
327.27833300000009
21
130.00000242888927
31
0
0
LINE
5
165
100
AcDbEntity
8
0
100
AcDbLine
10
343.38833299999999
20
130.00000242888927
30
0
11
337.41166700000002
21
130.00000242888927
31
0
0
LINE
5
166
100
AcDbEntity
8
0
100
AcDbLine
10
312.98833300000001
20
188.00000242888927
30
0
11
317.14499999999998
21
188.00000242888927
31
0
0
LINE
5
167
100
AcDbEntity
8
0
100
AcDbLine
10
302.85500000000002
20
188.00000242888927
30
0
11
307.01166699999999
21
188.00000242888927
31
0
0
LINE
5
168
100
AcDbEntity
8
0
100
AcDbLine
10
275
20
182.90954742888928
30
0
11
272
21
182.90954742888928
31
0
0
LINE
5
169
100
AcDbEntity
8
0
100
AcDbLine
10
317.14499999999998
20
130.00000242888927
30
0
11
317.14499999999998
21
127.00000242888926
31
0
0
LINE
5
170
100
AcDbEntity
8
0
100
AcDbLine
10
276.61166700000001
20
130.00000242888927
30
0
11
276.61166700000001
21
127.00000242888926
31
0
0
LINE
5
171
100
AcDbEntity
8
0
100
AcDbLine
10
302.85500000000002
20
130.00000242888927
30
0
11
296.878333
21
130.00000242888927
31
0
0
LINE
5
172
100
AcDbEntity
8
0
100
AcDbLine
10
296.878333
20
130.00000242888927
30
0
11
296.878333
21
127.00000242888926
31
0
0
LINE
5
173
100
AcDbEntity
8
0
100
AcDbLine
10
282.58833300000003
20
130.00000242888927
30
0
11
276.61166700000001
21
130.00000242888927
31
0
0
LINE
5
174
100
AcDbEntity
8
0
100
AcDbLine
10
275
20
143.18136642888928
30
0
11
275
21
149.63682042888928
31
0
0
LINE
5
175
100
AcDbEntity
8
0
100
AcDbLine
10
272
20
127.00000242888926
30
0
11
272
21
132.09045742888924
31
0
0
LINE
5
176
100
AcDbEntity
8
0
100
AcDbLine
10
312.98833300000001
20
127.00000242888926
30
0
11
312.98833300000001
21
130.00000242888927
31
0
0
LINE
5
177
100
AcDbEntity
8
0
100
AcDbLine
10
272
20
171.81863842888927
30
0
11
272
21
176.45409342888925
31
0
0
LINE
5
178
100
AcDbEntity
8
0
100
AcDbLine
10
307.01166699999999
20
130.00000242888927
30
0
11
307.01166699999999
21
127.00000242888926
31
0
0
LINE
5
179
100
AcDbEntity
8
0
100
AcDbLine
10
275
20
154.27227542888926
30
0
11
275
21
160.72772942888929
31
0
0
LINE
5
180
100
AcDbEntity
8
0
100
AcDbLine
10
272
20
176.45409342888925
30
0
11
275
21
176.45409342888925
31
0
0
LINE
5
181
100
AcDbEntity
8
0
100
AcDbLine
10
276.61166700000001
20
127.00000242888926
30
0
11
272
21
127.00000242888926
31
0
0
LINE
5
182
100
AcDbEntity
8
0
100
AcDbLine
10
307.01166699999999
20
127.00000242888926
30
0
11
302.85500000000002
21
127.00000242888926
31
0
0
LINE
5
183
100
AcDbEntity
8
0
100
AcDbLine
10
272
20
138.54591142888924
30
0
11
272
21
143.18136642888928
31
0
0
LINE
5
184
100
AcDbEntity
8
0
100
AcDbLine
10
323.121667
20
130.00000242888927
30
0
11
317.14499999999998
21
130.00000242888927
31
0
0
LINE
5
185
100
AcDbEntity
8
0
100
AcDbLine
10
272
20
143.18136642888928
30
0
11
275
21
143.18136642888928
31
0
0
LINE
5
186
100
AcDbEntity
8
0
100
AcDbLine
10
323.121667
20
127.00000242888926
30
0
11
323.121667
21
130.00000242888927
31
0
0
LINE
5
187
100
AcDbEntity
8
0
100
AcDbLine
10
272
20
165.36318442888927
30
0
11
275
21
165.36318442888927
31
0
0
LINE
5
188
100
AcDbEntity
8
0
100
AcDbLine
10
275
20
149.63682042888928
30
0
11
272
21
149.63682042888928
31
0
0
LINE
5
189
100
AcDbEntity
8
0
100
AcDbLine
10
272
20
154.27227542888926
30
0
11
275
21
154.27227542888926
31
0
0
LINE
5
190
100
AcDbEntity
8
0
100
AcDbLine
10
312.98833300000001
20
130.00000242888927
30
0
11
307.01166699999999
21
130.00000242888927
31
0
0
LINE
5
191
100
AcDbEntity
8
0
100
AcDbLine
10
272
20
132.09045742888924
30
0
11
274.50000476837158
21
132.09045742888924
31
0
0
LINE
5
192
100
AcDbEntity
8
0
100
AcDbLine
10
292.72166700000002
20
127.00000242888926
30
0
11
292.72166700000002
21
130.00000242888927
31
0
0
LINE
5
193
100
AcDbEntity
8
0
100
AcDbLine
10
272
20
182.90954742888928
30
0
11
272
21
188.00000242888927
31
0
0
LINE
5
194
100
AcDbEntity
8
0
100
AcDbLine
10
275
20
165.36318442888927
30
0
11
275
21
171.81863842888927
31
0
0
LINE
5
195
100
AcDbEntity
8
0
100
AcDbLine
10
296.878333
20
127.00000242888926
30
0
11
292.72166700000002
21
127.00000242888926
31
0
0
LINE
5
196
100
AcDbEntity
8
0
100
AcDbLine
10
317.14499999999998
20
127.00000242888926
30
0
11
312.98833300000001
21
127.00000242888926
31
0
0
LINE
5
197
100
AcDbEntity
8
0
100
AcDbLine
10
282.58833300000003
20
127.00000242888926
30
0
11
282.58833300000003
21
130.00000242888927
31
0
0
LINE
5
198
100
AcDbEntity
8
0
100
AcDbLine
10
274.50000476837158
20
138.54591142888924
30
0
11
272
21
138.54591142888924
31
0
0
LINE
5
199
100
AcDbEntity
8
0
100
AcDbLine
10
272
20
160.72772942888929
30
0
11
272
21
165.36318442888927
31
0
0
LINE
5
200
100
AcDbEntity
8
0
100
AcDbLine
10
274.50000476837158
20
132.09045742888924
30
0
11
274.50000476837158
21
138.54591142888924
31
0
0
LINE
5
201
100
AcDbEntity
8
0
100
AcDbLine
10
275
20
160.72772942888929
30
0
11
272
21
160.72772942888929
31
0
0
LINE
5
202
100
AcDbEntity
8
0
100
AcDbLine
10
272
20
149.63682042888928
30
0
11
272
21
154.27227542888926
31
0
0
LINE
5
203
100
AcDbEntity
8
0
100
AcDbLine
10
275
20
176.45409342888925
30
0
11
275
21
182.90954742888928
31
0
0
LINE
5
204
100
AcDbEntity
8
0
100
AcDbLine
10
286.745
20
127.00000242888926
30
0
11
282.58833300000003
21
127.00000242888926
31
0
0
LWPOLYLINE
5
205
100
AcDbEntity
8
0
100
AcDbPolyline
90
4
70
1
43
0.0
10
171.00951861241978
20
129
10
101.00460951016052
20
129
10
101.00460951016052
20
128
10
171.00951861241978
20
128
0
LINE
5
206
100
AcDbEntity
8
0
100
AcDbLine
10
101.00460951016052
20
128
30
0
11
101.00460951016052
21
129
31
0
0
LINE
5
207
100
AcDbEntity
8
0
100
AcDbLine
10
171.00951861241978
20
129
30
0
11
171.00951861241978
21
128
31
0
0
LINE
5
208
100
AcDbEntity
8
0
100
AcDbLine
10
101.00460951016052
20
129
30
0
11
171.00951861241978
21
129
31
0
0
LWPOLYLINE
5
209
100
AcDbEntity
8
0
100
AcDbPolyline
90
4
70
1
43
0.0
10
171
20
208
10
101.00000000000001
20
208
10
101.00000000000001
20
209.00000000000003
10
171
20
209.00000000000003
0
LWPOLYLINE
5
210
100
AcDbEntity
8
0
100
AcDbPolyline
90
4
70
1
43
0.0
10
186
20
142
10
183
20
142
10
183
20
195
10
186
20
195
0
LINE
5
211
100
AcDbEntity
8
0
100
AcDbLine
10
297.50000000000006
20
145.50000242888925
30
0
11
322.5
21
145.50000242888925
31
0
0
LINE
5
212
100
AcDbEntity
8
0
100
AcDbLine
10
322.5
20
145.50000242888925
30
0
11
322.5
21
169.50000242888927
31
0
0
LINE
5
213
100
AcDbEntity
8
0
100
AcDbLine
10
322.5
20
169.50000242888927
30
0
11
297.50000000000006
21
169.50000242888927
31
0
0
LINE
5
214
100
AcDbEntity
8
0
100
AcDbLine
10
297.50000000000006
20
169.50000242888927
30
0
11
297.50000000000006
21
145.50000242888925
31
0
0
LINE
5
215
100
AcDbEntity
8
0
100
AcDbLine
10
297.50000000000006
20
145.50000242888925
30
0
11
322.5
21
169.50000242888927
31
0
0
LINE
5
216
100
AcDbEntity
8
0
100
AcDbLine
10
322.5
20
145.50000242888925
30
0
11
297.50000000000006
21
169.50000242888927
31
0
0
CIRCLE
5
217
100
AcDbEntity
8
0
100
AcDbCircle
10
320.5
20
160.00000242888927
30
0
40
1.0000000149011612
0
CIRCLE
5
218
100
AcDbEntity
8
0
100
AcDbCircle
10
320.5
20
147.00000242888927
30
0
40
1.0000000149011612
0
CIRCLE
5
219
100
AcDbEntity
8
0
100
AcDbCircle
10
299.5
20
160.00000242888927
30
0
40
1.0000000149011612
0
CIRCLE
5
220
100
AcDbEntity
8
0
100
AcDbCircle
10
299.5
20
147.00000242888927
30
0
40
1.0000000149011612
0
LINE
5
221
100
AcDbEntity
8
0
100
AcDbLine
10
272
20
127.00000242888926
30
0
11
348.00000000000006
21
188.00000242888927
31
0
0
LINE
5
222
100
AcDbEntity
8
0
100
AcDbLine
10
272
20
188.00000242888927
30
0
11
348.00000000000006
21
127.00000242888926
31
0
0
LWPOLYLINE
5
223
100
AcDbEntity
8
0
100
AcDbPolyline
90
4
70
1
43
0.0
10
318.95670451979231
20
146.50000242888925
10
300.95670451979225
20
146.50000242888925
10
300.95670451979225
20
163.50000242888925
10
318.95670451979231
20
163.50000242888925
0
ENDSEC
0
SECTION
2
OBJECTS
0
DICTIONARY
5
C
100
AcDbDictionary
3
ACAD_GROUP
350
D
3
ACAD_MLINESTYLE
350
17
0
DICTIONARY
5
D
100
AcDbDictionary
0
DICTIONARY
5
1A
330
C
100
AcDbDictionary
0
DICTIONARY
5
17
100
AcDbDictionary
0
ENDSEC
0
EOF
